Apr 11, 2019 7:11:31 PM serverInterfaceImplementation.ConcordiaLibraryImplementation findItem
INFO: Received request from CONU1111 for finding a book with book name DISTRIBUTED
Apr 11, 2019 7:11:31 PM serverInterfaceImplementation.ConcordiaLibraryImplementation exchangeItem
INFO: Received request from CONU1111 for exchanging CON6231 with CON6441
Apr 11, 2019 7:11:31 PM serverInterfaceImplementation.ConcordiaLibraryImplementation borrowItem
INFO: Received request from CONU1111 for borrowing a book with book id CON6231
Apr 11, 2019 7:11:31 PM serverInterfaceImplementation.ConcordiaLibraryImplementation returnItem
INFO: Received request from CONU1111 for returning a book with book id CON6231
Apr 11, 2019 7:11:31 PM serverInterfaceImplementation.ConcordiaLibraryImplementation addItem
INFO: Received request from CONM1111 to add an item with book id CON6441 ,book name APP & quantity 1
Apr 11, 2019 7:11:31 PM serverInterfaceImplementation.ConcordiaLibraryImplementation removeItem
INFO: Received request from CONM1111 to remove an item with book id CON6231 & quantity 1
Apr 11, 2019 7:11:31 PM serverInterfaceImplementation.ConcordiaLibraryImplementation returnItem
INFO: Received request from CONU1111 for returning a book with book id CON6231
Apr 11, 2019 7:11:31 PM serverInterfaceImplementation.ConcordiaLibraryImplementation listItemAvailability
INFO: Received request from CONM1111 to list item
Apr 11, 2019 7:12:20 PM serverInterfaceImplementation.ConcordiaLibraryImplementation findItem
INFO: Received request from CONU1111 for finding a book with book name DISTRIBUTED
Apr 11, 2019 7:12:20 PM serverInterfaceImplementation.ConcordiaLibraryImplementation exchangeItem
INFO: Received request from CONU1111 for exchanging CON6231 with CON6441
Apr 11, 2019 7:12:20 PM serverInterfaceImplementation.ConcordiaLibraryImplementation borrowItem
INFO: Received request from CONU1111 for borrowing a book with book id CON6231
Apr 11, 2019 7:12:20 PM serverInterfaceImplementation.ConcordiaLibraryImplementation returnItem
INFO: Received request from CONU1111 for returning a book with book id CON6231
Apr 11, 2019 7:12:20 PM serverInterfaceImplementation.ConcordiaLibraryImplementation addItem
INFO: Received request from CONM1111 to add an item with book id CON6441 ,book name APP & quantity 1
Apr 11, 2019 7:12:20 PM serverInterfaceImplementation.ConcordiaLibraryImplementation returnItem
INFO: Received request from CONU1111 for returning a book with book id CON6231
Apr 11, 2019 7:12:20 PM serverInterfaceImplementation.ConcordiaLibraryImplementation listItemAvailability
INFO: Received request from CONM1111 to list item
Apr 11, 2019 7:12:20 PM serverInterfaceImplementation.ConcordiaLibraryImplementation returnItem
INFO: Received request from CONU1111 for returning a book with book id CON6231
Apr 11, 2019 7:12:20 PM serverInterfaceImplementation.ConcordiaLibraryImplementation removeItem
INFO: Received request from CONM1111 to remove an item with book id CON6231 & quantity 1
Apr 11, 2019 7:13:51 PM serverInterfaceImplementation.ConcordiaLibraryImplementation findItem
INFO: Received request from CONU1111 for finding a book with book name DISTRIBUTED
Apr 11, 2019 7:13:51 PM serverInterfaceImplementation.ConcordiaLibraryImplementation exchangeItem
INFO: Received request from CONU1111 for exchanging CON6231 with CON6441
Apr 11, 2019 7:13:51 PM serverInterfaceImplementation.ConcordiaLibraryImplementation returnItem
INFO: Received request from CONU1111 for returning a book with book id CON6231
Apr 11, 2019 7:13:51 PM serverInterfaceImplementation.ConcordiaLibraryImplementation borrowItem
INFO: Received request from CONU1111 for borrowing a book with book id CON6231
Apr 11, 2019 7:13:51 PM serverInterfaceImplementation.ConcordiaLibraryImplementation addItem
INFO: Received request from CONM1111 to add an item with book id CON6441 ,book name APP & quantity 1
Apr 11, 2019 7:13:51 PM serverInterfaceImplementation.ConcordiaLibraryImplementation listItemAvailability
INFO: Received request from CONM1111 to list item
Apr 11, 2019 7:13:51 PM serverInterfaceImplementation.ConcordiaLibraryImplementation returnItem
INFO: Received request from CONU1111 for returning a book with book id CON6231
Apr 11, 2019 7:13:51 PM serverInterfaceImplementation.ConcordiaLibraryImplementation returnItem
INFO: Received request from CONU1111 for returning a book with book id CON6231
Apr 11, 2019 7:13:51 PM serverInterfaceImplementation.ConcordiaLibraryImplementation removeItem
INFO: Received request from CONM1111 to remove an item with book id CON6231 & quantity 1
Apr 11, 2019 7:14:12 PM serverInterfaceImplementation.ConcordiaLibraryImplementation findItem
INFO: Received request from CONU1111 for finding a book with book name DISTRIBUTED
Apr 11, 2019 7:14:12 PM serverInterfaceImplementation.ConcordiaLibraryImplementation exchangeItem
INFO: Received request from CONU1111 for exchanging CON6231 with CON6441
Apr 11, 2019 7:14:12 PM serverInterfaceImplementation.ConcordiaLibraryImplementation returnItem
INFO: Received request from CONU1111 for returning a book with book id CON6231
Apr 11, 2019 7:14:12 PM serverInterfaceImplementation.ConcordiaLibraryImplementation addItem
INFO: Received request from CONM1111 to add an item with book id CON6441 ,book name APP & quantity 1
Apr 11, 2019 7:14:12 PM serverInterfaceImplementation.ConcordiaLibraryImplementation listItemAvailability
INFO: Received request from CONM1111 to list item
Apr 11, 2019 7:14:12 PM serverInterfaceImplementation.ConcordiaLibraryImplementation borrowItem
INFO: Received request from CONU1111 for borrowing a book with book id CON6231
Apr 11, 2019 7:14:12 PM serverInterfaceImplementation.ConcordiaLibraryImplementation returnItem
INFO: Received request from CONU1111 for returning a book with book id CON6231
Apr 11, 2019 7:14:12 PM serverInterfaceImplementation.ConcordiaLibraryImplementation removeItem
INFO: Received request from CONM1111 to remove an item with book id CON6231 & quantity 1
Apr 11, 2019 7:14:12 PM serverInterfaceImplementation.ConcordiaLibraryImplementation returnItem
INFO: Received request from CONU1111 for returning a book with book id CON6231
Apr 11, 2019 7:14:29 PM serverInterfaceImplementation.ConcordiaLibraryImplementation findItem
INFO: Received request from CONU1111 for finding a book with book name DISTRIBUTED
Apr 11, 2019 7:14:29 PM serverInterfaceImplementation.ConcordiaLibraryImplementation exchangeItem
INFO: Received request from CONU1111 for exchanging CON6231 with CON6441
Apr 11, 2019 7:14:29 PM serverInterfaceImplementation.ConcordiaLibraryImplementation borrowItem
INFO: Received request from CONU1111 for borrowing a book with book id CON6231
Apr 11, 2019 7:14:29 PM serverInterfaceImplementation.ConcordiaLibraryImplementation returnItem
INFO: Received request from CONU1111 for returning a book with book id CON6231
Apr 11, 2019 7:14:29 PM serverInterfaceImplementation.ConcordiaLibraryImplementation addItem
INFO: Received request from CONM1111 to add an item with book id CON6441 ,book name APP & quantity 1
Apr 11, 2019 7:14:29 PM serverInterfaceImplementation.ConcordiaLibraryImplementation removeItem
INFO: Received request from CONM1111 to remove an item with book id CON6231 & quantity 1
Apr 11, 2019 7:14:29 PM serverInterfaceImplementation.ConcordiaLibraryImplementation returnItem
INFO: Received request from CONU1111 for returning a book with book id CON6231
Apr 11, 2019 7:14:29 PM serverInterfaceImplementation.ConcordiaLibraryImplementation listItemAvailability
INFO: Received request from CONM1111 to list item
Apr 11, 2019 7:14:29 PM serverInterfaceImplementation.ConcordiaLibraryImplementation returnItem
INFO: Received request from CONU1111 for returning a book with book id CON6231
Apr 11, 2019 7:15:05 PM serverInterfaceImplementation.ConcordiaLibraryImplementation findItem
INFO: Received request from CONU1111 for finding a book with book name DISTRIBUTED
Apr 11, 2019 7:15:05 PM serverInterfaceImplementation.ConcordiaLibraryImplementation exchangeItem
INFO: Received request from CONU1111 for exchanging CON6231 with CON6441
Apr 11, 2019 7:15:05 PM serverInterfaceImplementation.ConcordiaLibraryImplementation borrowItem
INFO: Received request from CONU1111 for borrowing a book with book id CON6231
Apr 11, 2019 7:15:05 PM serverInterfaceImplementation.ConcordiaLibraryImplementation returnItem
INFO: Received request from CONU1111 for returning a book with book id CON6231
Apr 11, 2019 7:15:05 PM serverInterfaceImplementation.ConcordiaLibraryImplementation addItem
INFO: Received request from CONM1111 to add an item with book id CON6441 ,book name APP & quantity 1
Apr 11, 2019 7:15:05 PM serverInterfaceImplementation.ConcordiaLibraryImplementation listItemAvailability
INFO: Received request from CONM1111 to list item
Apr 11, 2019 7:15:05 PM serverInterfaceImplementation.ConcordiaLibraryImplementation removeItem
INFO: Received request from CONM1111 to remove an item with book id CON6231 & quantity 1
Apr 11, 2019 7:15:05 PM serverInterfaceImplementation.ConcordiaLibraryImplementation returnItem
INFO: Received request from CONU1111 for returning a book with book id CON6231
Apr 11, 2019 7:15:05 PM serverInterfaceImplementation.ConcordiaLibraryImplementation returnItem
INFO: Received request from CONU1111 for returning a book with book id CON6231
Apr 11, 2019 7:15:21 PM serverInterfaceImplementation.ConcordiaLibraryImplementation findItem
INFO: Received request from CONU1111 for finding a book with book name DISTRIBUTED
Apr 11, 2019 7:15:21 PM serverInterfaceImplementation.ConcordiaLibraryImplementation exchangeItem
INFO: Received request from CONU1111 for exchanging CON6231 with CON6441
Apr 11, 2019 7:15:21 PM serverInterfaceImplementation.ConcordiaLibraryImplementation returnItem
INFO: Received request from CONU1111 for returning a book with book id CON6231
Apr 11, 2019 7:15:21 PM serverInterfaceImplementation.ConcordiaLibraryImplementation addItem
INFO: Received request from CONM1111 to add an item with book id CON6441 ,book name APP & quantity 1
Apr 11, 2019 7:15:21 PM serverInterfaceImplementation.ConcordiaLibraryImplementation borrowItem
INFO: Received request from CONU1111 for borrowing a book with book id CON6231
Apr 11, 2019 7:15:21 PM serverInterfaceImplementation.ConcordiaLibraryImplementation returnItem
INFO: Received request from CONU1111 for returning a book with book id CON6231
Apr 11, 2019 7:15:21 PM serverInterfaceImplementation.ConcordiaLibraryImplementation returnItem
INFO: Received request from CONU1111 for returning a book with book id CON6231
Apr 11, 2019 7:15:21 PM serverInterfaceImplementation.ConcordiaLibraryImplementation listItemAvailability
INFO: Received request from CONM1111 to list item
Apr 11, 2019 7:15:21 PM serverInterfaceImplementation.ConcordiaLibraryImplementation removeItem
INFO: Received request from CONM1111 to remove an item with book id CON6231 & quantity 1
Apr 11, 2019 7:15:46 PM serverInterfaceImplementation.ConcordiaLibraryImplementation findItem
INFO: Received request from CONU1111 for finding a book with book name DISTRIBUTED
Apr 11, 2019 7:15:46 PM serverInterfaceImplementation.ConcordiaLibraryImplementation exchangeItem
INFO: Received request from CONU1111 for exchanging CON6231 with CON6441
Apr 11, 2019 7:15:46 PM serverInterfaceImplementation.ConcordiaLibraryImplementation borrowItem
INFO: Received request from CONU1111 for borrowing a book with book id CON6231
Apr 11, 2019 7:15:46 PM serverInterfaceImplementation.ConcordiaLibraryImplementation addItem
INFO: Received request from CONM1111 to add an item with book id CON6441 ,book name APP & quantity 1
Apr 11, 2019 7:15:46 PM serverInterfaceImplementation.ConcordiaLibraryImplementation returnItem
INFO: Received request from CONU1111 for returning a book with book id CON6231
Apr 11, 2019 7:15:46 PM serverInterfaceImplementation.ConcordiaLibraryImplementation returnItem
INFO: Received request from CONU1111 for returning a book with book id CON6231
Apr 11, 2019 7:15:46 PM serverInterfaceImplementation.ConcordiaLibraryImplementation returnItem
INFO: Received request from CONU1111 for returning a book with book id CON6231
Apr 11, 2019 7:15:46 PM serverInterfaceImplementation.ConcordiaLibraryImplementation listItemAvailability
INFO: Received request from CONM1111 to list item
Apr 11, 2019 7:15:46 PM serverInterfaceImplementation.ConcordiaLibraryImplementation removeItem
INFO: Received request from CONM1111 to remove an item with book id CON6231 & quantity 1
Apr 11, 2019 7:16:02 PM serverInterfaceImplementation.ConcordiaLibraryImplementation findItem
INFO: Received request from CONU1111 for finding a book with book name DISTRIBUTED
Apr 11, 2019 7:16:02 PM serverInterfaceImplementation.ConcordiaLibraryImplementation exchangeItem
INFO: Received request from CONU1111 for exchanging CON6231 with CON6441
Apr 11, 2019 7:16:02 PM serverInterfaceImplementation.ConcordiaLibraryImplementation borrowItem
INFO: Received request from CONU1111 for borrowing a book with book id CON6231
Apr 11, 2019 7:16:02 PM serverInterfaceImplementation.ConcordiaLibraryImplementation returnItem
INFO: Received request from CONU1111 for returning a book with book id CON6231
Apr 11, 2019 7:16:02 PM serverInterfaceImplementation.ConcordiaLibraryImplementation addItem
INFO: Received request from CONM1111 to add an item with book id CON6441 ,book name APP & quantity 1
Apr 11, 2019 7:16:02 PM serverInterfaceImplementation.ConcordiaLibraryImplementation listItemAvailability
INFO: Received request from CONM1111 to list item
Apr 11, 2019 7:16:02 PM serverInterfaceImplementation.ConcordiaLibraryImplementation returnItem
INFO: Received request from CONU1111 for returning a book with book id CON6231
Apr 11, 2019 7:16:02 PM serverInterfaceImplementation.ConcordiaLibraryImplementation returnItem
INFO: Received request from CONU1111 for returning a book with book id CON6231
Apr 11, 2019 7:16:02 PM serverInterfaceImplementation.ConcordiaLibraryImplementation removeItem
INFO: Received request from CONM1111 to remove an item with book id CON6231 & quantity 1
Apr 11, 2019 7:16:27 PM serverInterfaceImplementation.ConcordiaLibraryImplementation findItem
INFO: Received request from CONU1111 for finding a book with book name DISTRIBUTED
Apr 11, 2019 7:16:27 PM serverInterfaceImplementation.ConcordiaLibraryImplementation borrowItem
INFO: Received request from CONU1111 for borrowing a book with book id CON6231
Apr 11, 2019 7:16:27 PM serverInterfaceImplementation.ConcordiaLibraryImplementation exchangeItem
INFO: Received request from CONU1111 for exchanging CON6231 with CON6441
Apr 11, 2019 7:16:27 PM serverInterfaceImplementation.ConcordiaLibraryImplementation returnItem
INFO: Received request from CONU1111 for returning a book with book id CON6231
Apr 11, 2019 7:16:27 PM serverInterfaceImplementation.ConcordiaLibraryImplementation addItem
INFO: Received request from CONM1111 to add an item with book id CON6441 ,book name APP & quantity 1
Apr 11, 2019 7:16:27 PM serverInterfaceImplementation.ConcordiaLibraryImplementation listItemAvailability
INFO: Received request from CONM1111 to list item
Apr 11, 2019 7:16:27 PM serverInterfaceImplementation.ConcordiaLibraryImplementation returnItem
INFO: Received request from CONU1111 for returning a book with book id CON6231
Apr 11, 2019 7:16:27 PM serverInterfaceImplementation.ConcordiaLibraryImplementation returnItem
INFO: Received request from CONU1111 for returning a book with book id CON6231
Apr 11, 2019 7:16:27 PM serverInterfaceImplementation.ConcordiaLibraryImplementation removeItem
INFO: Received request from CONM1111 to remove an item with book id CON6231 & quantity 1
Apr 11, 2019 7:16:52 PM serverInterfaceImplementation.ConcordiaLibraryImplementation findItem
INFO: Received request from CONU1111 for finding a book with book name DISTRIBUTED
Apr 11, 2019 7:16:52 PM serverInterfaceImplementation.ConcordiaLibraryImplementation exchangeItem
INFO: Received request from CONU1111 for exchanging CON6231 with CON6441
Apr 11, 2019 7:16:52 PM serverInterfaceImplementation.ConcordiaLibraryImplementation borrowItem
INFO: Received request from CONU1111 for borrowing a book with book id CON6231
Apr 11, 2019 7:16:52 PM serverInterfaceImplementation.ConcordiaLibraryImplementation returnItem
INFO: Received request from CONU1111 for returning a book with book id CON6231
Apr 11, 2019 7:16:52 PM serverInterfaceImplementation.ConcordiaLibraryImplementation returnItem
INFO: Received request from CONU1111 for returning a book with book id CON6231
Apr 11, 2019 7:16:52 PM serverInterfaceImplementation.ConcordiaLibraryImplementation removeItem
INFO: Received request from CONM1111 to remove an item with book id CON6231 & quantity 1
Apr 11, 2019 7:16:52 PM serverInterfaceImplementation.ConcordiaLibraryImplementation addItem
INFO: Received request from CONM1111 to add an item with book id CON6441 ,book name APP & quantity 1
Apr 11, 2019 7:16:52 PM serverInterfaceImplementation.ConcordiaLibraryImplementation returnItem
INFO: Received request from CONU1111 for returning a book with book id CON6231
Apr 11, 2019 7:16:52 PM serverInterfaceImplementation.ConcordiaLibraryImplementation listItemAvailability
INFO: Received request from CONM1111 to list item
Apr 11, 2019 7:17:18 PM serverInterfaceImplementation.ConcordiaLibraryImplementation findItem
INFO: Received request from CONU1111 for finding a book with book name DISTRIBUTED
Apr 11, 2019 7:17:18 PM serverInterfaceImplementation.ConcordiaLibraryImplementation exchangeItem
INFO: Received request from CONU1111 for exchanging CON6231 with CON6441
Apr 11, 2019 7:17:18 PM serverInterfaceImplementation.ConcordiaLibraryImplementation borrowItem
INFO: Received request from CONU1111 for borrowing a book with book id CON6231
Apr 11, 2019 7:17:18 PM serverInterfaceImplementation.ConcordiaLibraryImplementation listItemAvailability
INFO: Received request from CONM1111 to list item
Apr 11, 2019 7:17:18 PM serverInterfaceImplementation.ConcordiaLibraryImplementation returnItem
INFO: Received request from CONU1111 for returning a book with book id CON6231
Apr 11, 2019 7:17:18 PM serverInterfaceImplementation.ConcordiaLibraryImplementation returnItem
INFO: Received request from CONU1111 for returning a book with book id CON6231
Apr 11, 2019 7:17:18 PM serverInterfaceImplementation.ConcordiaLibraryImplementation removeItem
INFO: Received request from CONM1111 to remove an item with book id CON6231 & quantity 1
Apr 11, 2019 7:17:18 PM serverInterfaceImplementation.ConcordiaLibraryImplementation addItem
INFO: Received request from CONM1111 to add an item with book id CON6441 ,book name APP & quantity 1
Apr 11, 2019 7:17:18 PM serverInterfaceImplementation.ConcordiaLibraryImplementation returnItem
INFO: Received request from CONU1111 for returning a book with book id CON6231
Apr 11, 2019 7:18:03 PM serverInterfaceImplementation.ConcordiaLibraryImplementation findItem
INFO: Received request from CONU1111 for finding a book with book name DISTRIBUTED
Apr 11, 2019 7:18:03 PM serverInterfaceImplementation.ConcordiaLibraryImplementation exchangeItem
INFO: Received request from CONU1111 for exchanging CON6231 with CON6441
Apr 11, 2019 7:18:03 PM serverInterfaceImplementation.ConcordiaLibraryImplementation borrowItem
INFO: Received request from CONU1111 for borrowing a book with book id CON6231
Apr 11, 2019 7:18:03 PM serverInterfaceImplementation.ConcordiaLibraryImplementation returnItem
INFO: Received request from CONU1111 for returning a book with book id CON6231
Apr 11, 2019 7:18:03 PM serverInterfaceImplementation.ConcordiaLibraryImplementation addItem
INFO: Received request from CONM1111 to add an item with book id CON6441 ,book name APP & quantity 1
Apr 11, 2019 7:18:03 PM serverInterfaceImplementation.ConcordiaLibraryImplementation listItemAvailability
INFO: Received request from CONM1111 to list item
Apr 11, 2019 7:18:03 PM serverInterfaceImplementation.ConcordiaLibraryImplementation returnItem
INFO: Received request from CONU1111 for returning a book with book id CON6231
Apr 11, 2019 7:18:03 PM serverInterfaceImplementation.ConcordiaLibraryImplementation removeItem
INFO: Received request from CONM1111 to remove an item with book id CON6231 & quantity 1
Apr 11, 2019 7:18:03 PM serverInterfaceImplementation.ConcordiaLibraryImplementation returnItem
INFO: Received request from CONU1111 for returning a book with book id CON6231
Apr 11, 2019 7:18:15 PM serverInterfaceImplementation.ConcordiaLibraryImplementation findItem
INFO: Received request from CONU1111 for finding a book with book name DISTRIBUTED
Apr 11, 2019 7:18:15 PM serverInterfaceImplementation.ConcordiaLibraryImplementation exchangeItem
INFO: Received request from CONU1111 for exchanging CON6231 with CON6441
Apr 11, 2019 7:18:15 PM serverInterfaceImplementation.ConcordiaLibraryImplementation borrowItem
INFO: Received request from CONU1111 for borrowing a book with book id CON6231
Apr 11, 2019 7:18:16 PM serverInterfaceImplementation.ConcordiaLibraryImplementation returnItem
INFO: Received request from CONU1111 for returning a book with book id CON6231
Apr 11, 2019 7:18:16 PM serverInterfaceImplementation.ConcordiaLibraryImplementation listItemAvailability
INFO: Received request from CONM1111 to list item
Apr 11, 2019 7:18:16 PM serverInterfaceImplementation.ConcordiaLibraryImplementation addItem
INFO: Received request from CONM1111 to add an item with book id CON6441 ,book name APP & quantity 1
Apr 11, 2019 7:18:16 PM serverInterfaceImplementation.ConcordiaLibraryImplementation returnItem
INFO: Received request from CONU1111 for returning a book with book id CON6231
Apr 11, 2019 7:18:16 PM serverInterfaceImplementation.ConcordiaLibraryImplementation returnItem
INFO: Received request from CONU1111 for returning a book with book id CON6231
Apr 11, 2019 7:18:16 PM serverInterfaceImplementation.ConcordiaLibraryImplementation removeItem
INFO: Received request from CONM1111 to remove an item with book id CON6231 & quantity 1
Apr 11, 2019 7:18:29 PM serverInterfaceImplementation.ConcordiaLibraryImplementation listItemAvailability
INFO: Received request from CONM1111 to list item
Apr 11, 2019 7:18:29 PM serverInterfaceImplementation.ConcordiaLibraryImplementation addItem
INFO: Received request from CONM1111 to add an item with book id CON6441 ,book name APP & quantity 1
Apr 11, 2019 7:18:29 PM serverInterfaceImplementation.ConcordiaLibraryImplementation exchangeItem
INFO: Received request from CONU1111 for exchanging CON6231 with CON6441
Apr 11, 2019 7:18:29 PM serverInterfaceImplementation.ConcordiaLibraryImplementation returnItem
INFO: Received request from CONU1111 for returning a book with book id CON6231
Apr 11, 2019 7:18:29 PM serverInterfaceImplementation.ConcordiaLibraryImplementation borrowItem
INFO: Received request from CONU1111 for borrowing a book with book id CON6231
Apr 11, 2019 7:18:29 PM serverInterfaceImplementation.ConcordiaLibraryImplementation returnItem
INFO: Received request from CONU1111 for returning a book with book id CON6231
Apr 11, 2019 7:18:29 PM serverInterfaceImplementation.ConcordiaLibraryImplementation findItem
INFO: Received request from CONU1111 for finding a book with book name DISTRIBUTED
Apr 11, 2019 7:18:29 PM serverInterfaceImplementation.ConcordiaLibraryImplementation returnItem
INFO: Received request from CONU1111 for returning a book with book id CON6231
Apr 11, 2019 7:18:29 PM serverInterfaceImplementation.ConcordiaLibraryImplementation removeItem
INFO: Received request from CONM1111 to remove an item with book id CON6231 & quantity 1
Apr 11, 2019 7:19:49 PM serverInterfaceImplementation.ConcordiaLibraryImplementation findItem
INFO: Received request from CONU1111 for finding a book with book name DISTRIBUTED
Apr 11, 2019 7:19:49 PM serverInterfaceImplementation.ConcordiaLibraryImplementation exchangeItem
INFO: Received request from CONU1111 for exchanging CON6231 with CON6441
Apr 11, 2019 7:19:49 PM serverInterfaceImplementation.ConcordiaLibraryImplementation returnItem
INFO: Received request from CONU1111 for returning a book with book id CON6231
Apr 11, 2019 7:19:49 PM serverInterfaceImplementation.ConcordiaLibraryImplementation borrowItem
INFO: Received request from CONU1111 for borrowing a book with book id CON6231
Apr 11, 2019 7:19:49 PM serverInterfaceImplementation.ConcordiaLibraryImplementation addItem
INFO: Received request from CONM1111 to add an item with book id CON6441 ,book name APP & quantity 1
Apr 11, 2019 7:19:49 PM serverInterfaceImplementation.ConcordiaLibraryImplementation returnItem
INFO: Received request from CONU1111 for returning a book with book id CON6231
Apr 11, 2019 7:19:49 PM serverInterfaceImplementation.ConcordiaLibraryImplementation listItemAvailability
INFO: Received request from CONM1111 to list item
Apr 11, 2019 7:19:49 PM serverInterfaceImplementation.ConcordiaLibraryImplementation returnItem
INFO: Received request from CONU1111 for returning a book with book id CON6231
Apr 11, 2019 7:19:49 PM serverInterfaceImplementation.ConcordiaLibraryImplementation removeItem
INFO: Received request from CONM1111 to remove an item with book id CON6231 & quantity 1
Apr 11, 2019 7:21:02 PM serverInterfaceImplementation.ConcordiaLibraryImplementation findItem
INFO: Received request from CONU1111 for finding a book with book name DISTRIBUTED
Apr 11, 2019 7:21:02 PM serverInterfaceImplementation.ConcordiaLibraryImplementation exchangeItem
INFO: Received request from CONU1111 for exchanging CON6231 with CON6441
Apr 11, 2019 7:21:02 PM serverInterfaceImplementation.ConcordiaLibraryImplementation returnItem
INFO: Received request from CONU1111 for returning a book with book id CON6231
Apr 11, 2019 7:21:02 PM serverInterfaceImplementation.ConcordiaLibraryImplementation addItem
INFO: Received request from CONM1111 to add an item with book id CON6441 ,book name APP & quantity 1
Apr 11, 2019 7:21:02 PM serverInterfaceImplementation.ConcordiaLibraryImplementation returnItem
INFO: Received request from CONU1111 for returning a book with book id CON6231
Apr 11, 2019 7:21:02 PM serverInterfaceImplementation.ConcordiaLibraryImplementation listItemAvailability
INFO: Received request from CONM1111 to list item
Apr 11, 2019 7:21:02 PM serverInterfaceImplementation.ConcordiaLibraryImplementation borrowItem
INFO: Received request from CONU1111 for borrowing a book with book id CON6231
Apr 11, 2019 7:21:02 PM serverInterfaceImplementation.ConcordiaLibraryImplementation returnItem
INFO: Received request from CONU1111 for returning a book with book id CON6231
Apr 11, 2019 7:21:02 PM serverInterfaceImplementation.ConcordiaLibraryImplementation removeItem
INFO: Received request from CONM1111 to remove an item with book id CON6231 & quantity 1
Apr 11, 2019 7:34:56 PM serverInterfaceImplementation.ConcordiaLibraryImplementation addItem
INFO: Received request from CONM1111 to add an item with book id CON6231 ,book name Distributed & quantity 1
Apr 11, 2019 7:34:56 PM serverInterfaceImplementation.ConcordiaLibraryImplementation addItem
INFO: Received request from CONM1111 to add an item with book id CON6231 ,book name Distributed & quantity 5
Apr 11, 2019 7:34:56 PM serverInterfaceImplementation.ConcordiaLibraryImplementation addItem
INFO: Received request from CONM1111 to add an item with book id CON6441 ,book name APP & quantity 1
Apr 11, 2019 7:34:56 PM serverInterfaceImplementation.ConcordiaLibraryImplementation addItem
INFO: Received request from CONM1111 to add an item with book id CON6231 ,book name Distributed & quantity 1
Apr 11, 2019 7:34:56 PM serverInterfaceImplementation.ConcordiaLibraryImplementation addItem
INFO: Received request from CONM1111 to add an item with book id CON6231 ,book name Distributed & quantity 5
Apr 11, 2019 7:34:56 PM serverInterfaceImplementation.ConcordiaLibraryImplementation addItem
INFO: Received request from CONM1111 to add an item with book id CON6441 ,book name APP & quantity 1
Apr 11, 2019 7:34:56 PM serverInterfaceImplementation.ConcordiaLibraryImplementation addItem
INFO: Received request from CONM1111 to add an item with book id CON6231 ,book name Distributed & quantity 1
Apr 11, 2019 7:34:56 PM serverInterfaceImplementation.ConcordiaLibraryImplementation addItem
INFO: Received request from CONM1111 to add an item with book id CON6231 ,book name Distributed & quantity 5
Apr 11, 2019 7:34:56 PM serverInterfaceImplementation.ConcordiaLibraryImplementation addItem
INFO: Received request from CONM1111 to add an item with book id CON6441 ,book name APP & quantity 1
Apr 11, 2019 7:34:56 PM serverInterfaceImplementation.ConcordiaLibraryImplementation listItemAvailability
INFO: Received request from CONM1111 to list item
Apr 11, 2019 7:34:56 PM serverInterfaceImplementation.ConcordiaLibraryImplementation listItemAvailability
INFO: Received request from CONM1111 to list item
Apr 11, 2019 7:34:56 PM serverInterfaceImplementation.ConcordiaLibraryImplementation listItemAvailability
INFO: Received request from CONM1111 to list item
Apr 11, 2019 7:34:56 PM serverInterfaceImplementation.ConcordiaLibraryImplementation addItem
INFO: Received request from CONM1111 to add an item with book id CON6231 ,book name Distributed & quantity 1
Apr 11, 2019 7:34:56 PM serverInterfaceImplementation.ConcordiaLibraryImplementation addItem
INFO: Received request from CONM1111 to add an item with book id CON6231 ,book name Distributed & quantity 5
Apr 11, 2019 7:34:56 PM serverInterfaceImplementation.ConcordiaLibraryImplementation addItem
INFO: Received request from CONM1111 to add an item with book id CON6441 ,book name APP & quantity 1
Apr 11, 2019 7:34:56 PM serverInterfaceImplementation.ConcordiaLibraryImplementation returnItem
INFO: Received request from CONM1111 for returning a book with book id CON6231
Apr 11, 2019 7:34:56 PM serverInterfaceImplementation.ConcordiaLibraryImplementation returnItem
INFO: Received request from CONM1111 for returning a book with book id CON6231
Apr 11, 2019 7:34:56 PM serverInterfaceImplementation.ConcordiaLibraryImplementation returnItem
INFO: Received request from CONM1111 for returning a book with book id CON6231
Apr 11, 2019 7:34:56 PM serverInterfaceImplementation.ConcordiaLibraryImplementation addItem
INFO: Received request from CONM1111 to add an item with book id CON6231 ,book name Distributed & quantity 1
Apr 11, 2019 7:34:56 PM serverInterfaceImplementation.ConcordiaLibraryImplementation addItem
INFO: Received request from CONM1111 to add an item with book id CON6231 ,book name Distributed & quantity 5
Apr 11, 2019 7:34:56 PM serverInterfaceImplementation.ConcordiaLibraryImplementation addItem
INFO: Received request from CONM1111 to add an item with book id CON6441 ,book name APP & quantity 1
Apr 11, 2019 7:34:56 PM serverInterfaceImplementation.ConcordiaLibraryImplementation removeItem
INFO: Received request from CONM1111 to remove an item with book id CON6231 & quantity 1
Apr 11, 2019 7:34:56 PM serverInterfaceImplementation.ConcordiaLibraryImplementation removeItem
INFO: Received request from CONM1111 to remove an item with book id CON6231 & quantity 1
Apr 11, 2019 7:34:56 PM serverInterfaceImplementation.ConcordiaLibraryImplementation removeItem
INFO: Received request from CONM1111 to remove an item with book id CON6231 & quantity 1
Apr 11, 2019 7:34:57 PM serverInterfaceImplementation.ConcordiaLibraryImplementation findItem
INFO: Received request from CONU1111 for finding a book with book name DISTRIBUTED
Apr 11, 2019 7:34:57 PM serverInterfaceImplementation.ConcordiaLibraryImplementation exchangeItem
INFO: Received request from CONU1111 for exchanging CON6231 with CON6441
Apr 11, 2019 7:34:57 PM serverInterfaceImplementation.ConcordiaLibraryImplementation borrowItem
INFO: Received request from CONU1111 for borrowing a book with book id CON6231
Apr 11, 2019 7:34:57 PM serverInterfaceImplementation.ConcordiaLibraryImplementation returnItem
INFO: Received request from CONU1111 for returning a book with book id CON6231
Apr 11, 2019 7:34:57 PM serverInterfaceImplementation.ConcordiaLibraryImplementation addItem
INFO: Received request from CONM1111 to add an item with book id CON6441 ,book name APP & quantity 1
Apr 11, 2019 7:34:57 PM serverInterfaceImplementation.ConcordiaLibraryImplementation listItemAvailability
INFO: Received request from CONM1111 to list item
Apr 11, 2019 7:34:57 PM serverInterfaceImplementation.ConcordiaLibraryImplementation returnItem
INFO: Received request from CONU1111 for returning a book with book id CON6231
Apr 11, 2019 7:34:57 PM serverInterfaceImplementation.ConcordiaLibraryImplementation returnItem
INFO: Received request from CONU1111 for returning a book with book id CON6231
Apr 11, 2019 7:34:57 PM serverInterfaceImplementation.ConcordiaLibraryImplementation removeItem
INFO: Received request from CONM1111 to remove an item with book id CON6231 & quantity 1
Apr 11, 2019 7:35:10 PM serverInterfaceImplementation.ConcordiaLibraryImplementation addItem
INFO: Received request from CONM1111 to add an item with book id CON6231 ,book name Distributed & quantity 1
Apr 11, 2019 7:35:10 PM serverInterfaceImplementation.ConcordiaLibraryImplementation addItem
INFO: Received request from CONM1111 to add an item with book id CON6231 ,book name Distributed & quantity 5
Apr 11, 2019 7:35:10 PM serverInterfaceImplementation.ConcordiaLibraryImplementation addItem
INFO: Received request from CONM1111 to add an item with book id CON6441 ,book name APP & quantity 1
Apr 11, 2019 7:35:10 PM serverInterfaceImplementation.ConcordiaLibraryImplementation addItem
INFO: Received request from CONM1111 to add an item with book id CON6231 ,book name Distributed & quantity 1
Apr 11, 2019 7:35:10 PM serverInterfaceImplementation.ConcordiaLibraryImplementation addItem
INFO: Received request from CONM1111 to add an item with book id CON6441 ,book name APP & quantity 1
Apr 11, 2019 7:35:10 PM serverInterfaceImplementation.ConcordiaLibraryImplementation addItem
INFO: Received request from CONM1111 to add an item with book id CON6231 ,book name Distributed & quantity 5
Apr 11, 2019 7:35:10 PM serverInterfaceImplementation.ConcordiaLibraryImplementation addItem
INFO: Received request from CONM1111 to add an item with book id CON6231 ,book name Distributed & quantity 1
Apr 11, 2019 7:35:10 PM serverInterfaceImplementation.ConcordiaLibraryImplementation addItem
INFO: Received request from CONM1111 to add an item with book id CON6231 ,book name Distributed & quantity 5
Apr 11, 2019 7:35:10 PM serverInterfaceImplementation.ConcordiaLibraryImplementation addItem
INFO: Received request from CONM1111 to add an item with book id CON6441 ,book name APP & quantity 1
Apr 11, 2019 7:35:10 PM serverInterfaceImplementation.ConcordiaLibraryImplementation listItemAvailability
INFO: Received request from CONM1111 to list item
Apr 11, 2019 7:35:10 PM serverInterfaceImplementation.ConcordiaLibraryImplementation listItemAvailability
INFO: Received request from CONM1111 to list item
Apr 11, 2019 7:35:10 PM serverInterfaceImplementation.ConcordiaLibraryImplementation listItemAvailability
INFO: Received request from CONM1111 to list item
Apr 11, 2019 7:35:10 PM serverInterfaceImplementation.ConcordiaLibraryImplementation addItem
INFO: Received request from CONM1111 to add an item with book id CON6231 ,book name Distributed & quantity 1
Apr 11, 2019 7:35:10 PM serverInterfaceImplementation.ConcordiaLibraryImplementation addItem
INFO: Received request from CONM1111 to add an item with book id CON6231 ,book name Distributed & quantity 5
Apr 11, 2019 7:35:10 PM serverInterfaceImplementation.ConcordiaLibraryImplementation addItem
INFO: Received request from CONM1111 to add an item with book id CON6441 ,book name APP & quantity 1
Apr 11, 2019 7:35:10 PM serverInterfaceImplementation.ConcordiaLibraryImplementation returnItem
INFO: Received request from CONM1111 for returning a book with book id CON6231
Apr 11, 2019 7:35:10 PM serverInterfaceImplementation.ConcordiaLibraryImplementation returnItem
INFO: Received request from CONM1111 for returning a book with book id CON6231
Apr 11, 2019 7:35:10 PM serverInterfaceImplementation.ConcordiaLibraryImplementation returnItem
INFO: Received request from CONM1111 for returning a book with book id CON6231
Apr 11, 2019 7:35:10 PM serverInterfaceImplementation.ConcordiaLibraryImplementation addItem
INFO: Received request from CONM1111 to add an item with book id CON6231 ,book name Distributed & quantity 1
Apr 11, 2019 7:35:10 PM serverInterfaceImplementation.ConcordiaLibraryImplementation addItem
INFO: Received request from CONM1111 to add an item with book id CON6231 ,book name Distributed & quantity 5
Apr 11, 2019 7:35:10 PM serverInterfaceImplementation.ConcordiaLibraryImplementation addItem
INFO: Received request from CONM1111 to add an item with book id CON6441 ,book name APP & quantity 1
Apr 11, 2019 7:35:10 PM serverInterfaceImplementation.ConcordiaLibraryImplementation removeItem
INFO: Received request from CONM1111 to remove an item with book id CON6231 & quantity 1
Apr 11, 2019 7:35:10 PM serverInterfaceImplementation.ConcordiaLibraryImplementation removeItem
INFO: Received request from CONM1111 to remove an item with book id CON6231 & quantity 1
Apr 11, 2019 7:35:10 PM serverInterfaceImplementation.ConcordiaLibraryImplementation removeItem
INFO: Received request from CONM1111 to remove an item with book id CON6231 & quantity 1
Apr 11, 2019 7:35:10 PM serverInterfaceImplementation.ConcordiaLibraryImplementation findItem
INFO: Received request from CONU1111 for finding a book with book name DISTRIBUTED
Apr 11, 2019 7:35:10 PM serverInterfaceImplementation.ConcordiaLibraryImplementation exchangeItem
INFO: Received request from CONU1111 for exchanging CON6231 with CON6441
Apr 11, 2019 7:35:10 PM serverInterfaceImplementation.ConcordiaLibraryImplementation returnItem
INFO: Received request from CONU1111 for returning a book with book id CON6231
Apr 11, 2019 7:35:10 PM serverInterfaceImplementation.ConcordiaLibraryImplementation borrowItem
INFO: Received request from CONU1111 for borrowing a book with book id CON6231
Apr 11, 2019 7:35:10 PM serverInterfaceImplementation.ConcordiaLibraryImplementation addItem
INFO: Received request from CONM1111 to add an item with book id CON6441 ,book name APP & quantity 1
Apr 11, 2019 7:35:10 PM serverInterfaceImplementation.ConcordiaLibraryImplementation returnItem
INFO: Received request from CONU1111 for returning a book with book id CON6231
Apr 11, 2019 7:35:10 PM serverInterfaceImplementation.ConcordiaLibraryImplementation listItemAvailability
INFO: Received request from CONM1111 to list item
Apr 11, 2019 7:35:10 PM serverInterfaceImplementation.ConcordiaLibraryImplementation returnItem
INFO: Received request from CONU1111 for returning a book with book id CON6231
Apr 11, 2019 7:35:10 PM serverInterfaceImplementation.ConcordiaLibraryImplementation removeItem
INFO: Received request from CONM1111 to remove an item with book id CON6231 & quantity 1
Apr 11, 2019 7:35:21 PM serverInterfaceImplementation.ConcordiaLibraryImplementation addItem
INFO: Received request from CONM1111 to add an item with book id CON6231 ,book name Distributed & quantity 1
Apr 11, 2019 7:35:21 PM serverInterfaceImplementation.ConcordiaLibraryImplementation addItem
INFO: Received request from CONM1111 to add an item with book id CON6231 ,book name Distributed & quantity 5
Apr 11, 2019 7:35:21 PM serverInterfaceImplementation.ConcordiaLibraryImplementation addItem
INFO: Received request from CONM1111 to add an item with book id CON6441 ,book name APP & quantity 1
Apr 11, 2019 7:35:21 PM serverInterfaceImplementation.ConcordiaLibraryImplementation addItem
INFO: Received request from CONM1111 to add an item with book id CON6231 ,book name Distributed & quantity 1
Apr 11, 2019 7:35:21 PM serverInterfaceImplementation.ConcordiaLibraryImplementation addItem
INFO: Received request from CONM1111 to add an item with book id CON6231 ,book name Distributed & quantity 5
Apr 11, 2019 7:35:21 PM serverInterfaceImplementation.ConcordiaLibraryImplementation addItem
INFO: Received request from CONM1111 to add an item with book id CON6441 ,book name APP & quantity 1
Apr 11, 2019 7:35:21 PM serverInterfaceImplementation.ConcordiaLibraryImplementation addItem
INFO: Received request from CONM1111 to add an item with book id CON6231 ,book name Distributed & quantity 1
Apr 11, 2019 7:35:21 PM serverInterfaceImplementation.ConcordiaLibraryImplementation addItem
INFO: Received request from CONM1111 to add an item with book id CON6231 ,book name Distributed & quantity 5
Apr 11, 2019 7:35:21 PM serverInterfaceImplementation.ConcordiaLibraryImplementation addItem
INFO: Received request from CONM1111 to add an item with book id CON6441 ,book name APP & quantity 1
Apr 11, 2019 7:35:21 PM serverInterfaceImplementation.ConcordiaLibraryImplementation listItemAvailability
INFO: Received request from CONM1111 to list item
Apr 11, 2019 7:35:21 PM serverInterfaceImplementation.ConcordiaLibraryImplementation listItemAvailability
INFO: Received request from CONM1111 to list item
Apr 11, 2019 7:35:21 PM serverInterfaceImplementation.ConcordiaLibraryImplementation listItemAvailability
INFO: Received request from CONM1111 to list item
Apr 11, 2019 7:35:21 PM serverInterfaceImplementation.ConcordiaLibraryImplementation addItem
INFO: Received request from CONM1111 to add an item with book id CON6231 ,book name Distributed & quantity 1
Apr 11, 2019 7:35:21 PM serverInterfaceImplementation.ConcordiaLibraryImplementation addItem
INFO: Received request from CONM1111 to add an item with book id CON6231 ,book name Distributed & quantity 5
Apr 11, 2019 7:35:21 PM serverInterfaceImplementation.ConcordiaLibraryImplementation addItem
INFO: Received request from CONM1111 to add an item with book id CON6441 ,book name APP & quantity 1
Apr 11, 2019 7:35:21 PM serverInterfaceImplementation.ConcordiaLibraryImplementation returnItem
INFO: Received request from CONM1111 for returning a book with book id CON6231
Apr 11, 2019 7:35:21 PM serverInterfaceImplementation.ConcordiaLibraryImplementation returnItem
INFO: Received request from CONM1111 for returning a book with book id CON6231
Apr 11, 2019 7:35:21 PM serverInterfaceImplementation.ConcordiaLibraryImplementation returnItem
INFO: Received request from CONM1111 for returning a book with book id CON6231
Apr 11, 2019 7:35:21 PM serverInterfaceImplementation.ConcordiaLibraryImplementation addItem
INFO: Received request from CONM1111 to add an item with book id CON6231 ,book name Distributed & quantity 1
Apr 11, 2019 7:35:21 PM serverInterfaceImplementation.ConcordiaLibraryImplementation addItem
INFO: Received request from CONM1111 to add an item with book id CON6231 ,book name Distributed & quantity 5
Apr 11, 2019 7:35:21 PM serverInterfaceImplementation.ConcordiaLibraryImplementation addItem
INFO: Received request from CONM1111 to add an item with book id CON6441 ,book name APP & quantity 1
Apr 11, 2019 7:35:21 PM serverInterfaceImplementation.ConcordiaLibraryImplementation removeItem
INFO: Received request from CONM1111 to remove an item with book id CON6231 & quantity 1
Apr 11, 2019 7:35:21 PM serverInterfaceImplementation.ConcordiaLibraryImplementation removeItem
INFO: Received request from CONM1111 to remove an item with book id CON6231 & quantity 1
Apr 11, 2019 7:35:21 PM serverInterfaceImplementation.ConcordiaLibraryImplementation removeItem
INFO: Received request from CONM1111 to remove an item with book id CON6231 & quantity 1
Apr 11, 2019 7:35:22 PM serverInterfaceImplementation.ConcordiaLibraryImplementation findItem
INFO: Received request from CONU1111 for finding a book with book name DISTRIBUTED
Apr 11, 2019 7:35:22 PM serverInterfaceImplementation.ConcordiaLibraryImplementation exchangeItem
INFO: Received request from CONU1111 for exchanging CON6231 with CON6441
Apr 11, 2019 7:35:22 PM serverInterfaceImplementation.ConcordiaLibraryImplementation returnItem
INFO: Received request from CONU1111 for returning a book with book id CON6231
Apr 11, 2019 7:35:22 PM serverInterfaceImplementation.ConcordiaLibraryImplementation borrowItem
INFO: Received request from CONU1111 for borrowing a book with book id CON6231
Apr 11, 2019 7:35:22 PM serverInterfaceImplementation.ConcordiaLibraryImplementation addItem
INFO: Received request from CONM1111 to add an item with book id CON6441 ,book name APP & quantity 1
Apr 11, 2019 7:35:22 PM serverInterfaceImplementation.ConcordiaLibraryImplementation listItemAvailability
INFO: Received request from CONM1111 to list item
Apr 11, 2019 7:35:22 PM serverInterfaceImplementation.ConcordiaLibraryImplementation returnItem
INFO: Received request from CONU1111 for returning a book with book id CON6231
Apr 11, 2019 7:35:22 PM serverInterfaceImplementation.ConcordiaLibraryImplementation returnItem
INFO: Received request from CONU1111 for returning a book with book id CON6231
Apr 11, 2019 7:35:22 PM serverInterfaceImplementation.ConcordiaLibraryImplementation removeItem
INFO: Received request from CONM1111 to remove an item with book id CON6231 & quantity 1
Apr 11, 2019 7:35:35 PM serverInterfaceImplementation.ConcordiaLibraryImplementation addItem
INFO: Received request from CONM1111 to add an item with book id CON6231 ,book name Distributed & quantity 1
Apr 11, 2019 7:35:35 PM serverInterfaceImplementation.ConcordiaLibraryImplementation addItem
INFO: Received request from CONM1111 to add an item with book id CON6231 ,book name Distributed & quantity 5
Apr 11, 2019 7:35:35 PM serverInterfaceImplementation.ConcordiaLibraryImplementation addItem
INFO: Received request from CONM1111 to add an item with book id CON6441 ,book name APP & quantity 1
Apr 11, 2019 7:35:35 PM serverInterfaceImplementation.ConcordiaLibraryImplementation addItem
INFO: Received request from CONM1111 to add an item with book id CON6231 ,book name Distributed & quantity 1
Apr 11, 2019 7:35:35 PM serverInterfaceImplementation.ConcordiaLibraryImplementation addItem
INFO: Received request from CONM1111 to add an item with book id CON6441 ,book name APP & quantity 1
Apr 11, 2019 7:35:35 PM serverInterfaceImplementation.ConcordiaLibraryImplementation addItem
INFO: Received request from CONM1111 to add an item with book id CON6231 ,book name Distributed & quantity 5
Apr 11, 2019 7:35:35 PM serverInterfaceImplementation.ConcordiaLibraryImplementation addItem
INFO: Received request from CONM1111 to add an item with book id CON6231 ,book name Distributed & quantity 1
Apr 11, 2019 7:35:35 PM serverInterfaceImplementation.ConcordiaLibraryImplementation addItem
INFO: Received request from CONM1111 to add an item with book id CON6231 ,book name Distributed & quantity 5
Apr 11, 2019 7:35:35 PM serverInterfaceImplementation.ConcordiaLibraryImplementation addItem
INFO: Received request from CONM1111 to add an item with book id CON6441 ,book name APP & quantity 1
Apr 11, 2019 7:35:35 PM serverInterfaceImplementation.ConcordiaLibraryImplementation listItemAvailability
INFO: Received request from CONM1111 to list item
Apr 11, 2019 7:35:35 PM serverInterfaceImplementation.ConcordiaLibraryImplementation listItemAvailability
INFO: Received request from CONM1111 to list item
Apr 11, 2019 7:35:35 PM serverInterfaceImplementation.ConcordiaLibraryImplementation listItemAvailability
INFO: Received request from CONM1111 to list item
Apr 11, 2019 7:35:35 PM serverInterfaceImplementation.ConcordiaLibraryImplementation addItem
INFO: Received request from CONM1111 to add an item with book id CON6231 ,book name Distributed & quantity 1
Apr 11, 2019 7:35:35 PM serverInterfaceImplementation.ConcordiaLibraryImplementation addItem
INFO: Received request from CONM1111 to add an item with book id CON6231 ,book name Distributed & quantity 5
Apr 11, 2019 7:35:35 PM serverInterfaceImplementation.ConcordiaLibraryImplementation addItem
INFO: Received request from CONM1111 to add an item with book id CON6441 ,book name APP & quantity 1
Apr 11, 2019 7:35:35 PM serverInterfaceImplementation.ConcordiaLibraryImplementation returnItem
INFO: Received request from CONM1111 for returning a book with book id CON6231
Apr 11, 2019 7:35:35 PM serverInterfaceImplementation.ConcordiaLibraryImplementation returnItem
INFO: Received request from CONM1111 for returning a book with book id CON6231
Apr 11, 2019 7:35:35 PM serverInterfaceImplementation.ConcordiaLibraryImplementation returnItem
INFO: Received request from CONM1111 for returning a book with book id CON6231
Apr 11, 2019 7:35:35 PM serverInterfaceImplementation.ConcordiaLibraryImplementation addItem
INFO: Received request from CONM1111 to add an item with book id CON6231 ,book name Distributed & quantity 1
Apr 11, 2019 7:35:35 PM serverInterfaceImplementation.ConcordiaLibraryImplementation addItem
INFO: Received request from CONM1111 to add an item with book id CON6231 ,book name Distributed & quantity 5
Apr 11, 2019 7:35:35 PM serverInterfaceImplementation.ConcordiaLibraryImplementation addItem
INFO: Received request from CONM1111 to add an item with book id CON6441 ,book name APP & quantity 1
Apr 11, 2019 7:35:35 PM serverInterfaceImplementation.ConcordiaLibraryImplementation removeItem
INFO: Received request from CONM1111 to remove an item with book id CON6231 & quantity 1
Apr 11, 2019 7:35:35 PM serverInterfaceImplementation.ConcordiaLibraryImplementation removeItem
INFO: Received request from CONM1111 to remove an item with book id CON6231 & quantity 1
Apr 11, 2019 7:35:35 PM serverInterfaceImplementation.ConcordiaLibraryImplementation removeItem
INFO: Received request from CONM1111 to remove an item with book id CON6231 & quantity 1
Apr 11, 2019 7:35:36 PM serverInterfaceImplementation.ConcordiaLibraryImplementation findItem
INFO: Received request from CONU1111 for finding a book with book name DISTRIBUTED
Apr 11, 2019 7:35:36 PM serverInterfaceImplementation.ConcordiaLibraryImplementation exchangeItem
INFO: Received request from CONU1111 for exchanging CON6231 with CON6441
Apr 11, 2019 7:35:36 PM serverInterfaceImplementation.ConcordiaLibraryImplementation returnItem
INFO: Received request from CONU1111 for returning a book with book id CON6231
Apr 11, 2019 7:35:36 PM serverInterfaceImplementation.ConcordiaLibraryImplementation borrowItem
INFO: Received request from CONU1111 for borrowing a book with book id CON6231
Apr 11, 2019 7:35:36 PM serverInterfaceImplementation.ConcordiaLibraryImplementation addItem
INFO: Received request from CONM1111 to add an item with book id CON6441 ,book name APP & quantity 1
Apr 11, 2019 7:35:36 PM serverInterfaceImplementation.ConcordiaLibraryImplementation listItemAvailability
INFO: Received request from CONM1111 to list item
Apr 11, 2019 7:35:36 PM serverInterfaceImplementation.ConcordiaLibraryImplementation returnItem
INFO: Received request from CONU1111 for returning a book with book id CON6231
Apr 11, 2019 7:35:36 PM serverInterfaceImplementation.ConcordiaLibraryImplementation returnItem
INFO: Received request from CONU1111 for returning a book with book id CON6231
Apr 11, 2019 7:35:36 PM serverInterfaceImplementation.ConcordiaLibraryImplementation removeItem
INFO: Received request from CONM1111 to remove an item with book id CON6231 & quantity 1
Apr 11, 2019 7:35:52 PM serverInterfaceImplementation.ConcordiaLibraryImplementation addItem
INFO: Received request from CONM1111 to add an item with book id CON6231 ,book name Distributed & quantity 1
Apr 11, 2019 7:35:52 PM serverInterfaceImplementation.ConcordiaLibraryImplementation addItem
INFO: Received request from CONM1111 to add an item with book id CON6231 ,book name Distributed & quantity 5
Apr 11, 2019 7:35:52 PM serverInterfaceImplementation.ConcordiaLibraryImplementation addItem
INFO: Received request from CONM1111 to add an item with book id CON6441 ,book name APP & quantity 1
Apr 11, 2019 7:35:52 PM serverInterfaceImplementation.ConcordiaLibraryImplementation addItem
INFO: Received request from CONM1111 to add an item with book id CON6231 ,book name Distributed & quantity 1
Apr 11, 2019 7:35:52 PM serverInterfaceImplementation.ConcordiaLibraryImplementation addItem
INFO: Received request from CONM1111 to add an item with book id CON6231 ,book name Distributed & quantity 5
Apr 11, 2019 7:35:52 PM serverInterfaceImplementation.ConcordiaLibraryImplementation addItem
INFO: Received request from CONM1111 to add an item with book id CON6441 ,book name APP & quantity 1
Apr 11, 2019 7:35:52 PM serverInterfaceImplementation.ConcordiaLibraryImplementation addItem
INFO: Received request from CONM1111 to add an item with book id CON6231 ,book name Distributed & quantity 1
Apr 11, 2019 7:35:52 PM serverInterfaceImplementation.ConcordiaLibraryImplementation addItem
INFO: Received request from CONM1111 to add an item with book id CON6231 ,book name Distributed & quantity 5
Apr 11, 2019 7:35:52 PM serverInterfaceImplementation.ConcordiaLibraryImplementation addItem
INFO: Received request from CONM1111 to add an item with book id CON6441 ,book name APP & quantity 1
Apr 11, 2019 7:35:52 PM serverInterfaceImplementation.ConcordiaLibraryImplementation listItemAvailability
INFO: Received request from CONM1111 to list item
Apr 11, 2019 7:35:52 PM serverInterfaceImplementation.ConcordiaLibraryImplementation listItemAvailability
INFO: Received request from CONM1111 to list item
Apr 11, 2019 7:35:52 PM serverInterfaceImplementation.ConcordiaLibraryImplementation listItemAvailability
INFO: Received request from CONM1111 to list item
Apr 11, 2019 7:35:52 PM serverInterfaceImplementation.ConcordiaLibraryImplementation addItem
INFO: Received request from CONM1111 to add an item with book id CON6231 ,book name Distributed & quantity 1
Apr 11, 2019 7:35:52 PM serverInterfaceImplementation.ConcordiaLibraryImplementation addItem
INFO: Received request from CONM1111 to add an item with book id CON6231 ,book name Distributed & quantity 5
Apr 11, 2019 7:35:52 PM serverInterfaceImplementation.ConcordiaLibraryImplementation addItem
INFO: Received request from CONM1111 to add an item with book id CON6441 ,book name APP & quantity 1
Apr 11, 2019 7:35:52 PM serverInterfaceImplementation.ConcordiaLibraryImplementation returnItem
INFO: Received request from CONM1111 for returning a book with book id CON6231
Apr 11, 2019 7:35:52 PM serverInterfaceImplementation.ConcordiaLibraryImplementation returnItem
INFO: Received request from CONM1111 for returning a book with book id CON6231
Apr 11, 2019 7:35:52 PM serverInterfaceImplementation.ConcordiaLibraryImplementation returnItem
INFO: Received request from CONM1111 for returning a book with book id CON6231
Apr 11, 2019 7:35:52 PM serverInterfaceImplementation.ConcordiaLibraryImplementation addItem
INFO: Received request from CONM1111 to add an item with book id CON6231 ,book name Distributed & quantity 1
Apr 11, 2019 7:35:52 PM serverInterfaceImplementation.ConcordiaLibraryImplementation addItem
INFO: Received request from CONM1111 to add an item with book id CON6231 ,book name Distributed & quantity 5
Apr 11, 2019 7:35:52 PM serverInterfaceImplementation.ConcordiaLibraryImplementation addItem
INFO: Received request from CONM1111 to add an item with book id CON6441 ,book name APP & quantity 1
Apr 11, 2019 7:35:52 PM serverInterfaceImplementation.ConcordiaLibraryImplementation removeItem
INFO: Received request from CONM1111 to remove an item with book id CON6231 & quantity 1
Apr 11, 2019 7:35:52 PM serverInterfaceImplementation.ConcordiaLibraryImplementation removeItem
INFO: Received request from CONM1111 to remove an item with book id CON6231 & quantity 1
Apr 11, 2019 7:35:52 PM serverInterfaceImplementation.ConcordiaLibraryImplementation removeItem
INFO: Received request from CONM1111 to remove an item with book id CON6231 & quantity 1
Apr 11, 2019 7:35:52 PM serverInterfaceImplementation.ConcordiaLibraryImplementation findItem
INFO: Received request from CONU1111 for finding a book with book name DISTRIBUTED
Apr 11, 2019 7:35:52 PM serverInterfaceImplementation.ConcordiaLibraryImplementation exchangeItem
INFO: Received request from CONU1111 for exchanging CON6231 with CON6441
Apr 11, 2019 7:35:52 PM serverInterfaceImplementation.ConcordiaLibraryImplementation borrowItem
INFO: Received request from CONU1111 for borrowing a book with book id CON6231
Apr 11, 2019 7:35:52 PM serverInterfaceImplementation.ConcordiaLibraryImplementation returnItem
INFO: Received request from CONU1111 for returning a book with book id CON6231
Apr 11, 2019 7:35:52 PM serverInterfaceImplementation.ConcordiaLibraryImplementation returnItem
INFO: Received request from CONU1111 for returning a book with book id CON6231
Apr 11, 2019 7:35:52 PM serverInterfaceImplementation.ConcordiaLibraryImplementation addItem
INFO: Received request from CONM1111 to add an item with book id CON6441 ,book name APP & quantity 1
Apr 11, 2019 7:35:52 PM serverInterfaceImplementation.ConcordiaLibraryImplementation listItemAvailability
INFO: Received request from CONM1111 to list item
Apr 11, 2019 7:35:52 PM serverInterfaceImplementation.ConcordiaLibraryImplementation returnItem
INFO: Received request from CONU1111 for returning a book with book id CON6231
Apr 11, 2019 7:35:52 PM serverInterfaceImplementation.ConcordiaLibraryImplementation removeItem
INFO: Received request from CONM1111 to remove an item with book id CON6231 & quantity 1
Apr 11, 2019 7:36:04 PM serverInterfaceImplementation.ConcordiaLibraryImplementation addItem
INFO: Received request from CONM1111 to add an item with book id CON6231 ,book name Distributed & quantity 1
Apr 11, 2019 7:36:04 PM serverInterfaceImplementation.ConcordiaLibraryImplementation addItem
INFO: Received request from CONM1111 to add an item with book id CON6231 ,book name Distributed & quantity 5
Apr 11, 2019 7:36:04 PM serverInterfaceImplementation.ConcordiaLibraryImplementation addItem
INFO: Received request from CONM1111 to add an item with book id CON6441 ,book name APP & quantity 1
Apr 11, 2019 7:36:04 PM serverInterfaceImplementation.ConcordiaLibraryImplementation addItem
INFO: Received request from CONM1111 to add an item with book id CON6231 ,book name Distributed & quantity 1
Apr 11, 2019 7:36:04 PM serverInterfaceImplementation.ConcordiaLibraryImplementation addItem
INFO: Received request from CONM1111 to add an item with book id CON6231 ,book name Distributed & quantity 5
Apr 11, 2019 7:36:04 PM serverInterfaceImplementation.ConcordiaLibraryImplementation addItem
INFO: Received request from CONM1111 to add an item with book id CON6441 ,book name APP & quantity 1
Apr 11, 2019 7:36:04 PM serverInterfaceImplementation.ConcordiaLibraryImplementation addItem
INFO: Received request from CONM1111 to add an item with book id CON6231 ,book name Distributed & quantity 1
Apr 11, 2019 7:36:04 PM serverInterfaceImplementation.ConcordiaLibraryImplementation addItem
INFO: Received request from CONM1111 to add an item with book id CON6231 ,book name Distributed & quantity 5
Apr 11, 2019 7:36:04 PM serverInterfaceImplementation.ConcordiaLibraryImplementation addItem
INFO: Received request from CONM1111 to add an item with book id CON6441 ,book name APP & quantity 1
Apr 11, 2019 7:36:04 PM serverInterfaceImplementation.ConcordiaLibraryImplementation listItemAvailability
INFO: Received request from CONM1111 to list item
Apr 11, 2019 7:36:04 PM serverInterfaceImplementation.ConcordiaLibraryImplementation listItemAvailability
INFO: Received request from CONM1111 to list item
Apr 11, 2019 7:36:04 PM serverInterfaceImplementation.ConcordiaLibraryImplementation listItemAvailability
INFO: Received request from CONM1111 to list item
Apr 11, 2019 7:36:04 PM serverInterfaceImplementation.ConcordiaLibraryImplementation addItem
INFO: Received request from CONM1111 to add an item with book id CON6231 ,book name Distributed & quantity 1
Apr 11, 2019 7:36:04 PM serverInterfaceImplementation.ConcordiaLibraryImplementation addItem
INFO: Received request from CONM1111 to add an item with book id CON6231 ,book name Distributed & quantity 5
Apr 11, 2019 7:36:04 PM serverInterfaceImplementation.ConcordiaLibraryImplementation addItem
INFO: Received request from CONM1111 to add an item with book id CON6441 ,book name APP & quantity 1
Apr 11, 2019 7:36:04 PM serverInterfaceImplementation.ConcordiaLibraryImplementation returnItem
INFO: Received request from CONM1111 for returning a book with book id CON6231
Apr 11, 2019 7:36:04 PM serverInterfaceImplementation.ConcordiaLibraryImplementation returnItem
INFO: Received request from CONM1111 for returning a book with book id CON6231
Apr 11, 2019 7:36:04 PM serverInterfaceImplementation.ConcordiaLibraryImplementation returnItem
INFO: Received request from CONM1111 for returning a book with book id CON6231
Apr 11, 2019 7:36:04 PM serverInterfaceImplementation.ConcordiaLibraryImplementation addItem
INFO: Received request from CONM1111 to add an item with book id CON6231 ,book name Distributed & quantity 1
Apr 11, 2019 7:36:04 PM serverInterfaceImplementation.ConcordiaLibraryImplementation addItem
INFO: Received request from CONM1111 to add an item with book id CON6231 ,book name Distributed & quantity 5
Apr 11, 2019 7:36:04 PM serverInterfaceImplementation.ConcordiaLibraryImplementation addItem
INFO: Received request from CONM1111 to add an item with book id CON6441 ,book name APP & quantity 1
Apr 11, 2019 7:36:04 PM serverInterfaceImplementation.ConcordiaLibraryImplementation removeItem
INFO: Received request from CONM1111 to remove an item with book id CON6231 & quantity 1
Apr 11, 2019 7:36:04 PM serverInterfaceImplementation.ConcordiaLibraryImplementation removeItem
INFO: Received request from CONM1111 to remove an item with book id CON6231 & quantity 1
Apr 11, 2019 7:36:04 PM serverInterfaceImplementation.ConcordiaLibraryImplementation removeItem
INFO: Received request from CONM1111 to remove an item with book id CON6231 & quantity 1
Apr 11, 2019 7:36:04 PM serverInterfaceImplementation.ConcordiaLibraryImplementation findItem
INFO: Received request from CONU1111 for finding a book with book name DISTRIBUTED
Apr 11, 2019 7:36:04 PM serverInterfaceImplementation.ConcordiaLibraryImplementation exchangeItem
INFO: Received request from CONU1111 for exchanging CON6231 with CON6441
Apr 11, 2019 7:36:04 PM serverInterfaceImplementation.ConcordiaLibraryImplementation borrowItem
INFO: Received request from CONU1111 for borrowing a book with book id CON6231
Apr 11, 2019 7:36:04 PM serverInterfaceImplementation.ConcordiaLibraryImplementation returnItem
INFO: Received request from CONU1111 for returning a book with book id CON6231
Apr 11, 2019 7:36:04 PM serverInterfaceImplementation.ConcordiaLibraryImplementation listItemAvailability
INFO: Received request from CONM1111 to list item
Apr 11, 2019 7:36:04 PM serverInterfaceImplementation.ConcordiaLibraryImplementation addItem
INFO: Received request from CONM1111 to add an item with book id CON6441 ,book name APP & quantity 1
Apr 11, 2019 7:36:04 PM serverInterfaceImplementation.ConcordiaLibraryImplementation returnItem
INFO: Received request from CONU1111 for returning a book with book id CON6231
Apr 11, 2019 7:36:04 PM serverInterfaceImplementation.ConcordiaLibraryImplementation returnItem
INFO: Received request from CONU1111 for returning a book with book id CON6231
Apr 11, 2019 7:36:04 PM serverInterfaceImplementation.ConcordiaLibraryImplementation removeItem
INFO: Received request from CONM1111 to remove an item with book id CON6231 & quantity 1
Apr 11, 2019 7:36:39 PM serverInterfaceImplementation.ConcordiaLibraryImplementation addItem
INFO: Received request from CONM1111 to add an item with book id CON6231 ,book name Distributed & quantity 1
Apr 11, 2019 7:36:39 PM serverInterfaceImplementation.ConcordiaLibraryImplementation addItem
INFO: Received request from CONM1111 to add an item with book id CON6231 ,book name Distributed & quantity 5
Apr 11, 2019 7:36:39 PM serverInterfaceImplementation.ConcordiaLibraryImplementation addItem
INFO: Received request from CONM1111 to add an item with book id CON6441 ,book name APP & quantity 1
Apr 11, 2019 7:36:39 PM serverInterfaceImplementation.ConcordiaLibraryImplementation addItem
INFO: Received request from CONM1111 to add an item with book id CON6231 ,book name Distributed & quantity 1
Apr 11, 2019 7:36:39 PM serverInterfaceImplementation.ConcordiaLibraryImplementation addItem
INFO: Received request from CONM1111 to add an item with book id CON6441 ,book name APP & quantity 1
Apr 11, 2019 7:36:39 PM serverInterfaceImplementation.ConcordiaLibraryImplementation addItem
INFO: Received request from CONM1111 to add an item with book id CON6231 ,book name Distributed & quantity 5
Apr 11, 2019 7:36:39 PM serverInterfaceImplementation.ConcordiaLibraryImplementation addItem
INFO: Received request from CONM1111 to add an item with book id CON6231 ,book name Distributed & quantity 1
Apr 11, 2019 7:36:39 PM serverInterfaceImplementation.ConcordiaLibraryImplementation addItem
INFO: Received request from CONM1111 to add an item with book id CON6231 ,book name Distributed & quantity 5
Apr 11, 2019 7:36:39 PM serverInterfaceImplementation.ConcordiaLibraryImplementation addItem
INFO: Received request from CONM1111 to add an item with book id CON6441 ,book name APP & quantity 1
Apr 11, 2019 7:36:39 PM serverInterfaceImplementation.ConcordiaLibraryImplementation listItemAvailability
INFO: Received request from CONM1111 to list item
Apr 11, 2019 7:36:39 PM serverInterfaceImplementation.ConcordiaLibraryImplementation listItemAvailability
INFO: Received request from CONM1111 to list item
Apr 11, 2019 7:36:39 PM serverInterfaceImplementation.ConcordiaLibraryImplementation listItemAvailability
INFO: Received request from CONM1111 to list item
Apr 11, 2019 7:36:39 PM serverInterfaceImplementation.ConcordiaLibraryImplementation addItem
INFO: Received request from CONM1111 to add an item with book id CON6231 ,book name Distributed & quantity 1
Apr 11, 2019 7:36:39 PM serverInterfaceImplementation.ConcordiaLibraryImplementation addItem
INFO: Received request from CONM1111 to add an item with book id CON6231 ,book name Distributed & quantity 5
Apr 11, 2019 7:36:39 PM serverInterfaceImplementation.ConcordiaLibraryImplementation addItem
INFO: Received request from CONM1111 to add an item with book id CON6441 ,book name APP & quantity 1
Apr 11, 2019 7:36:39 PM serverInterfaceImplementation.ConcordiaLibraryImplementation returnItem
INFO: Received request from CONM1111 for returning a book with book id CON6231
Apr 11, 2019 7:36:39 PM serverInterfaceImplementation.ConcordiaLibraryImplementation returnItem
INFO: Received request from CONM1111 for returning a book with book id CON6231
Apr 11, 2019 7:36:39 PM serverInterfaceImplementation.ConcordiaLibraryImplementation returnItem
INFO: Received request from CONM1111 for returning a book with book id CON6231
Apr 11, 2019 7:36:39 PM serverInterfaceImplementation.ConcordiaLibraryImplementation addItem
INFO: Received request from CONM1111 to add an item with book id CON6231 ,book name Distributed & quantity 1
Apr 11, 2019 7:36:39 PM serverInterfaceImplementation.ConcordiaLibraryImplementation addItem
INFO: Received request from CONM1111 to add an item with book id CON6231 ,book name Distributed & quantity 5
Apr 11, 2019 7:36:39 PM serverInterfaceImplementation.ConcordiaLibraryImplementation addItem
INFO: Received request from CONM1111 to add an item with book id CON6441 ,book name APP & quantity 1
Apr 11, 2019 7:36:39 PM serverInterfaceImplementation.ConcordiaLibraryImplementation removeItem
INFO: Received request from CONM1111 to remove an item with book id CON6231 & quantity 1
Apr 11, 2019 7:36:39 PM serverInterfaceImplementation.ConcordiaLibraryImplementation removeItem
INFO: Received request from CONM1111 to remove an item with book id CON6231 & quantity 1
Apr 11, 2019 7:36:39 PM serverInterfaceImplementation.ConcordiaLibraryImplementation removeItem
INFO: Received request from CONM1111 to remove an item with book id CON6231 & quantity 1
Apr 11, 2019 7:36:39 PM serverInterfaceImplementation.ConcordiaLibraryImplementation findItem
INFO: Received request from CONU1111 for finding a book with book name DISTRIBUTED
Apr 11, 2019 7:36:39 PM serverInterfaceImplementation.ConcordiaLibraryImplementation exchangeItem
INFO: Received request from CONU1111 for exchanging CON6231 with CON6441
Apr 11, 2019 7:36:39 PM serverInterfaceImplementation.ConcordiaLibraryImplementation returnItem
INFO: Received request from CONU1111 for returning a book with book id CON6231
Apr 11, 2019 7:36:39 PM serverInterfaceImplementation.ConcordiaLibraryImplementation borrowItem
INFO: Received request from CONU1111 for borrowing a book with book id CON6231
Apr 11, 2019 7:36:39 PM serverInterfaceImplementation.ConcordiaLibraryImplementation addItem
INFO: Received request from CONM1111 to add an item with book id CON6441 ,book name APP & quantity 1
Apr 11, 2019 7:36:39 PM serverInterfaceImplementation.ConcordiaLibraryImplementation listItemAvailability
INFO: Received request from CONM1111 to list item
Apr 11, 2019 7:36:39 PM serverInterfaceImplementation.ConcordiaLibraryImplementation returnItem
INFO: Received request from CONU1111 for returning a book with book id CON6231
Apr 11, 2019 7:36:39 PM serverInterfaceImplementation.ConcordiaLibraryImplementation returnItem
INFO: Received request from CONU1111 for returning a book with book id CON6231
Apr 11, 2019 7:36:39 PM serverInterfaceImplementation.ConcordiaLibraryImplementation removeItem
INFO: Received request from CONM1111 to remove an item with book id CON6231 & quantity 1
Apr 11, 2019 7:37:04 PM serverInterfaceImplementation.ConcordiaLibraryImplementation addItem
INFO: Received request from CONM1111 to add an item with book id CON6231 ,book name Distributed & quantity 1
Apr 11, 2019 7:37:04 PM serverInterfaceImplementation.ConcordiaLibraryImplementation addItem
INFO: Received request from CONM1111 to add an item with book id CON6231 ,book name Distributed & quantity 5
Apr 11, 2019 7:37:04 PM serverInterfaceImplementation.ConcordiaLibraryImplementation addItem
INFO: Received request from CONM1111 to add an item with book id CON6441 ,book name APP & quantity 1
Apr 11, 2019 7:37:04 PM serverInterfaceImplementation.ConcordiaLibraryImplementation addItem
INFO: Received request from CONM1111 to add an item with book id CON6231 ,book name Distributed & quantity 5
Apr 11, 2019 7:37:04 PM serverInterfaceImplementation.ConcordiaLibraryImplementation addItem
INFO: Received request from CONM1111 to add an item with book id CON6441 ,book name APP & quantity 1
Apr 11, 2019 7:37:04 PM serverInterfaceImplementation.ConcordiaLibraryImplementation addItem
INFO: Received request from CONM1111 to add an item with book id CON6231 ,book name Distributed & quantity 1
Apr 11, 2019 7:37:04 PM serverInterfaceImplementation.ConcordiaLibraryImplementation addItem
INFO: Received request from CONM1111 to add an item with book id CON6231 ,book name Distributed & quantity 1
Apr 11, 2019 7:37:04 PM serverInterfaceImplementation.ConcordiaLibraryImplementation addItem
INFO: Received request from CONM1111 to add an item with book id CON6231 ,book name Distributed & quantity 5
Apr 11, 2019 7:37:04 PM serverInterfaceImplementation.ConcordiaLibraryImplementation addItem
INFO: Received request from CONM1111 to add an item with book id CON6441 ,book name APP & quantity 1
Apr 11, 2019 7:37:04 PM serverInterfaceImplementation.ConcordiaLibraryImplementation listItemAvailability
INFO: Received request from CONM1111 to list item
Apr 11, 2019 7:37:04 PM serverInterfaceImplementation.ConcordiaLibraryImplementation listItemAvailability
INFO: Received request from CONM1111 to list item
Apr 11, 2019 7:37:04 PM serverInterfaceImplementation.ConcordiaLibraryImplementation listItemAvailability
INFO: Received request from CONM1111 to list item
Apr 11, 2019 7:37:04 PM serverInterfaceImplementation.ConcordiaLibraryImplementation addItem
INFO: Received request from CONM1111 to add an item with book id CON6231 ,book name Distributed & quantity 1
Apr 11, 2019 7:37:04 PM serverInterfaceImplementation.ConcordiaLibraryImplementation addItem
INFO: Received request from CONM1111 to add an item with book id CON6231 ,book name Distributed & quantity 5
Apr 11, 2019 7:37:04 PM serverInterfaceImplementation.ConcordiaLibraryImplementation addItem
INFO: Received request from CONM1111 to add an item with book id CON6441 ,book name APP & quantity 1
Apr 11, 2019 7:37:04 PM serverInterfaceImplementation.ConcordiaLibraryImplementation returnItem
INFO: Received request from CONM1111 for returning a book with book id CON6231
Apr 11, 2019 7:37:04 PM serverInterfaceImplementation.ConcordiaLibraryImplementation returnItem
INFO: Received request from CONM1111 for returning a book with book id CON6231
Apr 11, 2019 7:37:04 PM serverInterfaceImplementation.ConcordiaLibraryImplementation returnItem
INFO: Received request from CONM1111 for returning a book with book id CON6231
Apr 11, 2019 7:37:04 PM serverInterfaceImplementation.ConcordiaLibraryImplementation addItem
INFO: Received request from CONM1111 to add an item with book id CON6231 ,book name Distributed & quantity 1
Apr 11, 2019 7:37:04 PM serverInterfaceImplementation.ConcordiaLibraryImplementation addItem
INFO: Received request from CONM1111 to add an item with book id CON6231 ,book name Distributed & quantity 5
Apr 11, 2019 7:37:04 PM serverInterfaceImplementation.ConcordiaLibraryImplementation addItem
INFO: Received request from CONM1111 to add an item with book id CON6441 ,book name APP & quantity 1
Apr 11, 2019 7:37:04 PM serverInterfaceImplementation.ConcordiaLibraryImplementation removeItem
INFO: Received request from CONM1111 to remove an item with book id CON6231 & quantity 1
Apr 11, 2019 7:37:04 PM serverInterfaceImplementation.ConcordiaLibraryImplementation removeItem
INFO: Received request from CONM1111 to remove an item with book id CON6231 & quantity 1
Apr 11, 2019 7:37:04 PM serverInterfaceImplementation.ConcordiaLibraryImplementation removeItem
INFO: Received request from CONM1111 to remove an item with book id CON6231 & quantity 1
Apr 11, 2019 7:37:04 PM serverInterfaceImplementation.ConcordiaLibraryImplementation findItem
INFO: Received request from CONU1111 for finding a book with book name DISTRIBUTED
Apr 11, 2019 7:37:04 PM serverInterfaceImplementation.ConcordiaLibraryImplementation exchangeItem
INFO: Received request from CONU1111 for exchanging CON6231 with CON6441
Apr 11, 2019 7:37:04 PM serverInterfaceImplementation.ConcordiaLibraryImplementation borrowItem
INFO: Received request from CONU1111 for borrowing a book with book id CON6231
Apr 11, 2019 7:37:04 PM serverInterfaceImplementation.ConcordiaLibraryImplementation returnItem
INFO: Received request from CONU1111 for returning a book with book id CON6231
Apr 11, 2019 7:37:04 PM serverInterfaceImplementation.ConcordiaLibraryImplementation addItem
INFO: Received request from CONM1111 to add an item with book id CON6441 ,book name APP & quantity 1
Apr 11, 2019 7:37:04 PM serverInterfaceImplementation.ConcordiaLibraryImplementation listItemAvailability
INFO: Received request from CONM1111 to list item
Apr 11, 2019 7:37:04 PM serverInterfaceImplementation.ConcordiaLibraryImplementation returnItem
INFO: Received request from CONU1111 for returning a book with book id CON6231
Apr 11, 2019 7:37:04 PM serverInterfaceImplementation.ConcordiaLibraryImplementation returnItem
INFO: Received request from CONU1111 for returning a book with book id CON6231
Apr 11, 2019 7:37:04 PM serverInterfaceImplementation.ConcordiaLibraryImplementation removeItem
INFO: Received request from CONM1111 to remove an item with book id CON6231 & quantity 1
Apr 11, 2019 7:52:06 PM serverInterfaceImplementation.ConcordiaLibraryImplementation addItem
INFO: Received request from CONM1111 to add an item with book id CON6231 ,book name Distributed & quantity 1
Apr 11, 2019 7:52:06 PM serverInterfaceImplementation.ConcordiaLibraryImplementation addItem
INFO: Received request from CONM1111 to add an item with book id CON6231 ,book name Distributed & quantity 5
Apr 11, 2019 7:52:06 PM serverInterfaceImplementation.ConcordiaLibraryImplementation addItem
INFO: Received request from CONM1111 to add an item with book id CON6441 ,book name APP & quantity 1
Apr 11, 2019 7:52:06 PM serverInterfaceImplementation.ConcordiaLibraryImplementation addItem
INFO: Received request from CONM1111 to add an item with book id CON6231 ,book name Distributed & quantity 5
Apr 11, 2019 7:52:06 PM serverInterfaceImplementation.ConcordiaLibraryImplementation addItem
INFO: Received request from CONM1111 to add an item with book id CON6231 ,book name Distributed & quantity 1
Apr 11, 2019 7:52:06 PM serverInterfaceImplementation.ConcordiaLibraryImplementation addItem
INFO: Received request from CONM1111 to add an item with book id CON6441 ,book name APP & quantity 1
Apr 11, 2019 7:52:06 PM serverInterfaceImplementation.ConcordiaLibraryImplementation addItem
INFO: Received request from CONM1111 to add an item with book id CON6231 ,book name Distributed & quantity 1
Apr 11, 2019 7:52:06 PM serverInterfaceImplementation.ConcordiaLibraryImplementation addItem
INFO: Received request from CONM1111 to add an item with book id CON6231 ,book name Distributed & quantity 5
Apr 11, 2019 7:52:06 PM serverInterfaceImplementation.ConcordiaLibraryImplementation addItem
INFO: Received request from CONM1111 to add an item with book id CON6441 ,book name APP & quantity 1
Apr 11, 2019 7:52:06 PM serverInterfaceImplementation.ConcordiaLibraryImplementation listItemAvailability
INFO: Received request from CONM1111 to list item
Apr 11, 2019 7:52:06 PM serverInterfaceImplementation.ConcordiaLibraryImplementation listItemAvailability
INFO: Received request from CONM1111 to list item
Apr 11, 2019 7:52:06 PM serverInterfaceImplementation.ConcordiaLibraryImplementation listItemAvailability
INFO: Received request from CONM1111 to list item
Apr 11, 2019 7:52:06 PM serverInterfaceImplementation.ConcordiaLibraryImplementation addItem
INFO: Received request from CONM1111 to add an item with book id CON6231 ,book name Distributed & quantity 1
Apr 11, 2019 7:52:06 PM serverInterfaceImplementation.ConcordiaLibraryImplementation addItem
INFO: Received request from CONM1111 to add an item with book id CON6231 ,book name Distributed & quantity 5
Apr 11, 2019 7:52:06 PM serverInterfaceImplementation.ConcordiaLibraryImplementation addItem
INFO: Received request from CONM1111 to add an item with book id CON6441 ,book name APP & quantity 1
Apr 11, 2019 7:52:06 PM serverInterfaceImplementation.ConcordiaLibraryImplementation returnItem
INFO: Received request from CONM1111 for returning a book with book id CON6231
Apr 11, 2019 7:52:06 PM serverInterfaceImplementation.ConcordiaLibraryImplementation returnItem
INFO: Received request from CONM1111 for returning a book with book id CON6231
Apr 11, 2019 7:52:06 PM serverInterfaceImplementation.ConcordiaLibraryImplementation returnItem
INFO: Received request from CONM1111 for returning a book with book id CON6231
Apr 12, 2019 11:36:55 AM serverInterfaceImplementation.ConcordiaLibraryImplementation findItem
INFO: Received request from CONU1111 for finding a book with book name DISTRIBUTED
Apr 12, 2019 11:36:55 AM serverInterfaceImplementation.ConcordiaLibraryImplementation exchangeItem
INFO: Received request from CONU1111 for exchanging CON6231 with CON6441
Apr 12, 2019 11:36:55 AM serverInterfaceImplementation.ConcordiaLibraryImplementation returnItem
INFO: Received request from CONU1111 for returning a book with book id CON6231
Apr 12, 2019 11:36:55 AM serverInterfaceImplementation.ConcordiaLibraryImplementation borrowItem
INFO: Received request from CONU1111 for borrowing a book with book id CON6231
Apr 12, 2019 11:36:55 AM serverInterfaceImplementation.ConcordiaLibraryImplementation addItem
INFO: Received request from CONM1111 to add an item with book id CON6441 ,book name APP & quantity 1
Apr 12, 2019 11:36:55 AM serverInterfaceImplementation.ConcordiaLibraryImplementation returnItem
INFO: Received request from CONU1111 for returning a book with book id CON6231
Apr 12, 2019 11:36:55 AM serverInterfaceImplementation.ConcordiaLibraryImplementation returnItem
INFO: Received request from CONU1111 for returning a book with book id CON6231
Apr 12, 2019 11:36:55 AM serverInterfaceImplementation.ConcordiaLibraryImplementation removeItem
INFO: Received request from CONM1111 to remove an item with book id CON6231 & quantity 1
Apr 12, 2019 11:36:55 AM serverInterfaceImplementation.ConcordiaLibraryImplementation listItemAvailability
INFO: Received request from CONM1111 to list item
Apr 13, 2019 10:18:10 PM serverInterfaceImplementation.ConcordiaLibraryImplementation findItem
INFO: Received request from CONU1111 for finding a book with book name DISTRIBUTED
Apr 13, 2019 10:18:10 PM serverInterfaceImplementation.ConcordiaLibraryImplementation exchangeItem
INFO: Received request from CONU1111 for exchanging CON6231 with CON6441
Apr 13, 2019 10:18:10 PM serverInterfaceImplementation.ConcordiaLibraryImplementation returnItem
INFO: Received request from CONU1111 for returning a book with book id CON6231
Apr 13, 2019 10:18:10 PM serverInterfaceImplementation.ConcordiaLibraryImplementation borrowItem
INFO: Received request from CONU1111 for borrowing a book with book id CON6231
Apr 13, 2019 10:18:10 PM serverInterfaceImplementation.ConcordiaLibraryImplementation addItem
INFO: Received request from CONM1111 to add an item with book id CON6441 ,book name APP & quantity 1
Apr 13, 2019 10:18:10 PM serverInterfaceImplementation.ConcordiaLibraryImplementation listItemAvailability
INFO: Received request from CONM1111 to list item
Apr 13, 2019 10:18:10 PM serverInterfaceImplementation.ConcordiaLibraryImplementation returnItem
INFO: Received request from CONU1111 for returning a book with book id CON6231
Apr 13, 2019 10:18:10 PM serverInterfaceImplementation.ConcordiaLibraryImplementation removeItem
INFO: Received request from CONM1111 to remove an item with book id CON6231 & quantity 1
Apr 13, 2019 10:18:10 PM serverInterfaceImplementation.ConcordiaLibraryImplementation returnItem
INFO: Received request from CONU1111 for returning a book with book id CON6231
