Apr 11, 2019 7:34:56 PM serverInterfaceImplementation.McgillLibraryImplementation addItem
INFO: Received request from MCGM1111 to add an item with book id MCG6231 ,book name Distributed & quantity 1
Apr 11, 2019 7:34:56 PM serverInterfaceImplementation.McgillLibraryImplementation addItem
INFO: Received request from MCGM1111 to add an item with book id MCG6231 ,book name Distributed & quantity 5
Apr 11, 2019 7:34:56 PM serverInterfaceImplementation.McgillLibraryImplementation addItem
INFO: Received request from MCGM1111 to add an item with book id MCG6441 ,book name APP & quantity 1
Apr 11, 2019 7:34:56 PM serverInterfaceImplementation.McgillLibraryImplementation removeItem
INFO: Received request from MCGM1111 to remove an item with book id MCG6231 & quantity 1
Apr 11, 2019 7:34:56 PM serverInterfaceImplementation.McgillLibraryImplementation removeItem
INFO: Received request from MCGM1111 to remove an item with book id MCG6231 & quantity 1
Apr 11, 2019 7:34:56 PM serverInterfaceImplementation.McgillLibraryImplementation removeItem
INFO: Received request from MCGM1111 to remove an item with book id MCG6231 & quantity 1
Apr 11, 2019 7:34:57 PM serverInterfaceImplementation.McgillLibraryImplementation findItem
INFO: Received request from MCGU1111 for finding a book with book name DISTRIBUTED
Apr 11, 2019 7:34:57 PM serverInterfaceImplementation.McgillLibraryImplementation exchangeItem
INFO: Received request from MCGU1111 for exchanging MCG6231 with MCG6440
Apr 11, 2019 7:34:57 PM serverInterfaceImplementation.McgillLibraryImplementation borrowItem
INFO: Received request from MCGU1111 for borrowing a book with book id MCG6231
Apr 11, 2019 7:34:57 PM serverInterfaceImplementation.McgillLibraryImplementation addItem
INFO: Received request from MCGM1111 to add an item with book id MCG6231 ,book name Distributed & quantity 1
Apr 11, 2019 7:34:57 PM serverInterfaceImplementation.McgillLibraryImplementation listItemAvailability
INFO: Received request from MCGM1111 to list item
Apr 11, 2019 7:34:57 PM serverInterfaceImplementation.McgillLibraryImplementation removeItem
INFO: Received request from MCGM1111 to remove an item with book id MCG6231 & quantity 1
Apr 11, 2019 7:35:10 PM serverInterfaceImplementation.McgillLibraryImplementation addItem
INFO: Received request from MCGM1111 to add an item with book id MCG6231 ,book name Distributed & quantity 1
Apr 11, 2019 7:35:10 PM serverInterfaceImplementation.McgillLibraryImplementation addItem
INFO: Received request from MCGM1111 to add an item with book id MCG6231 ,book name Distributed & quantity 5
Apr 11, 2019 7:35:10 PM serverInterfaceImplementation.McgillLibraryImplementation addItem
INFO: Received request from MCGM1111 to add an item with book id MCG6441 ,book name APP & quantity 1
Apr 11, 2019 7:35:10 PM serverInterfaceImplementation.McgillLibraryImplementation removeItem
INFO: Received request from MCGM1111 to remove an item with book id MCG6231 & quantity 1
Apr 11, 2019 7:35:10 PM serverInterfaceImplementation.McgillLibraryImplementation removeItem
INFO: Received request from MCGM1111 to remove an item with book id MCG6231 & quantity 1
Apr 11, 2019 7:35:10 PM serverInterfaceImplementation.McgillLibraryImplementation removeItem
INFO: Received request from MCGM1111 to remove an item with book id MCG6231 & quantity 1
Apr 11, 2019 7:35:10 PM serverInterfaceImplementation.McgillLibraryImplementation findItem
INFO: Received request from MCGU1111 for finding a book with book name DISTRIBUTED
Apr 11, 2019 7:35:10 PM serverInterfaceImplementation.McgillLibraryImplementation exchangeItem
INFO: Received request from MCGU1111 for exchanging MCG6231 with MCG6440
Apr 11, 2019 7:35:10 PM serverInterfaceImplementation.McgillLibraryImplementation borrowItem
INFO: Received request from MCGU1111 for borrowing a book with book id MCG6231
Apr 11, 2019 7:35:10 PM serverInterfaceImplementation.McgillLibraryImplementation listItemAvailability
INFO: Received request from MCGM1111 to list item
Apr 11, 2019 7:35:10 PM serverInterfaceImplementation.McgillLibraryImplementation addItem
INFO: Received request from MCGM1111 to add an item with book id MCG6231 ,book name Distributed & quantity 1
Apr 11, 2019 7:35:10 PM serverInterfaceImplementation.McgillLibraryImplementation removeItem
INFO: Received request from MCGM1111 to remove an item with book id MCG6231 & quantity 1
Apr 11, 2019 7:35:21 PM serverInterfaceImplementation.McgillLibraryImplementation addItem
INFO: Received request from MCGM1111 to add an item with book id MCG6231 ,book name Distributed & quantity 1
Apr 11, 2019 7:35:21 PM serverInterfaceImplementation.McgillLibraryImplementation addItem
INFO: Received request from MCGM1111 to add an item with book id MCG6231 ,book name Distributed & quantity 5
Apr 11, 2019 7:35:21 PM serverInterfaceImplementation.McgillLibraryImplementation addItem
INFO: Received request from MCGM1111 to add an item with book id MCG6441 ,book name APP & quantity 1
Apr 11, 2019 7:35:21 PM serverInterfaceImplementation.McgillLibraryImplementation removeItem
INFO: Received request from MCGM1111 to remove an item with book id MCG6231 & quantity 1
Apr 11, 2019 7:35:21 PM serverInterfaceImplementation.McgillLibraryImplementation removeItem
INFO: Received request from MCGM1111 to remove an item with book id MCG6231 & quantity 1
Apr 11, 2019 7:35:21 PM serverInterfaceImplementation.McgillLibraryImplementation removeItem
INFO: Received request from MCGM1111 to remove an item with book id MCG6231 & quantity 1
Apr 11, 2019 7:35:22 PM serverInterfaceImplementation.McgillLibraryImplementation findItem
INFO: Received request from MCGU1111 for finding a book with book name DISTRIBUTED
Apr 11, 2019 7:35:22 PM serverInterfaceImplementation.McgillLibraryImplementation exchangeItem
INFO: Received request from MCGU1111 for exchanging MCG6231 with MCG6440
Apr 11, 2019 7:35:22 PM serverInterfaceImplementation.McgillLibraryImplementation borrowItem
INFO: Received request from MCGU1111 for borrowing a book with book id MCG6231
Apr 11, 2019 7:35:22 PM serverInterfaceImplementation.McgillLibraryImplementation removeItem
INFO: Received request from MCGM1111 to remove an item with book id MCG6231 & quantity 1
Apr 11, 2019 7:35:22 PM serverInterfaceImplementation.McgillLibraryImplementation addItem
INFO: Received request from MCGM1111 to add an item with book id MCG6231 ,book name Distributed & quantity 1
Apr 11, 2019 7:35:22 PM serverInterfaceImplementation.McgillLibraryImplementation listItemAvailability
INFO: Received request from MCGM1111 to list item
Apr 11, 2019 7:35:35 PM serverInterfaceImplementation.McgillLibraryImplementation addItem
INFO: Received request from MCGM1111 to add an item with book id MCG6231 ,book name Distributed & quantity 1
Apr 11, 2019 7:35:35 PM serverInterfaceImplementation.McgillLibraryImplementation addItem
INFO: Received request from MCGM1111 to add an item with book id MCG6231 ,book name Distributed & quantity 5
Apr 11, 2019 7:35:35 PM serverInterfaceImplementation.McgillLibraryImplementation addItem
INFO: Received request from MCGM1111 to add an item with book id MCG6441 ,book name APP & quantity 1
Apr 11, 2019 7:35:35 PM serverInterfaceImplementation.McgillLibraryImplementation removeItem
INFO: Received request from MCGM1111 to remove an item with book id MCG6231 & quantity 1
Apr 11, 2019 7:35:35 PM serverInterfaceImplementation.McgillLibraryImplementation removeItem
INFO: Received request from MCGM1111 to remove an item with book id MCG6231 & quantity 1
Apr 11, 2019 7:35:35 PM serverInterfaceImplementation.McgillLibraryImplementation removeItem
INFO: Received request from MCGM1111 to remove an item with book id MCG6231 & quantity 1
Apr 11, 2019 7:35:36 PM serverInterfaceImplementation.McgillLibraryImplementation findItem
INFO: Received request from MCGU1111 for finding a book with book name DISTRIBUTED
Apr 11, 2019 7:35:36 PM serverInterfaceImplementation.McgillLibraryImplementation exchangeItem
INFO: Received request from MCGU1111 for exchanging MCG6231 with MCG6440
Apr 11, 2019 7:35:36 PM serverInterfaceImplementation.McgillLibraryImplementation addItem
INFO: Received request from MCGM1111 to add an item with book id MCG6231 ,book name Distributed & quantity 1
Apr 11, 2019 7:35:36 PM serverInterfaceImplementation.McgillLibraryImplementation borrowItem
INFO: Received request from MCGU1111 for borrowing a book with book id MCG6231
Apr 11, 2019 7:35:36 PM serverInterfaceImplementation.McgillLibraryImplementation listItemAvailability
INFO: Received request from MCGM1111 to list item
Apr 11, 2019 7:35:36 PM serverInterfaceImplementation.McgillLibraryImplementation removeItem
INFO: Received request from MCGM1111 to remove an item with book id MCG6231 & quantity 1
Apr 11, 2019 7:35:52 PM serverInterfaceImplementation.McgillLibraryImplementation addItem
INFO: Received request from MCGM1111 to add an item with book id MCG6231 ,book name Distributed & quantity 1
Apr 11, 2019 7:35:52 PM serverInterfaceImplementation.McgillLibraryImplementation addItem
INFO: Received request from MCGM1111 to add an item with book id MCG6231 ,book name Distributed & quantity 5
Apr 11, 2019 7:35:52 PM serverInterfaceImplementation.McgillLibraryImplementation addItem
INFO: Received request from MCGM1111 to add an item with book id MCG6441 ,book name APP & quantity 1
Apr 11, 2019 7:35:52 PM serverInterfaceImplementation.McgillLibraryImplementation removeItem
INFO: Received request from MCGM1111 to remove an item with book id MCG6231 & quantity 1
Apr 11, 2019 7:35:52 PM serverInterfaceImplementation.McgillLibraryImplementation removeItem
INFO: Received request from MCGM1111 to remove an item with book id MCG6231 & quantity 1
Apr 11, 2019 7:35:52 PM serverInterfaceImplementation.McgillLibraryImplementation removeItem
INFO: Received request from MCGM1111 to remove an item with book id MCG6231 & quantity 1
Apr 11, 2019 7:35:52 PM serverInterfaceImplementation.McgillLibraryImplementation findItem
INFO: Received request from MCGU1111 for finding a book with book name DISTRIBUTED
Apr 11, 2019 7:35:52 PM serverInterfaceImplementation.McgillLibraryImplementation exchangeItem
INFO: Received request from MCGU1111 for exchanging MCG6231 with MCG6440
Apr 11, 2019 7:35:52 PM serverInterfaceImplementation.McgillLibraryImplementation addItem
INFO: Received request from MCGM1111 to add an item with book id MCG6231 ,book name Distributed & quantity 1
Apr 11, 2019 7:35:52 PM serverInterfaceImplementation.McgillLibraryImplementation borrowItem
INFO: Received request from MCGU1111 for borrowing a book with book id MCG6231
Apr 11, 2019 7:35:52 PM serverInterfaceImplementation.McgillLibraryImplementation listItemAvailability
INFO: Received request from MCGM1111 to list item
Apr 11, 2019 7:35:52 PM serverInterfaceImplementation.McgillLibraryImplementation removeItem
INFO: Received request from MCGM1111 to remove an item with book id MCG6231 & quantity 1
Apr 11, 2019 7:36:04 PM serverInterfaceImplementation.McgillLibraryImplementation addItem
INFO: Received request from MCGM1111 to add an item with book id MCG6231 ,book name Distributed & quantity 1
Apr 11, 2019 7:36:04 PM serverInterfaceImplementation.McgillLibraryImplementation addItem
INFO: Received request from MCGM1111 to add an item with book id MCG6231 ,book name Distributed & quantity 5
Apr 11, 2019 7:36:04 PM serverInterfaceImplementation.McgillLibraryImplementation addItem
INFO: Received request from MCGM1111 to add an item with book id MCG6441 ,book name APP & quantity 1
Apr 11, 2019 7:36:04 PM serverInterfaceImplementation.McgillLibraryImplementation removeItem
INFO: Received request from MCGM1111 to remove an item with book id MCG6231 & quantity 1
Apr 11, 2019 7:36:04 PM serverInterfaceImplementation.McgillLibraryImplementation removeItem
INFO: Received request from MCGM1111 to remove an item with book id MCG6231 & quantity 1
Apr 11, 2019 7:36:04 PM serverInterfaceImplementation.McgillLibraryImplementation removeItem
INFO: Received request from MCGM1111 to remove an item with book id MCG6231 & quantity 1
Apr 11, 2019 7:36:04 PM serverInterfaceImplementation.McgillLibraryImplementation findItem
INFO: Received request from MCGU1111 for finding a book with book name DISTRIBUTED
Apr 11, 2019 7:36:04 PM serverInterfaceImplementation.McgillLibraryImplementation exchangeItem
INFO: Received request from MCGU1111 for exchanging MCG6231 with MCG6440
Apr 11, 2019 7:36:04 PM serverInterfaceImplementation.McgillLibraryImplementation addItem
INFO: Received request from MCGM1111 to add an item with book id MCG6231 ,book name Distributed & quantity 1
Apr 11, 2019 7:36:04 PM serverInterfaceImplementation.McgillLibraryImplementation borrowItem
INFO: Received request from MCGU1111 for borrowing a book with book id MCG6231
Apr 11, 2019 7:36:04 PM serverInterfaceImplementation.McgillLibraryImplementation removeItem
INFO: Received request from MCGM1111 to remove an item with book id MCG6231 & quantity 1
Apr 11, 2019 7:36:04 PM serverInterfaceImplementation.McgillLibraryImplementation listItemAvailability
INFO: Received request from MCGM1111 to list item
Apr 11, 2019 7:36:39 PM serverInterfaceImplementation.McgillLibraryImplementation addItem
INFO: Received request from MCGM1111 to add an item with book id MCG6231 ,book name Distributed & quantity 1
Apr 11, 2019 7:36:39 PM serverInterfaceImplementation.McgillLibraryImplementation addItem
INFO: Received request from MCGM1111 to add an item with book id MCG6231 ,book name Distributed & quantity 5
Apr 11, 2019 7:36:39 PM serverInterfaceImplementation.McgillLibraryImplementation addItem
INFO: Received request from MCGM1111 to add an item with book id MCG6441 ,book name APP & quantity 1
Apr 11, 2019 7:36:39 PM serverInterfaceImplementation.McgillLibraryImplementation removeItem
INFO: Received request from MCGM1111 to remove an item with book id MCG6231 & quantity 1
Apr 11, 2019 7:36:39 PM serverInterfaceImplementation.McgillLibraryImplementation removeItem
INFO: Received request from MCGM1111 to remove an item with book id MCG6231 & quantity 1
Apr 11, 2019 7:36:39 PM serverInterfaceImplementation.McgillLibraryImplementation removeItem
INFO: Received request from MCGM1111 to remove an item with book id MCG6231 & quantity 1
Apr 11, 2019 7:36:39 PM serverInterfaceImplementation.McgillLibraryImplementation findItem
INFO: Received request from MCGU1111 for finding a book with book name DISTRIBUTED
Apr 11, 2019 7:36:39 PM serverInterfaceImplementation.McgillLibraryImplementation exchangeItem
INFO: Received request from MCGU1111 for exchanging MCG6231 with MCG6440
Apr 11, 2019 7:36:39 PM serverInterfaceImplementation.McgillLibraryImplementation borrowItem
INFO: Received request from MCGU1111 for borrowing a book with book id MCG6231
Apr 11, 2019 7:36:39 PM serverInterfaceImplementation.McgillLibraryImplementation removeItem
INFO: Received request from MCGM1111 to remove an item with book id MCG6231 & quantity 1
Apr 11, 2019 7:36:39 PM serverInterfaceImplementation.McgillLibraryImplementation listItemAvailability
INFO: Received request from MCGM1111 to list item
Apr 11, 2019 7:36:39 PM serverInterfaceImplementation.McgillLibraryImplementation addItem
INFO: Received request from MCGM1111 to add an item with book id MCG6231 ,book name Distributed & quantity 1
Apr 11, 2019 7:37:04 PM serverInterfaceImplementation.McgillLibraryImplementation addItem
INFO: Received request from MCGM1111 to add an item with book id MCG6231 ,book name Distributed & quantity 1
Apr 11, 2019 7:37:04 PM serverInterfaceImplementation.McgillLibraryImplementation addItem
INFO: Received request from MCGM1111 to add an item with book id MCG6231 ,book name Distributed & quantity 5
Apr 11, 2019 7:37:04 PM serverInterfaceImplementation.McgillLibraryImplementation addItem
INFO: Received request from MCGM1111 to add an item with book id MCG6441 ,book name APP & quantity 1
Apr 11, 2019 7:37:04 PM serverInterfaceImplementation.McgillLibraryImplementation removeItem
INFO: Received request from MCGM1111 to remove an item with book id MCG6231 & quantity 1
Apr 11, 2019 7:37:04 PM serverInterfaceImplementation.McgillLibraryImplementation removeItem
INFO: Received request from MCGM1111 to remove an item with book id MCG6231 & quantity 1
Apr 11, 2019 7:37:04 PM serverInterfaceImplementation.McgillLibraryImplementation removeItem
INFO: Received request from MCGM1111 to remove an item with book id MCG6231 & quantity 1
Apr 11, 2019 7:37:04 PM serverInterfaceImplementation.McgillLibraryImplementation findItem
INFO: Received request from MCGU1111 for finding a book with book name DISTRIBUTED
Apr 11, 2019 7:37:04 PM serverInterfaceImplementation.McgillLibraryImplementation exchangeItem
INFO: Received request from MCGU1111 for exchanging MCG6231 with MCG6440
Apr 11, 2019 7:37:04 PM serverInterfaceImplementation.McgillLibraryImplementation borrowItem
INFO: Received request from MCGU1111 for borrowing a book with book id MCG6231
Apr 11, 2019 7:37:04 PM serverInterfaceImplementation.McgillLibraryImplementation addItem
INFO: Received request from MCGM1111 to add an item with book id MCG6231 ,book name Distributed & quantity 1
Apr 11, 2019 7:37:04 PM serverInterfaceImplementation.McgillLibraryImplementation listItemAvailability
INFO: Received request from MCGM1111 to list item
Apr 11, 2019 7:37:04 PM serverInterfaceImplementation.McgillLibraryImplementation removeItem
INFO: Received request from MCGM1111 to remove an item with book id MCG6231 & quantity 1
