Apr 11, 2019 7:32:54 PM serverInterfaceImplementation.McgillLibraryImplementation addItem
INFO: Received request from MCGM1111 to add an item with book id MCG6231 ,book name Distributed & quantity 1
Apr 11, 2019 7:32:54 PM serverInterfaceImplementation.McgillLibraryImplementation addItem
INFO: Received request from MCGM1111 to add an item with book id MCG6231 ,book name Distributed & quantity 5
Apr 11, 2019 7:32:54 PM serverInterfaceImplementation.McgillLibraryImplementation addItem
INFO: Received request from MCGM1111 to add an item with book id MCG6441 ,book name APP & quantity 1
Apr 11, 2019 7:32:54 PM serverInterfaceImplementation.McgillLibraryImplementation addItem
INFO: Received request from MCGM1111 to add an item with book id MCG6231 ,book name Distributed & quantity 1
Apr 11, 2019 7:32:54 PM serverInterfaceImplementation.McgillLibraryImplementation addItem
INFO: Received request from MCGM1111 to add an item with book id MCG6231 ,book name Distributed & quantity 5
Apr 11, 2019 7:32:54 PM serverInterfaceImplementation.McgillLibraryImplementation addItem
INFO: Received request from MCGM1111 to add an item with book id MCG6441 ,book name APP & quantity 1
Apr 11, 2019 7:32:54 PM serverInterfaceImplementation.McgillLibraryImplementation addItem
INFO: Received request from MCGM1111 to add an item with book id MCG6231 ,book name Distributed & quantity 1
Apr 11, 2019 7:32:54 PM serverInterfaceImplementation.McgillLibraryImplementation addItem
INFO: Received request from MCGM1111 to add an item with book id MCG6231 ,book name Distributed & quantity 5
Apr 11, 2019 7:32:54 PM serverInterfaceImplementation.McgillLibraryImplementation addItem
INFO: Received request from MCGM1111 to add an item with book id MCG6441 ,book name APP & quantity 1
Apr 11, 2019 7:32:54 PM serverInterfaceImplementation.McgillLibraryImplementation listItemAvailability
INFO: Received request from MCGM1111 to list item
Apr 11, 2019 7:32:54 PM serverInterfaceImplementation.McgillLibraryImplementation listItemAvailability
INFO: Received request from MCGM1111 to list item
Apr 11, 2019 7:32:54 PM serverInterfaceImplementation.McgillLibraryImplementation listItemAvailability
INFO: Received request from MCGM1111 to list item
Apr 11, 2019 7:32:54 PM serverInterfaceImplementation.McgillLibraryImplementation addItem
INFO: Received request from MCGM1111 to add an item with book id MCG6231 ,book name Distributed & quantity 1
Apr 11, 2019 7:32:54 PM serverInterfaceImplementation.McgillLibraryImplementation addItem
INFO: Received request from MCGM1111 to add an item with book id MCG6231 ,book name Distributed & quantity 5
Apr 11, 2019 7:32:54 PM serverInterfaceImplementation.McgillLibraryImplementation addItem
INFO: Received request from MCGM1111 to add an item with book id MCG6441 ,book name APP & quantity 1
Apr 11, 2019 7:32:54 PM serverInterfaceImplementation.McgillLibraryImplementation returnItem
INFO: Received request from MCGM1111 for returning a book with book id MCG6231
Apr 11, 2019 7:32:54 PM serverInterfaceImplementation.McgillLibraryImplementation returnItem
INFO: Received request from MCGM1111 for returning a book with book id MCG6231
Apr 11, 2019 7:32:54 PM serverInterfaceImplementation.McgillLibraryImplementation returnItem
INFO: Received request from MCGM1111 for returning a book with book id MCG6231
Apr 11, 2019 7:32:54 PM serverInterfaceImplementation.McgillLibraryImplementation addItem
INFO: Received request from MCGM1111 to add an item with book id MCG6231 ,book name Distributed & quantity 1
Apr 11, 2019 7:32:54 PM serverInterfaceImplementation.McgillLibraryImplementation addItem
INFO: Received request from MCGM1111 to add an item with book id MCG6231 ,book name Distributed & quantity 5
Apr 11, 2019 7:32:54 PM serverInterfaceImplementation.McgillLibraryImplementation addItem
INFO: Received request from MCGM1111 to add an item with book id MCG6441 ,book name APP & quantity 1
Apr 11, 2019 7:32:54 PM serverInterfaceImplementation.McgillLibraryImplementation removeItem
INFO: Received request from MCGM1111 to remove an item with book id MCG6231 & quantity 1
Apr 11, 2019 7:32:54 PM serverInterfaceImplementation.McgillLibraryImplementation removeItem
INFO: Received request from MCGM1111 to remove an item with book id MCG6231 & quantity 1
Apr 11, 2019 7:32:54 PM serverInterfaceImplementation.McgillLibraryImplementation removeItem
INFO: Received request from MCGM1111 to remove an item with book id MCG6231 & quantity 1
Apr 11, 2019 7:34:20 PM serverInterfaceImplementation.McgillLibraryImplementation addItem
INFO: Received request from MCGM1111 to add an item with book id MCG6231 ,book name Distributed & quantity 1
Apr 11, 2019 7:34:20 PM serverInterfaceImplementation.McgillLibraryImplementation addItem
INFO: Received request from MCGM1111 to add an item with book id MCG6231 ,book name Distributed & quantity 5
Apr 11, 2019 7:34:20 PM serverInterfaceImplementation.McgillLibraryImplementation addItem
INFO: Received request from MCGM1111 to add an item with book id MCG6441 ,book name APP & quantity 1
Apr 11, 2019 7:34:20 PM serverInterfaceImplementation.McgillLibraryImplementation listItemAvailability
INFO: Received request from MCGM1111 to list item
Apr 11, 2019 7:34:20 PM serverInterfaceImplementation.McgillLibraryImplementation listItemAvailability
INFO: Received request from MCGM1111 to list item
Apr 11, 2019 7:34:20 PM serverInterfaceImplementation.McgillLibraryImplementation listItemAvailability
INFO: Received request from MCGM1111 to list item
Apr 11, 2019 7:34:20 PM serverInterfaceImplementation.McgillLibraryImplementation addItem
INFO: Received request from MCGM1111 to add an item with book id MCG6231 ,book name Distributed & quantity 1
Apr 11, 2019 7:34:20 PM serverInterfaceImplementation.McgillLibraryImplementation addItem
INFO: Received request from MCGM1111 to add an item with book id MCG6231 ,book name Distributed & quantity 5
Apr 11, 2019 7:34:20 PM serverInterfaceImplementation.McgillLibraryImplementation addItem
INFO: Received request from MCGM1111 to add an item with book id MCG6441 ,book name APP & quantity 1
Apr 11, 2019 7:34:20 PM serverInterfaceImplementation.McgillLibraryImplementation returnItem
INFO: Received request from MCGM1111 for returning a book with book id MCG6231
Apr 11, 2019 7:34:20 PM serverInterfaceImplementation.McgillLibraryImplementation returnItem
INFO: Received request from MCGM1111 for returning a book with book id MCG6231
Apr 11, 2019 7:34:20 PM serverInterfaceImplementation.McgillLibraryImplementation returnItem
INFO: Received request from MCGM1111 for returning a book with book id MCG6231
Apr 11, 2019 7:34:20 PM serverInterfaceImplementation.McgillLibraryImplementation addItem
INFO: Received request from MCGM1111 to add an item with book id MCG6231 ,book name Distributed & quantity 1
Apr 11, 2019 7:34:20 PM serverInterfaceImplementation.McgillLibraryImplementation addItem
INFO: Received request from MCGM1111 to add an item with book id MCG6231 ,book name Distributed & quantity 5
Apr 11, 2019 7:34:20 PM serverInterfaceImplementation.McgillLibraryImplementation addItem
INFO: Received request from MCGM1111 to add an item with book id MCG6441 ,book name APP & quantity 1
Apr 11, 2019 7:34:20 PM serverInterfaceImplementation.McgillLibraryImplementation removeItem
INFO: Received request from MCGM1111 to remove an item with book id MCG6231 & quantity 1
Apr 11, 2019 7:34:20 PM serverInterfaceImplementation.McgillLibraryImplementation removeItem
INFO: Received request from MCGM1111 to remove an item with book id MCG6231 & quantity 1
Apr 11, 2019 7:34:20 PM serverInterfaceImplementation.McgillLibraryImplementation removeItem
INFO: Received request from MCGM1111 to remove an item with book id MCG6231 & quantity 1
Apr 11, 2019 7:34:34 PM serverInterfaceImplementation.McgillLibraryImplementation addItem
INFO: Received request from MCGM1111 to add an item with book id MCG6231 ,book name Distributed & quantity 1
Apr 11, 2019 7:34:34 PM serverInterfaceImplementation.McgillLibraryImplementation addItem
INFO: Received request from MCGM1111 to add an item with book id MCG6231 ,book name Distributed & quantity 5
Apr 11, 2019 7:34:34 PM serverInterfaceImplementation.McgillLibraryImplementation addItem
INFO: Received request from MCGM1111 to add an item with book id MCG6441 ,book name APP & quantity 1
Apr 11, 2019 7:34:34 PM serverInterfaceImplementation.McgillLibraryImplementation listItemAvailability
INFO: Received request from MCGM1111 to list item
Apr 11, 2019 7:34:34 PM serverInterfaceImplementation.McgillLibraryImplementation listItemAvailability
INFO: Received request from MCGM1111 to list item
Apr 11, 2019 7:34:34 PM serverInterfaceImplementation.McgillLibraryImplementation listItemAvailability
INFO: Received request from MCGM1111 to list item
Apr 11, 2019 7:34:34 PM serverInterfaceImplementation.McgillLibraryImplementation addItem
INFO: Received request from MCGM1111 to add an item with book id MCG6231 ,book name Distributed & quantity 1
Apr 11, 2019 7:34:34 PM serverInterfaceImplementation.McgillLibraryImplementation addItem
INFO: Received request from MCGM1111 to add an item with book id MCG6231 ,book name Distributed & quantity 5
Apr 11, 2019 7:34:34 PM serverInterfaceImplementation.McgillLibraryImplementation addItem
INFO: Received request from MCGM1111 to add an item with book id MCG6441 ,book name APP & quantity 1
Apr 11, 2019 7:34:34 PM serverInterfaceImplementation.McgillLibraryImplementation returnItem
INFO: Received request from MCGM1111 for returning a book with book id MCG6231
Apr 11, 2019 7:34:34 PM serverInterfaceImplementation.McgillLibraryImplementation returnItem
INFO: Received request from MCGM1111 for returning a book with book id MCG6231
Apr 11, 2019 7:34:34 PM serverInterfaceImplementation.McgillLibraryImplementation returnItem
INFO: Received request from MCGM1111 for returning a book with book id MCG6231
Apr 11, 2019 7:34:34 PM serverInterfaceImplementation.McgillLibraryImplementation addItem
INFO: Received request from MCGM1111 to add an item with book id MCG6231 ,book name Distributed & quantity 1
Apr 11, 2019 7:34:34 PM serverInterfaceImplementation.McgillLibraryImplementation addItem
INFO: Received request from MCGM1111 to add an item with book id MCG6231 ,book name Distributed & quantity 5
Apr 11, 2019 7:34:34 PM serverInterfaceImplementation.McgillLibraryImplementation addItem
INFO: Received request from MCGM1111 to add an item with book id MCG6441 ,book name APP & quantity 1
Apr 11, 2019 7:34:34 PM serverInterfaceImplementation.McgillLibraryImplementation removeItem
INFO: Received request from MCGM1111 to remove an item with book id MCG6231 & quantity 1
Apr 11, 2019 7:34:34 PM serverInterfaceImplementation.McgillLibraryImplementation removeItem
INFO: Received request from MCGM1111 to remove an item with book id MCG6231 & quantity 1
Apr 11, 2019 7:34:34 PM serverInterfaceImplementation.McgillLibraryImplementation removeItem
INFO: Received request from MCGM1111 to remove an item with book id MCG6231 & quantity 1
Apr 11, 2019 7:52:24 PM serverInterfaceImplementation.McgillLibraryImplementation addItem
INFO: Received request from MCGM1111 to add an item with book id MCG6231 ,book name Distributed & quantity 1
Apr 11, 2019 7:52:24 PM serverInterfaceImplementation.McgillLibraryImplementation addItem
INFO: Received request from MCGM1111 to add an item with book id MCG6231 ,book name Distributed & quantity 5
Apr 11, 2019 7:52:24 PM serverInterfaceImplementation.McgillLibraryImplementation addItem
INFO: Received request from MCGM1111 to add an item with book id MCG6441 ,book name APP & quantity 1
Apr 11, 2019 7:52:24 PM serverInterfaceImplementation.McgillLibraryImplementation listItemAvailability
INFO: Received request from MCGM1111 to list item
Apr 11, 2019 7:52:24 PM serverInterfaceImplementation.McgillLibraryImplementation listItemAvailability
INFO: Received request from MCGM1111 to list item
Apr 11, 2019 7:52:24 PM serverInterfaceImplementation.McgillLibraryImplementation listItemAvailability
INFO: Received request from MCGM1111 to list item
Apr 11, 2019 7:52:24 PM serverInterfaceImplementation.McgillLibraryImplementation addItem
INFO: Received request from MCGM1111 to add an item with book id MCG6231 ,book name Distributed & quantity 1
Apr 11, 2019 7:52:24 PM serverInterfaceImplementation.McgillLibraryImplementation addItem
INFO: Received request from MCGM1111 to add an item with book id MCG6231 ,book name Distributed & quantity 5
Apr 11, 2019 7:52:24 PM serverInterfaceImplementation.McgillLibraryImplementation addItem
INFO: Received request from MCGM1111 to add an item with book id MCG6441 ,book name APP & quantity 1
Apr 11, 2019 7:52:24 PM serverInterfaceImplementation.McgillLibraryImplementation returnItem
INFO: Received request from MCGM1111 for returning a book with book id MCG6231
Apr 11, 2019 7:52:24 PM serverInterfaceImplementation.McgillLibraryImplementation returnItem
INFO: Received request from MCGM1111 for returning a book with book id MCG6231
Apr 11, 2019 7:52:24 PM serverInterfaceImplementation.McgillLibraryImplementation returnItem
INFO: Received request from MCGM1111 for returning a book with book id MCG6231
Apr 11, 2019 7:52:24 PM serverInterfaceImplementation.McgillLibraryImplementation addItem
INFO: Received request from MCGM1111 to add an item with book id MCG6231 ,book name Distributed & quantity 1
Apr 11, 2019 7:52:24 PM serverInterfaceImplementation.McgillLibraryImplementation addItem
INFO: Received request from MCGM1111 to add an item with book id MCG6231 ,book name Distributed & quantity 5
Apr 11, 2019 7:52:24 PM serverInterfaceImplementation.McgillLibraryImplementation addItem
INFO: Received request from MCGM1111 to add an item with book id MCG6441 ,book name APP & quantity 1
Apr 11, 2019 7:52:24 PM serverInterfaceImplementation.McgillLibraryImplementation removeItem
INFO: Received request from MCGM1111 to remove an item with book id MCG6231 & quantity 1
Apr 11, 2019 7:52:24 PM serverInterfaceImplementation.McgillLibraryImplementation removeItem
INFO: Received request from MCGM1111 to remove an item with book id MCG6231 & quantity 1
Apr 11, 2019 7:52:24 PM serverInterfaceImplementation.McgillLibraryImplementation removeItem
INFO: Received request from MCGM1111 to remove an item with book id MCG6231 & quantity 1
Apr 11, 2019 7:52:24 PM serverInterfaceImplementation.McgillLibraryImplementation findItem
INFO: Received request from MCGU1111 for finding a book with book name DISTRIBUTED
Apr 11, 2019 7:52:24 PM serverInterfaceImplementation.McgillLibraryImplementation exchangeItem
INFO: Received request from MCGU1111 for exchanging MCG6231 with MCG6440
Apr 11, 2019 7:52:24 PM serverInterfaceImplementation.McgillLibraryImplementation borrowItem
INFO: Received request from MCGU1111 for borrowing a book with book id MCG6231
Apr 11, 2019 7:52:24 PM serverInterfaceImplementation.McgillLibraryImplementation addItem
INFO: Received request from MCGM1111 to add an item with book id MCG6231 ,book name Distributed & quantity 1
Apr 11, 2019 7:52:24 PM serverInterfaceImplementation.McgillLibraryImplementation listItemAvailability
INFO: Received request from MCGM1111 to list item
Apr 11, 2019 7:52:24 PM serverInterfaceImplementation.McgillLibraryImplementation removeItem
INFO: Received request from MCGM1111 to remove an item with book id MCG6231 & quantity 1
Apr 12, 2019 9:45:32 AM serverInterfaceImplementation.McgillLibraryImplementation addItem
INFO: Received request from MCGM1111 to add an item with book id MCG6231 ,book name Distributed & quantity 1
Apr 12, 2019 9:45:32 AM serverInterfaceImplementation.McgillLibraryImplementation addItem
INFO: Received request from MCGM1111 to add an item with book id MCG6231 ,book name Distributed & quantity 5
Apr 12, 2019 9:45:32 AM serverInterfaceImplementation.McgillLibraryImplementation addItem
INFO: Received request from MCGM1111 to add an item with book id MCG6441 ,book name APP & quantity 1
Apr 12, 2019 9:45:32 AM serverInterfaceImplementation.McgillLibraryImplementation listItemAvailability
INFO: Received request from MCGM1111 to list item
Apr 12, 2019 9:45:32 AM serverInterfaceImplementation.McgillLibraryImplementation listItemAvailability
INFO: Received request from MCGM1111 to list item
Apr 12, 2019 9:45:32 AM serverInterfaceImplementation.McgillLibraryImplementation listItemAvailability
INFO: Received request from MCGM1111 to list item
Apr 12, 2019 9:45:32 AM serverInterfaceImplementation.McgillLibraryImplementation addItem
INFO: Received request from MCGM1111 to add an item with book id MCG6231 ,book name Distributed & quantity 1
Apr 12, 2019 9:45:32 AM serverInterfaceImplementation.McgillLibraryImplementation addItem
INFO: Received request from MCGM1111 to add an item with book id MCG6231 ,book name Distributed & quantity 5
Apr 12, 2019 9:45:32 AM serverInterfaceImplementation.McgillLibraryImplementation addItem
INFO: Received request from MCGM1111 to add an item with book id MCG6441 ,book name APP & quantity 1
Apr 12, 2019 9:45:32 AM serverInterfaceImplementation.McgillLibraryImplementation returnItem
INFO: Received request from MCGM1111 for returning a book with book id MCG6231
Apr 12, 2019 9:45:32 AM serverInterfaceImplementation.McgillLibraryImplementation returnItem
INFO: Received request from MCGM1111 for returning a book with book id MCG6231
Apr 12, 2019 9:45:32 AM serverInterfaceImplementation.McgillLibraryImplementation returnItem
INFO: Received request from MCGM1111 for returning a book with book id MCG6231
Apr 12, 2019 9:45:32 AM serverInterfaceImplementation.McgillLibraryImplementation addItem
INFO: Received request from MCGM1111 to add an item with book id MCG6231 ,book name Distributed & quantity 1
Apr 12, 2019 9:45:32 AM serverInterfaceImplementation.McgillLibraryImplementation addItem
INFO: Received request from MCGM1111 to add an item with book id MCG6231 ,book name Distributed & quantity 5
Apr 12, 2019 9:45:32 AM serverInterfaceImplementation.McgillLibraryImplementation addItem
INFO: Received request from MCGM1111 to add an item with book id MCG6441 ,book name APP & quantity 1
Apr 12, 2019 9:45:32 AM serverInterfaceImplementation.McgillLibraryImplementation removeItem
INFO: Received request from MCGM1111 to remove an item with book id MCG6231 & quantity 1
Apr 12, 2019 9:45:32 AM serverInterfaceImplementation.McgillLibraryImplementation removeItem
INFO: Received request from MCGM1111 to remove an item with book id MCG6231 & quantity 1
Apr 12, 2019 9:45:32 AM serverInterfaceImplementation.McgillLibraryImplementation removeItem
INFO: Received request from MCGM1111 to remove an item with book id MCG6231 & quantity 1
Apr 12, 2019 9:45:32 AM serverInterfaceImplementation.McgillLibraryImplementation findItem
INFO: Received request from MCGU1111 for finding a book with book name DISTRIBUTED
Apr 12, 2019 9:45:32 AM serverInterfaceImplementation.McgillLibraryImplementation exchangeItem
INFO: Received request from MCGU1111 for exchanging MCG6231 with MCG6440
Apr 12, 2019 9:45:32 AM serverInterfaceImplementation.McgillLibraryImplementation addItem
INFO: Received request from MCGM1111 to add an item with book id MCG6231 ,book name Distributed & quantity 1
Apr 12, 2019 9:45:32 AM serverInterfaceImplementation.McgillLibraryImplementation borrowItem
INFO: Received request from MCGU1111 for borrowing a book with book id MCG6231
Apr 12, 2019 9:45:32 AM serverInterfaceImplementation.McgillLibraryImplementation listItemAvailability
INFO: Received request from MCGM1111 to list item
Apr 12, 2019 9:45:32 AM serverInterfaceImplementation.McgillLibraryImplementation removeItem
INFO: Received request from MCGM1111 to remove an item with book id MCG6231 & quantity 1
Apr 12, 2019 11:36:54 AM serverInterfaceImplementation.McgillLibraryImplementation addItem
INFO: Received request from MCGM1111 to add an item with book id MCG6231 ,book name Distributed & quantity 1
Apr 12, 2019 11:36:54 AM serverInterfaceImplementation.McgillLibraryImplementation addItem
INFO: Received request from MCGM1111 to add an item with book id MCG6231 ,book name Distributed & quantity 5
Apr 12, 2019 11:36:54 AM serverInterfaceImplementation.McgillLibraryImplementation addItem
INFO: Received request from MCGM1111 to add an item with book id MCG6441 ,book name APP & quantity 1
Apr 12, 2019 11:36:54 AM serverInterfaceImplementation.McgillLibraryImplementation addItem
INFO: Received request from MCGM1111 to add an item with book id MCG6231 ,book name Distributed & quantity 1
Apr 12, 2019 11:36:54 AM serverInterfaceImplementation.McgillLibraryImplementation addItem
INFO: Received request from MCGM1111 to add an item with book id MCG6441 ,book name APP & quantity 1
Apr 12, 2019 11:36:54 AM serverInterfaceImplementation.McgillLibraryImplementation addItem
INFO: Received request from MCGM1111 to add an item with book id MCG6231 ,book name Distributed & quantity 5
Apr 12, 2019 11:36:54 AM serverInterfaceImplementation.McgillLibraryImplementation addItem
INFO: Received request from MCGM1111 to add an item with book id MCG6231 ,book name Distributed & quantity 1
Apr 12, 2019 11:36:54 AM serverInterfaceImplementation.McgillLibraryImplementation addItem
INFO: Received request from MCGM1111 to add an item with book id MCG6231 ,book name Distributed & quantity 5
Apr 12, 2019 11:36:54 AM serverInterfaceImplementation.McgillLibraryImplementation addItem
INFO: Received request from MCGM1111 to add an item with book id MCG6441 ,book name APP & quantity 1
Apr 12, 2019 11:36:54 AM serverInterfaceImplementation.McgillLibraryImplementation listItemAvailability
INFO: Received request from MCGM1111 to list item
Apr 12, 2019 11:36:54 AM serverInterfaceImplementation.McgillLibraryImplementation listItemAvailability
INFO: Received request from MCGM1111 to list item
Apr 12, 2019 11:36:54 AM serverInterfaceImplementation.McgillLibraryImplementation listItemAvailability
INFO: Received request from MCGM1111 to list item
Apr 12, 2019 11:36:54 AM serverInterfaceImplementation.McgillLibraryImplementation addItem
INFO: Received request from MCGM1111 to add an item with book id MCG6231 ,book name Distributed & quantity 1
Apr 12, 2019 11:36:54 AM serverInterfaceImplementation.McgillLibraryImplementation addItem
INFO: Received request from MCGM1111 to add an item with book id MCG6231 ,book name Distributed & quantity 5
Apr 12, 2019 11:36:54 AM serverInterfaceImplementation.McgillLibraryImplementation addItem
INFO: Received request from MCGM1111 to add an item with book id MCG6441 ,book name APP & quantity 1
Apr 12, 2019 11:36:54 AM serverInterfaceImplementation.McgillLibraryImplementation returnItem
INFO: Received request from MCGM1111 for returning a book with book id MCG6231
Apr 12, 2019 11:36:54 AM serverInterfaceImplementation.McgillLibraryImplementation returnItem
INFO: Received request from MCGM1111 for returning a book with book id MCG6231
Apr 12, 2019 11:36:54 AM serverInterfaceImplementation.McgillLibraryImplementation returnItem
INFO: Received request from MCGM1111 for returning a book with book id MCG6231
Apr 12, 2019 11:36:54 AM serverInterfaceImplementation.McgillLibraryImplementation addItem
INFO: Received request from MCGM1111 to add an item with book id MCG6231 ,book name Distributed & quantity 1
Apr 12, 2019 11:36:54 AM serverInterfaceImplementation.McgillLibraryImplementation addItem
INFO: Received request from MCGM1111 to add an item with book id MCG6231 ,book name Distributed & quantity 5
Apr 12, 2019 11:36:54 AM serverInterfaceImplementation.McgillLibraryImplementation addItem
INFO: Received request from MCGM1111 to add an item with book id MCG6441 ,book name APP & quantity 1
Apr 12, 2019 11:36:55 AM serverInterfaceImplementation.McgillLibraryImplementation removeItem
INFO: Received request from MCGM1111 to remove an item with book id MCG6231 & quantity 1
Apr 12, 2019 11:36:55 AM serverInterfaceImplementation.McgillLibraryImplementation removeItem
INFO: Received request from MCGM1111 to remove an item with book id MCG6231 & quantity 1
Apr 12, 2019 11:36:55 AM serverInterfaceImplementation.McgillLibraryImplementation removeItem
INFO: Received request from MCGM1111 to remove an item with book id MCG6231 & quantity 1
Apr 12, 2019 11:36:55 AM serverInterfaceImplementation.McgillLibraryImplementation findItem
INFO: Received request from MCGU1111 for finding a book with book name DISTRIBUTED
Apr 12, 2019 11:36:55 AM serverInterfaceImplementation.McgillLibraryImplementation exchangeItem
INFO: Received request from MCGU1111 for exchanging MCG6231 with MCG6440
Apr 12, 2019 11:36:55 AM serverInterfaceImplementation.McgillLibraryImplementation borrowItem
INFO: Received request from MCGU1111 for borrowing a book with book id MCG6231
Apr 12, 2019 11:36:55 AM serverInterfaceImplementation.McgillLibraryImplementation addItem
INFO: Received request from MCGM1111 to add an item with book id MCG6231 ,book name Distributed & quantity 1
Apr 12, 2019 11:36:55 AM serverInterfaceImplementation.McgillLibraryImplementation listItemAvailability
INFO: Received request from MCGM1111 to list item
Apr 12, 2019 11:36:55 AM serverInterfaceImplementation.McgillLibraryImplementation removeItem
INFO: Received request from MCGM1111 to remove an item with book id MCG6231 & quantity 1
Apr 12, 2019 12:43:32 PM serverInterfaceImplementation.McgillLibraryImplementation addItem
INFO: Received request from MCGM1111 to add an item with book id MCG6231 ,book name Distributed & quantity 1
Apr 12, 2019 12:43:32 PM serverInterfaceImplementation.McgillLibraryImplementation addItem
INFO: Received request from MCGM1111 to add an item with book id MCG6231 ,book name Distributed & quantity 5
Apr 12, 2019 12:43:32 PM serverInterfaceImplementation.McgillLibraryImplementation addItem
INFO: Received request from MCGM1111 to add an item with book id MCG6441 ,book name APP & quantity 1
Apr 12, 2019 12:43:32 PM serverInterfaceImplementation.McgillLibraryImplementation listItemAvailability
INFO: Received request from MCGM1111 to list item
Apr 12, 2019 12:43:32 PM serverInterfaceImplementation.McgillLibraryImplementation listItemAvailability
INFO: Received request from MCGM1111 to list item
Apr 12, 2019 12:43:32 PM serverInterfaceImplementation.McgillLibraryImplementation listItemAvailability
INFO: Received request from MCGM1111 to list item
Apr 12, 2019 12:43:32 PM serverInterfaceImplementation.McgillLibraryImplementation addItem
INFO: Received request from MCGM1111 to add an item with book id MCG6231 ,book name Distributed & quantity 1
Apr 12, 2019 12:43:32 PM serverInterfaceImplementation.McgillLibraryImplementation addItem
INFO: Received request from MCGM1111 to add an item with book id MCG6231 ,book name Distributed & quantity 5
Apr 12, 2019 12:43:32 PM serverInterfaceImplementation.McgillLibraryImplementation addItem
INFO: Received request from MCGM1111 to add an item with book id MCG6441 ,book name APP & quantity 1
Apr 12, 2019 12:43:32 PM serverInterfaceImplementation.McgillLibraryImplementation returnItem
INFO: Received request from MCGM1111 for returning a book with book id MCG6231
Apr 12, 2019 12:43:32 PM serverInterfaceImplementation.McgillLibraryImplementation returnItem
INFO: Received request from MCGM1111 for returning a book with book id MCG6231
Apr 12, 2019 12:43:32 PM serverInterfaceImplementation.McgillLibraryImplementation returnItem
INFO: Received request from MCGM1111 for returning a book with book id MCG6231
Apr 12, 2019 12:43:32 PM serverInterfaceImplementation.McgillLibraryImplementation addItem
INFO: Received request from MCGM1111 to add an item with book id MCG6231 ,book name Distributed & quantity 1
Apr 12, 2019 12:43:32 PM serverInterfaceImplementation.McgillLibraryImplementation addItem
INFO: Received request from MCGM1111 to add an item with book id MCG6231 ,book name Distributed & quantity 5
Apr 12, 2019 12:43:32 PM serverInterfaceImplementation.McgillLibraryImplementation addItem
INFO: Received request from MCGM1111 to add an item with book id MCG6441 ,book name APP & quantity 1
Apr 12, 2019 12:43:32 PM serverInterfaceImplementation.McgillLibraryImplementation removeItem
INFO: Received request from MCGM1111 to remove an item with book id MCG6231 & quantity 1
Apr 12, 2019 12:43:32 PM serverInterfaceImplementation.McgillLibraryImplementation removeItem
INFO: Received request from MCGM1111 to remove an item with book id MCG6231 & quantity 1
Apr 12, 2019 12:43:32 PM serverInterfaceImplementation.McgillLibraryImplementation removeItem
INFO: Received request from MCGM1111 to remove an item with book id MCG6231 & quantity 1
Apr 12, 2019 12:43:32 PM serverInterfaceImplementation.McgillLibraryImplementation findItem
INFO: Received request from MCGU1111 for finding a book with book name DISTRIBUTED
Apr 12, 2019 12:43:32 PM serverInterfaceImplementation.McgillLibraryImplementation exchangeItem
INFO: Received request from MCGU1111 for exchanging MCG6231 with MCG6440
Apr 12, 2019 12:43:32 PM serverInterfaceImplementation.McgillLibraryImplementation borrowItem
INFO: Received request from MCGU1111 for borrowing a book with book id MCG6231
Apr 12, 2019 12:43:32 PM serverInterfaceImplementation.McgillLibraryImplementation addItem
INFO: Received request from MCGM1111 to add an item with book id MCG6231 ,book name Distributed & quantity 1
Apr 12, 2019 12:43:32 PM serverInterfaceImplementation.McgillLibraryImplementation listItemAvailability
INFO: Received request from MCGM1111 to list item
Apr 12, 2019 12:43:32 PM serverInterfaceImplementation.McgillLibraryImplementation removeItem
INFO: Received request from MCGM1111 to remove an item with book id MCG6231 & quantity 1
Apr 13, 2019 10:18:10 PM serverInterfaceImplementation.McgillLibraryImplementation addItem
INFO: Received request from MCGM1111 to add an item with book id MCG6231 ,book name Distributed & quantity 1
Apr 13, 2019 10:18:10 PM serverInterfaceImplementation.McgillLibraryImplementation addItem
INFO: Received request from MCGM1111 to add an item with book id MCG6231 ,book name Distributed & quantity 5
Apr 13, 2019 10:18:10 PM serverInterfaceImplementation.McgillLibraryImplementation addItem
INFO: Received request from MCGM1111 to add an item with book id MCG6441 ,book name APP & quantity 1
Apr 13, 2019 10:18:10 PM serverInterfaceImplementation.McgillLibraryImplementation addItem
INFO: Received request from MCGM1111 to add an item with book id MCG6231 ,book name Distributed & quantity 1
Apr 13, 2019 10:18:10 PM serverInterfaceImplementation.McgillLibraryImplementation addItem
INFO: Received request from MCGM1111 to add an item with book id MCG6441 ,book name APP & quantity 1
Apr 13, 2019 10:18:10 PM serverInterfaceImplementation.McgillLibraryImplementation addItem
INFO: Received request from MCGM1111 to add an item with book id MCG6231 ,book name Distributed & quantity 5
Apr 13, 2019 10:18:10 PM serverInterfaceImplementation.McgillLibraryImplementation addItem
INFO: Received request from MCGM1111 to add an item with book id MCG6231 ,book name Distributed & quantity 1
Apr 13, 2019 10:18:10 PM serverInterfaceImplementation.McgillLibraryImplementation addItem
INFO: Received request from MCGM1111 to add an item with book id MCG6231 ,book name Distributed & quantity 5
Apr 13, 2019 10:18:10 PM serverInterfaceImplementation.McgillLibraryImplementation addItem
INFO: Received request from MCGM1111 to add an item with book id MCG6441 ,book name APP & quantity 1
Apr 13, 2019 10:18:10 PM serverInterfaceImplementation.McgillLibraryImplementation listItemAvailability
INFO: Received request from MCGM1111 to list item
Apr 13, 2019 10:18:10 PM serverInterfaceImplementation.McgillLibraryImplementation listItemAvailability
INFO: Received request from MCGM1111 to list item
Apr 13, 2019 10:18:10 PM serverInterfaceImplementation.McgillLibraryImplementation listItemAvailability
INFO: Received request from MCGM1111 to list item
Apr 13, 2019 10:18:10 PM serverInterfaceImplementation.McgillLibraryImplementation addItem
INFO: Received request from MCGM1111 to add an item with book id MCG6231 ,book name Distributed & quantity 1
Apr 13, 2019 10:18:10 PM serverInterfaceImplementation.McgillLibraryImplementation addItem
INFO: Received request from MCGM1111 to add an item with book id MCG6231 ,book name Distributed & quantity 5
Apr 13, 2019 10:18:10 PM serverInterfaceImplementation.McgillLibraryImplementation addItem
INFO: Received request from MCGM1111 to add an item with book id MCG6441 ,book name APP & quantity 1
Apr 13, 2019 10:18:10 PM serverInterfaceImplementation.McgillLibraryImplementation returnItem
INFO: Received request from MCGM1111 for returning a book with book id MCG6231
Apr 13, 2019 10:18:10 PM serverInterfaceImplementation.McgillLibraryImplementation returnItem
INFO: Received request from MCGM1111 for returning a book with book id MCG6231
Apr 13, 2019 10:18:10 PM serverInterfaceImplementation.McgillLibraryImplementation returnItem
INFO: Received request from MCGM1111 for returning a book with book id MCG6231
Apr 13, 2019 10:18:10 PM serverInterfaceImplementation.McgillLibraryImplementation addItem
INFO: Received request from MCGM1111 to add an item with book id MCG6231 ,book name Distributed & quantity 1
Apr 13, 2019 10:18:10 PM serverInterfaceImplementation.McgillLibraryImplementation addItem
INFO: Received request from MCGM1111 to add an item with book id MCG6231 ,book name Distributed & quantity 5
Apr 13, 2019 10:18:10 PM serverInterfaceImplementation.McgillLibraryImplementation addItem
INFO: Received request from MCGM1111 to add an item with book id MCG6441 ,book name APP & quantity 1
Apr 13, 2019 10:18:10 PM serverInterfaceImplementation.McgillLibraryImplementation removeItem
INFO: Received request from MCGM1111 to remove an item with book id MCG6231 & quantity 1
Apr 13, 2019 10:18:10 PM serverInterfaceImplementation.McgillLibraryImplementation removeItem
INFO: Received request from MCGM1111 to remove an item with book id MCG6231 & quantity 1
Apr 13, 2019 10:18:10 PM serverInterfaceImplementation.McgillLibraryImplementation removeItem
INFO: Received request from MCGM1111 to remove an item with book id MCG6231 & quantity 1
Apr 13, 2019 10:18:10 PM serverInterfaceImplementation.McgillLibraryImplementation findItem
INFO: Received request from MCGU1111 for finding a book with book name DISTRIBUTED
Apr 13, 2019 10:18:10 PM serverInterfaceImplementation.McgillLibraryImplementation exchangeItem
INFO: Received request from MCGU1111 for exchanging MCG6231 with MCG6440
Apr 13, 2019 10:18:10 PM serverInterfaceImplementation.McgillLibraryImplementation borrowItem
INFO: Received request from MCGU1111 for borrowing a book with book id MCG6231
Apr 13, 2019 10:18:10 PM serverInterfaceImplementation.McgillLibraryImplementation addItem
INFO: Received request from MCGM1111 to add an item with book id MCG6231 ,book name Distributed & quantity 1
Apr 13, 2019 10:18:10 PM serverInterfaceImplementation.McgillLibraryImplementation listItemAvailability
INFO: Received request from MCGM1111 to list item
Apr 13, 2019 10:18:10 PM serverInterfaceImplementation.McgillLibraryImplementation removeItem
INFO: Received request from MCGM1111 to remove an item with book id MCG6231 & quantity 1
Apr 14, 2019 10:38:32 AM serverInterfaceImplementation.McgillLibraryImplementation findItem
INFO: Received request from MCGU1111 for finding a book with book name DISTRIBUTED
Apr 14, 2019 10:38:32 AM serverInterfaceImplementation.McgillLibraryImplementation removeItem
INFO: Received request from MCGM1111 to remove an item with book id MCG6231 & quantity 1
Apr 14, 2019 10:38:32 AM serverInterfaceImplementation.McgillLibraryImplementation listItemAvailability
INFO: Received request from MCGM1111 to list item
Apr 14, 2019 10:40:30 AM serverInterfaceImplementation.McgillLibraryImplementation addItem
INFO: Received request from MCGM1111 to add an item with book id MCG6231 ,book name Distributed & quantity 1
Apr 14, 2019 10:41:37 AM serverInterfaceImplementation.McgillLibraryImplementation addItem
INFO: Received request from MCGM1111 to add an item with book id MCG6231 ,book name Distributed & quantity 1
Apr 14, 2019 10:42:44 AM serverInterfaceImplementation.McgillLibraryImplementation addItem
INFO: Received request from MCGM1111 to add an item with book id MCG6231 ,book name Distributed & quantity 1
Apr 14, 2019 10:43:11 AM serverInterfaceImplementation.McgillLibraryImplementation addItem
INFO: Received request from MCGM1111 to add an item with book id MCG6231 ,book name Distributed & quantity 1
Apr 14, 2019 10:43:43 AM serverInterfaceImplementation.McgillLibraryImplementation addItem
INFO: Received request from MCGM1111 to add an item with book id MCG6231 ,book name Distributed & quantity 1
Apr 14, 2019 10:44:14 AM serverInterfaceImplementation.McgillLibraryImplementation addItem
INFO: Received request from MCGM1111 to add an item with book id MCG6231 ,book name Distributed & quantity 1
Apr 14, 2019 10:45:51 AM serverInterfaceImplementation.McgillLibraryImplementation addItem
INFO: Received request from MCGM1111 to add an item with book id MCG6231 ,book name Distributed & quantity 1
Apr 14, 2019 10:46:34 AM serverInterfaceImplementation.McgillLibraryImplementation addItem
INFO: Received request from MCGM1111 to add an item with book id MCG6231 ,book name Distributed & quantity 1
Apr 14, 2019 10:47:17 AM serverInterfaceImplementation.McgillLibraryImplementation addItem
INFO: Received request from MCGM1111 to add an item with book id MCG6231 ,book name Distributed & quantity 1
Apr 14, 2019 10:48:33 AM serverInterfaceImplementation.McgillLibraryImplementation addItem
INFO: Received request from MCGM1111 to add an item with book id MCG6231 ,book name Distributed & quantity 1
Apr 14, 2019 10:49:08 AM serverInterfaceImplementation.McgillLibraryImplementation addItem
INFO: Received request from MCGM1111 to add an item with book id MCG6231 ,book name Distributed & quantity 1
Apr 14, 2019 10:51:03 AM serverInterfaceImplementation.McgillLibraryImplementation addItem
INFO: Received request from MCGM1111 to add an item with book id MCG6231 ,book name Distributed & quantity 1
Apr 14, 2019 10:52:15 AM serverInterfaceImplementation.McgillLibraryImplementation addItem
INFO: Received request from MCGM1111 to add an item with book id MCG6231 ,book name Distributed & quantity 1
Apr 14, 2019 10:53:27 AM serverInterfaceImplementation.McgillLibraryImplementation addItem
INFO: Received request from MCGM1111 to add an item with book id MCG6231 ,book name Distributed & quantity 1
Apr 14, 2019 10:53:45 AM serverInterfaceImplementation.McgillLibraryImplementation addItem
INFO: Received request from MCGM1111 to add an item with book id MCG6231 ,book name Distributed & quantity 1
Apr 14, 2019 10:54:10 AM serverInterfaceImplementation.McgillLibraryImplementation addItem
INFO: Received request from MCGM1111 to add an item with book id MCG6231 ,book name Distributed & quantity 1
