Apr 11, 2019 7:34:56 PM serverInterfaceImplementation.MontrealLibraryImplementation addItem
INFO: Received request from MONM1111 to add an item with book id MON6231 ,book name Distributed & quantity 1
Apr 11, 2019 7:34:56 PM serverInterfaceImplementation.MontrealLibraryImplementation addItem
INFO: Received request from MONM1111 to add an item with book id MON6231 ,book name Distributed & quantity 5
Apr 11, 2019 7:34:56 PM serverInterfaceImplementation.MontrealLibraryImplementation addItem
INFO: Received request from MONM1111 to add an item with book id MON6441 ,book name APP & quantity 1
Apr 11, 2019 7:34:56 PM serverInterfaceImplementation.MontrealLibraryImplementation listItemAvailability
INFO: Received request from MONM1111 to list item
Apr 11, 2019 7:34:56 PM serverInterfaceImplementation.MontrealLibraryImplementation listItemAvailability
INFO: Received request from MONM1111 to list item
Apr 11, 2019 7:34:56 PM serverInterfaceImplementation.MontrealLibraryImplementation listItemAvailability
INFO: Received request from MONM1111 to list item
Apr 11, 2019 7:34:56 PM serverInterfaceImplementation.MontrealLibraryImplementation addItem
INFO: Received request from MONM1111 to add an item with book id MON6231 ,book name Distributed & quantity 1
Apr 11, 2019 7:34:56 PM serverInterfaceImplementation.MontrealLibraryImplementation addItem
INFO: Received request from MONM1111 to add an item with book id MON6231 ,book name Distributed & quantity 5
Apr 11, 2019 7:34:56 PM serverInterfaceImplementation.MontrealLibraryImplementation addItem
INFO: Received request from MONM1111 to add an item with book id MON6441 ,book name APP & quantity 1
Apr 11, 2019 7:34:56 PM serverInterfaceImplementation.MontrealLibraryImplementation returnItem
INFO: Received request from MONM1111 for returning a book with book id MON6231
Apr 11, 2019 7:34:56 PM serverInterfaceImplementation.MontrealLibraryImplementation returnItem
INFO: Received request from MONM1111 for returning a book with book id MON6231
Apr 11, 2019 7:34:56 PM serverInterfaceImplementation.MontrealLibraryImplementation returnItem
INFO: Received request from MONM1111 for returning a book with book id MON6231
Apr 11, 2019 7:34:56 PM serverInterfaceImplementation.MontrealLibraryImplementation addItem
INFO: Received request from MONM1111 to add an item with book id MON6231 ,book name Distributed & quantity 1
Apr 11, 2019 7:34:56 PM serverInterfaceImplementation.MontrealLibraryImplementation addItem
INFO: Received request from MONM1111 to add an item with book id MON6231 ,book name Distributed & quantity 5
Apr 11, 2019 7:34:56 PM serverInterfaceImplementation.MontrealLibraryImplementation addItem
INFO: Received request from MONM1111 to add an item with book id MON6441 ,book name APP & quantity 1
Apr 11, 2019 7:34:56 PM serverInterfaceImplementation.MontrealLibraryImplementation removeItem
INFO: Received request from MONM1111 to remove an item with book id MON6231 & quantity 1
Apr 11, 2019 7:34:56 PM serverInterfaceImplementation.MontrealLibraryImplementation removeItem
INFO: Received request from MONM1111 to remove an item with book id MON6231 & quantity 1
Apr 11, 2019 7:34:56 PM serverInterfaceImplementation.MontrealLibraryImplementation removeItem
INFO: Received request from MONM1111 to remove an item with book id MON6231 & quantity 1
Apr 11, 2019 7:34:57 PM serverInterfaceImplementation.MontrealLibraryImplementation findItem
INFO: Received request from MONU1111 for finding a book with book name DISTRIBUTED
Apr 11, 2019 7:34:57 PM serverInterfaceImplementation.MontrealLibraryImplementation exchangeItem
INFO: Received request from MONU1111 for exchanging MON6231 with MON6441
Apr 11, 2019 7:34:57 PM serverInterfaceImplementation.MontrealLibraryImplementation borrowItem
INFO: Received request from MONU1111 for borrowing a book with book id MON6231
Apr 11, 2019 7:34:57 PM serverInterfaceImplementation.MontrealLibraryImplementation returnItem
INFO: Received request from MONU1111 for returning a book with book id MON6231
Apr 11, 2019 7:34:57 PM serverInterfaceImplementation.MontrealLibraryImplementation addItem
INFO: Received request from MONM1111 to add an item with book id MON6231 ,book name Distributed & quantity 5
Apr 11, 2019 7:34:57 PM serverInterfaceImplementation.MontrealLibraryImplementation listItemAvailability
INFO: Received request from MONM1111 to list item
Apr 11, 2019 7:34:57 PM serverInterfaceImplementation.MontrealLibraryImplementation returnItem
INFO: Received request from MONU1111 for returning a book with book id MON6231
Apr 11, 2019 7:34:57 PM serverInterfaceImplementation.MontrealLibraryImplementation removeItem
INFO: Received request from MONM1111 to remove an item with book id MON6231 & quantity 1
Apr 11, 2019 7:35:10 PM serverInterfaceImplementation.MontrealLibraryImplementation addItem
INFO: Received request from MONM1111 to add an item with book id MON6231 ,book name Distributed & quantity 1
Apr 11, 2019 7:35:10 PM serverInterfaceImplementation.MontrealLibraryImplementation addItem
INFO: Received request from MONM1111 to add an item with book id MON6231 ,book name Distributed & quantity 5
Apr 11, 2019 7:35:10 PM serverInterfaceImplementation.MontrealLibraryImplementation addItem
INFO: Received request from MONM1111 to add an item with book id MON6441 ,book name APP & quantity 1
Apr 11, 2019 7:35:10 PM serverInterfaceImplementation.MontrealLibraryImplementation listItemAvailability
INFO: Received request from MONM1111 to list item
Apr 11, 2019 7:35:10 PM serverInterfaceImplementation.MontrealLibraryImplementation listItemAvailability
INFO: Received request from MONM1111 to list item
Apr 11, 2019 7:35:10 PM serverInterfaceImplementation.MontrealLibraryImplementation listItemAvailability
INFO: Received request from MONM1111 to list item
Apr 11, 2019 7:35:10 PM serverInterfaceImplementation.MontrealLibraryImplementation addItem
INFO: Received request from MONM1111 to add an item with book id MON6231 ,book name Distributed & quantity 1
Apr 11, 2019 7:35:10 PM serverInterfaceImplementation.MontrealLibraryImplementation addItem
INFO: Received request from MONM1111 to add an item with book id MON6231 ,book name Distributed & quantity 5
Apr 11, 2019 7:35:10 PM serverInterfaceImplementation.MontrealLibraryImplementation addItem
INFO: Received request from MONM1111 to add an item with book id MON6441 ,book name APP & quantity 1
Apr 11, 2019 7:35:10 PM serverInterfaceImplementation.MontrealLibraryImplementation returnItem
INFO: Received request from MONM1111 for returning a book with book id MON6231
Apr 11, 2019 7:35:10 PM serverInterfaceImplementation.MontrealLibraryImplementation returnItem
INFO: Received request from MONM1111 for returning a book with book id MON6231
Apr 11, 2019 7:35:10 PM serverInterfaceImplementation.MontrealLibraryImplementation returnItem
INFO: Received request from MONM1111 for returning a book with book id MON6231
Apr 11, 2019 7:35:10 PM serverInterfaceImplementation.MontrealLibraryImplementation addItem
INFO: Received request from MONM1111 to add an item with book id MON6231 ,book name Distributed & quantity 1
Apr 11, 2019 7:35:10 PM serverInterfaceImplementation.MontrealLibraryImplementation addItem
INFO: Received request from MONM1111 to add an item with book id MON6231 ,book name Distributed & quantity 5
Apr 11, 2019 7:35:10 PM serverInterfaceImplementation.MontrealLibraryImplementation addItem
INFO: Received request from MONM1111 to add an item with book id MON6441 ,book name APP & quantity 1
Apr 11, 2019 7:35:10 PM serverInterfaceImplementation.MontrealLibraryImplementation removeItem
INFO: Received request from MONM1111 to remove an item with book id MON6231 & quantity 1
Apr 11, 2019 7:35:10 PM serverInterfaceImplementation.MontrealLibraryImplementation removeItem
INFO: Received request from MONM1111 to remove an item with book id MON6231 & quantity 1
Apr 11, 2019 7:35:10 PM serverInterfaceImplementation.MontrealLibraryImplementation removeItem
INFO: Received request from MONM1111 to remove an item with book id MON6231 & quantity 1
Apr 11, 2019 7:35:10 PM serverInterfaceImplementation.MontrealLibraryImplementation findItem
INFO: Received request from MONU1111 for finding a book with book name DISTRIBUTED
Apr 11, 2019 7:35:10 PM serverInterfaceImplementation.MontrealLibraryImplementation exchangeItem
INFO: Received request from MONU1111 for exchanging MON6231 with MON6441
Apr 11, 2019 7:35:10 PM serverInterfaceImplementation.MontrealLibraryImplementation borrowItem
INFO: Received request from MONU1111 for borrowing a book with book id MON6231
Apr 11, 2019 7:35:10 PM serverInterfaceImplementation.MontrealLibraryImplementation addItem
INFO: Received request from MONM1111 to add an item with book id MON6231 ,book name Distributed & quantity 5
Apr 11, 2019 7:35:10 PM serverInterfaceImplementation.MontrealLibraryImplementation listItemAvailability
INFO: Received request from MONM1111 to list item
Apr 11, 2019 7:35:10 PM serverInterfaceImplementation.MontrealLibraryImplementation removeItem
INFO: Received request from MONM1111 to remove an item with book id MON6231 & quantity 1
Apr 11, 2019 7:35:10 PM serverInterfaceImplementation.MontrealLibraryImplementation returnItem
INFO: Received request from MONU1111 for returning a book with book id MON6231
Apr 11, 2019 7:35:21 PM serverInterfaceImplementation.MontrealLibraryImplementation addItem
INFO: Received request from MONM1111 to add an item with book id MON6231 ,book name Distributed & quantity 1
Apr 11, 2019 7:35:21 PM serverInterfaceImplementation.MontrealLibraryImplementation addItem
INFO: Received request from MONM1111 to add an item with book id MON6231 ,book name Distributed & quantity 5
Apr 11, 2019 7:35:21 PM serverInterfaceImplementation.MontrealLibraryImplementation addItem
INFO: Received request from MONM1111 to add an item with book id MON6441 ,book name APP & quantity 1
Apr 11, 2019 7:35:21 PM serverInterfaceImplementation.MontrealLibraryImplementation listItemAvailability
INFO: Received request from MONM1111 to list item
Apr 11, 2019 7:35:21 PM serverInterfaceImplementation.MontrealLibraryImplementation listItemAvailability
INFO: Received request from MONM1111 to list item
Apr 11, 2019 7:35:21 PM serverInterfaceImplementation.MontrealLibraryImplementation listItemAvailability
INFO: Received request from MONM1111 to list item
Apr 11, 2019 7:35:21 PM serverInterfaceImplementation.MontrealLibraryImplementation addItem
INFO: Received request from MONM1111 to add an item with book id MON6231 ,book name Distributed & quantity 1
Apr 11, 2019 7:35:21 PM serverInterfaceImplementation.MontrealLibraryImplementation addItem
INFO: Received request from MONM1111 to add an item with book id MON6231 ,book name Distributed & quantity 5
Apr 11, 2019 7:35:21 PM serverInterfaceImplementation.MontrealLibraryImplementation addItem
INFO: Received request from MONM1111 to add an item with book id MON6441 ,book name APP & quantity 1
Apr 11, 2019 7:35:21 PM serverInterfaceImplementation.MontrealLibraryImplementation returnItem
INFO: Received request from MONM1111 for returning a book with book id MON6231
Apr 11, 2019 7:35:21 PM serverInterfaceImplementation.MontrealLibraryImplementation returnItem
INFO: Received request from MONM1111 for returning a book with book id MON6231
Apr 11, 2019 7:35:21 PM serverInterfaceImplementation.MontrealLibraryImplementation returnItem
INFO: Received request from MONM1111 for returning a book with book id MON6231
Apr 11, 2019 7:35:21 PM serverInterfaceImplementation.MontrealLibraryImplementation addItem
INFO: Received request from MONM1111 to add an item with book id MON6231 ,book name Distributed & quantity 1
Apr 11, 2019 7:35:21 PM serverInterfaceImplementation.MontrealLibraryImplementation addItem
INFO: Received request from MONM1111 to add an item with book id MON6231 ,book name Distributed & quantity 5
Apr 11, 2019 7:35:21 PM serverInterfaceImplementation.MontrealLibraryImplementation addItem
INFO: Received request from MONM1111 to add an item with book id MON6441 ,book name APP & quantity 1
Apr 11, 2019 7:35:21 PM serverInterfaceImplementation.MontrealLibraryImplementation removeItem
INFO: Received request from MONM1111 to remove an item with book id MON6231 & quantity 1
Apr 11, 2019 7:35:21 PM serverInterfaceImplementation.MontrealLibraryImplementation removeItem
INFO: Received request from MONM1111 to remove an item with book id MON6231 & quantity 1
Apr 11, 2019 7:35:21 PM serverInterfaceImplementation.MontrealLibraryImplementation removeItem
INFO: Received request from MONM1111 to remove an item with book id MON6231 & quantity 1
Apr 11, 2019 7:35:22 PM serverInterfaceImplementation.MontrealLibraryImplementation findItem
INFO: Received request from MONU1111 for finding a book with book name DISTRIBUTED
Apr 11, 2019 7:35:22 PM serverInterfaceImplementation.MontrealLibraryImplementation exchangeItem
INFO: Received request from MONU1111 for exchanging MON6231 with MON6441
Apr 11, 2019 7:35:22 PM serverInterfaceImplementation.MontrealLibraryImplementation addItem
INFO: Received request from MONM1111 to add an item with book id MON6231 ,book name Distributed & quantity 5
Apr 11, 2019 7:35:22 PM serverInterfaceImplementation.MontrealLibraryImplementation borrowItem
INFO: Received request from MONU1111 for borrowing a book with book id MON6231
Apr 11, 2019 7:35:22 PM serverInterfaceImplementation.MontrealLibraryImplementation removeItem
INFO: Received request from MONM1111 to remove an item with book id MON6231 & quantity 1
Apr 11, 2019 7:35:22 PM serverInterfaceImplementation.MontrealLibraryImplementation listItemAvailability
INFO: Received request from MONM1111 to list item
Apr 11, 2019 7:35:22 PM serverInterfaceImplementation.MontrealLibraryImplementation returnItem
INFO: Received request from MONU1111 for returning a book with book id MON6231
Apr 11, 2019 7:35:35 PM serverInterfaceImplementation.MontrealLibraryImplementation addItem
INFO: Received request from MONM1111 to add an item with book id MON6231 ,book name Distributed & quantity 1
Apr 11, 2019 7:35:35 PM serverInterfaceImplementation.MontrealLibraryImplementation addItem
INFO: Received request from MONM1111 to add an item with book id MON6231 ,book name Distributed & quantity 5
Apr 11, 2019 7:35:35 PM serverInterfaceImplementation.MontrealLibraryImplementation addItem
INFO: Received request from MONM1111 to add an item with book id MON6441 ,book name APP & quantity 1
Apr 11, 2019 7:35:35 PM serverInterfaceImplementation.MontrealLibraryImplementation listItemAvailability
INFO: Received request from MONM1111 to list item
Apr 11, 2019 7:35:35 PM serverInterfaceImplementation.MontrealLibraryImplementation listItemAvailability
INFO: Received request from MONM1111 to list item
Apr 11, 2019 7:35:35 PM serverInterfaceImplementation.MontrealLibraryImplementation listItemAvailability
INFO: Received request from MONM1111 to list item
Apr 11, 2019 7:35:35 PM serverInterfaceImplementation.MontrealLibraryImplementation addItem
INFO: Received request from MONM1111 to add an item with book id MON6231 ,book name Distributed & quantity 1
Apr 11, 2019 7:35:35 PM serverInterfaceImplementation.MontrealLibraryImplementation addItem
INFO: Received request from MONM1111 to add an item with book id MON6231 ,book name Distributed & quantity 5
Apr 11, 2019 7:35:35 PM serverInterfaceImplementation.MontrealLibraryImplementation addItem
INFO: Received request from MONM1111 to add an item with book id MON6441 ,book name APP & quantity 1
Apr 11, 2019 7:35:35 PM serverInterfaceImplementation.MontrealLibraryImplementation returnItem
INFO: Received request from MONM1111 for returning a book with book id MON6231
Apr 11, 2019 7:35:35 PM serverInterfaceImplementation.MontrealLibraryImplementation returnItem
INFO: Received request from MONM1111 for returning a book with book id MON6231
Apr 11, 2019 7:35:35 PM serverInterfaceImplementation.MontrealLibraryImplementation returnItem
INFO: Received request from MONM1111 for returning a book with book id MON6231
Apr 11, 2019 7:35:35 PM serverInterfaceImplementation.MontrealLibraryImplementation addItem
INFO: Received request from MONM1111 to add an item with book id MON6231 ,book name Distributed & quantity 1
Apr 11, 2019 7:35:35 PM serverInterfaceImplementation.MontrealLibraryImplementation addItem
INFO: Received request from MONM1111 to add an item with book id MON6231 ,book name Distributed & quantity 5
Apr 11, 2019 7:35:35 PM serverInterfaceImplementation.MontrealLibraryImplementation addItem
INFO: Received request from MONM1111 to add an item with book id MON6441 ,book name APP & quantity 1
Apr 11, 2019 7:35:35 PM serverInterfaceImplementation.MontrealLibraryImplementation removeItem
INFO: Received request from MONM1111 to remove an item with book id MON6231 & quantity 1
Apr 11, 2019 7:35:35 PM serverInterfaceImplementation.MontrealLibraryImplementation removeItem
INFO: Received request from MONM1111 to remove an item with book id MON6231 & quantity 1
Apr 11, 2019 7:35:35 PM serverInterfaceImplementation.MontrealLibraryImplementation removeItem
INFO: Received request from MONM1111 to remove an item with book id MON6231 & quantity 1
Apr 11, 2019 7:35:36 PM serverInterfaceImplementation.MontrealLibraryImplementation findItem
INFO: Received request from MONU1111 for finding a book with book name DISTRIBUTED
Apr 11, 2019 7:35:36 PM serverInterfaceImplementation.MontrealLibraryImplementation exchangeItem
INFO: Received request from MONU1111 for exchanging MON6231 with MON6441
Apr 11, 2019 7:35:36 PM serverInterfaceImplementation.MontrealLibraryImplementation addItem
INFO: Received request from MONM1111 to add an item with book id MON6231 ,book name Distributed & quantity 5
Apr 11, 2019 7:35:36 PM serverInterfaceImplementation.MontrealLibraryImplementation borrowItem
INFO: Received request from MONU1111 for borrowing a book with book id MON6231
Apr 11, 2019 7:35:36 PM serverInterfaceImplementation.MontrealLibraryImplementation listItemAvailability
INFO: Received request from MONM1111 to list item
Apr 11, 2019 7:35:36 PM serverInterfaceImplementation.MontrealLibraryImplementation returnItem
INFO: Received request from MONU1111 for returning a book with book id MON6231
Apr 11, 2019 7:35:36 PM serverInterfaceImplementation.MontrealLibraryImplementation removeItem
INFO: Received request from MONM1111 to remove an item with book id MON6231 & quantity 1
Apr 11, 2019 7:35:52 PM serverInterfaceImplementation.MontrealLibraryImplementation addItem
INFO: Received request from MONM1111 to add an item with book id MON6231 ,book name Distributed & quantity 1
Apr 11, 2019 7:35:52 PM serverInterfaceImplementation.MontrealLibraryImplementation addItem
INFO: Received request from MONM1111 to add an item with book id MON6231 ,book name Distributed & quantity 5
Apr 11, 2019 7:35:52 PM serverInterfaceImplementation.MontrealLibraryImplementation addItem
INFO: Received request from MONM1111 to add an item with book id MON6441 ,book name APP & quantity 1
Apr 11, 2019 7:35:52 PM serverInterfaceImplementation.MontrealLibraryImplementation listItemAvailability
INFO: Received request from MONM1111 to list item
Apr 11, 2019 7:35:52 PM serverInterfaceImplementation.MontrealLibraryImplementation listItemAvailability
INFO: Received request from MONM1111 to list item
Apr 11, 2019 7:35:52 PM serverInterfaceImplementation.MontrealLibraryImplementation listItemAvailability
INFO: Received request from MONM1111 to list item
Apr 11, 2019 7:35:52 PM serverInterfaceImplementation.MontrealLibraryImplementation addItem
INFO: Received request from MONM1111 to add an item with book id MON6231 ,book name Distributed & quantity 1
Apr 11, 2019 7:35:52 PM serverInterfaceImplementation.MontrealLibraryImplementation addItem
INFO: Received request from MONM1111 to add an item with book id MON6231 ,book name Distributed & quantity 5
Apr 11, 2019 7:35:52 PM serverInterfaceImplementation.MontrealLibraryImplementation addItem
INFO: Received request from MONM1111 to add an item with book id MON6441 ,book name APP & quantity 1
Apr 11, 2019 7:35:52 PM serverInterfaceImplementation.MontrealLibraryImplementation returnItem
INFO: Received request from MONM1111 for returning a book with book id MON6231
Apr 11, 2019 7:35:52 PM serverInterfaceImplementation.MontrealLibraryImplementation returnItem
INFO: Received request from MONM1111 for returning a book with book id MON6231
Apr 11, 2019 7:35:52 PM serverInterfaceImplementation.MontrealLibraryImplementation returnItem
INFO: Received request from MONM1111 for returning a book with book id MON6231
Apr 11, 2019 7:35:52 PM serverInterfaceImplementation.MontrealLibraryImplementation addItem
INFO: Received request from MONM1111 to add an item with book id MON6231 ,book name Distributed & quantity 1
Apr 11, 2019 7:35:52 PM serverInterfaceImplementation.MontrealLibraryImplementation addItem
INFO: Received request from MONM1111 to add an item with book id MON6231 ,book name Distributed & quantity 5
Apr 11, 2019 7:35:52 PM serverInterfaceImplementation.MontrealLibraryImplementation addItem
INFO: Received request from MONM1111 to add an item with book id MON6441 ,book name APP & quantity 1
Apr 11, 2019 7:35:52 PM serverInterfaceImplementation.MontrealLibraryImplementation removeItem
INFO: Received request from MONM1111 to remove an item with book id MON6231 & quantity 1
Apr 11, 2019 7:35:52 PM serverInterfaceImplementation.MontrealLibraryImplementation removeItem
INFO: Received request from MONM1111 to remove an item with book id MON6231 & quantity 1
Apr 11, 2019 7:35:52 PM serverInterfaceImplementation.MontrealLibraryImplementation removeItem
INFO: Received request from MONM1111 to remove an item with book id MON6231 & quantity 1
Apr 11, 2019 7:35:52 PM serverInterfaceImplementation.MontrealLibraryImplementation findItem
INFO: Received request from MONU1111 for finding a book with book name DISTRIBUTED
Apr 11, 2019 7:35:52 PM serverInterfaceImplementation.MontrealLibraryImplementation exchangeItem
INFO: Received request from MONU1111 for exchanging MON6231 with MON6441
Apr 11, 2019 7:35:52 PM serverInterfaceImplementation.MontrealLibraryImplementation borrowItem
INFO: Received request from MONU1111 for borrowing a book with book id MON6231
Apr 11, 2019 7:35:52 PM serverInterfaceImplementation.MontrealLibraryImplementation addItem
INFO: Received request from MONM1111 to add an item with book id MON6231 ,book name Distributed & quantity 5
Apr 11, 2019 7:35:52 PM serverInterfaceImplementation.MontrealLibraryImplementation listItemAvailability
INFO: Received request from MONM1111 to list item
Apr 11, 2019 7:35:52 PM serverInterfaceImplementation.MontrealLibraryImplementation returnItem
INFO: Received request from MONU1111 for returning a book with book id MON6231
Apr 11, 2019 7:35:52 PM serverInterfaceImplementation.MontrealLibraryImplementation removeItem
INFO: Received request from MONM1111 to remove an item with book id MON6231 & quantity 1
Apr 11, 2019 7:36:04 PM serverInterfaceImplementation.MontrealLibraryImplementation addItem
INFO: Received request from MONM1111 to add an item with book id MON6231 ,book name Distributed & quantity 1
Apr 11, 2019 7:36:04 PM serverInterfaceImplementation.MontrealLibraryImplementation addItem
INFO: Received request from MONM1111 to add an item with book id MON6231 ,book name Distributed & quantity 5
Apr 11, 2019 7:36:04 PM serverInterfaceImplementation.MontrealLibraryImplementation addItem
INFO: Received request from MONM1111 to add an item with book id MON6441 ,book name APP & quantity 1
Apr 11, 2019 7:36:04 PM serverInterfaceImplementation.MontrealLibraryImplementation listItemAvailability
INFO: Received request from MONM1111 to list item
Apr 11, 2019 7:36:04 PM serverInterfaceImplementation.MontrealLibraryImplementation listItemAvailability
INFO: Received request from MONM1111 to list item
Apr 11, 2019 7:36:04 PM serverInterfaceImplementation.MontrealLibraryImplementation listItemAvailability
INFO: Received request from MONM1111 to list item
Apr 11, 2019 7:36:04 PM serverInterfaceImplementation.MontrealLibraryImplementation addItem
INFO: Received request from MONM1111 to add an item with book id MON6231 ,book name Distributed & quantity 1
Apr 11, 2019 7:36:04 PM serverInterfaceImplementation.MontrealLibraryImplementation addItem
INFO: Received request from MONM1111 to add an item with book id MON6231 ,book name Distributed & quantity 5
Apr 11, 2019 7:36:04 PM serverInterfaceImplementation.MontrealLibraryImplementation addItem
INFO: Received request from MONM1111 to add an item with book id MON6441 ,book name APP & quantity 1
Apr 11, 2019 7:36:04 PM serverInterfaceImplementation.MontrealLibraryImplementation returnItem
INFO: Received request from MONM1111 for returning a book with book id MON6231
Apr 11, 2019 7:36:04 PM serverInterfaceImplementation.MontrealLibraryImplementation returnItem
INFO: Received request from MONM1111 for returning a book with book id MON6231
Apr 11, 2019 7:36:04 PM serverInterfaceImplementation.MontrealLibraryImplementation returnItem
INFO: Received request from MONM1111 for returning a book with book id MON6231
Apr 11, 2019 7:36:04 PM serverInterfaceImplementation.MontrealLibraryImplementation addItem
INFO: Received request from MONM1111 to add an item with book id MON6231 ,book name Distributed & quantity 1
Apr 11, 2019 7:36:04 PM serverInterfaceImplementation.MontrealLibraryImplementation addItem
INFO: Received request from MONM1111 to add an item with book id MON6231 ,book name Distributed & quantity 5
Apr 11, 2019 7:36:04 PM serverInterfaceImplementation.MontrealLibraryImplementation addItem
INFO: Received request from MONM1111 to add an item with book id MON6441 ,book name APP & quantity 1
Apr 11, 2019 7:36:04 PM serverInterfaceImplementation.MontrealLibraryImplementation removeItem
INFO: Received request from MONM1111 to remove an item with book id MON6231 & quantity 1
Apr 11, 2019 7:36:04 PM serverInterfaceImplementation.MontrealLibraryImplementation removeItem
INFO: Received request from MONM1111 to remove an item with book id MON6231 & quantity 1
Apr 11, 2019 7:36:04 PM serverInterfaceImplementation.MontrealLibraryImplementation removeItem
INFO: Received request from MONM1111 to remove an item with book id MON6231 & quantity 1
Apr 11, 2019 7:36:04 PM serverInterfaceImplementation.MontrealLibraryImplementation findItem
INFO: Received request from MONU1111 for finding a book with book name DISTRIBUTED
Apr 11, 2019 7:36:04 PM serverInterfaceImplementation.MontrealLibraryImplementation exchangeItem
INFO: Received request from MONU1111 for exchanging MON6231 with MON6441
Apr 11, 2019 7:36:04 PM serverInterfaceImplementation.MontrealLibraryImplementation addItem
INFO: Received request from MONM1111 to add an item with book id MON6231 ,book name Distributed & quantity 5
Apr 11, 2019 7:36:04 PM serverInterfaceImplementation.MontrealLibraryImplementation listItemAvailability
INFO: Received request from MONM1111 to list item
Apr 11, 2019 7:36:04 PM serverInterfaceImplementation.MontrealLibraryImplementation returnItem
INFO: Received request from MONU1111 for returning a book with book id MON6231
Apr 11, 2019 7:36:04 PM serverInterfaceImplementation.MontrealLibraryImplementation borrowItem
INFO: Received request from MONU1111 for borrowing a book with book id MON6231
Apr 11, 2019 7:36:04 PM serverInterfaceImplementation.MontrealLibraryImplementation removeItem
INFO: Received request from MONM1111 to remove an item with book id MON6231 & quantity 1
Apr 11, 2019 7:36:39 PM serverInterfaceImplementation.MontrealLibraryImplementation addItem
INFO: Received request from MONM1111 to add an item with book id MON6231 ,book name Distributed & quantity 1
Apr 11, 2019 7:36:39 PM serverInterfaceImplementation.MontrealLibraryImplementation addItem
INFO: Received request from MONM1111 to add an item with book id MON6231 ,book name Distributed & quantity 5
Apr 11, 2019 7:36:39 PM serverInterfaceImplementation.MontrealLibraryImplementation addItem
INFO: Received request from MONM1111 to add an item with book id MON6441 ,book name APP & quantity 1
Apr 11, 2019 7:36:39 PM serverInterfaceImplementation.MontrealLibraryImplementation listItemAvailability
INFO: Received request from MONM1111 to list item
Apr 11, 2019 7:36:39 PM serverInterfaceImplementation.MontrealLibraryImplementation listItemAvailability
INFO: Received request from MONM1111 to list item
Apr 11, 2019 7:36:39 PM serverInterfaceImplementation.MontrealLibraryImplementation listItemAvailability
INFO: Received request from MONM1111 to list item
Apr 11, 2019 7:36:39 PM serverInterfaceImplementation.MontrealLibraryImplementation addItem
INFO: Received request from MONM1111 to add an item with book id MON6231 ,book name Distributed & quantity 1
Apr 11, 2019 7:36:39 PM serverInterfaceImplementation.MontrealLibraryImplementation addItem
INFO: Received request from MONM1111 to add an item with book id MON6231 ,book name Distributed & quantity 5
Apr 11, 2019 7:36:39 PM serverInterfaceImplementation.MontrealLibraryImplementation addItem
INFO: Received request from MONM1111 to add an item with book id MON6441 ,book name APP & quantity 1
Apr 11, 2019 7:36:39 PM serverInterfaceImplementation.MontrealLibraryImplementation returnItem
INFO: Received request from MONM1111 for returning a book with book id MON6231
Apr 11, 2019 7:36:39 PM serverInterfaceImplementation.MontrealLibraryImplementation returnItem
INFO: Received request from MONM1111 for returning a book with book id MON6231
Apr 11, 2019 7:36:39 PM serverInterfaceImplementation.MontrealLibraryImplementation returnItem
INFO: Received request from MONM1111 for returning a book with book id MON6231
Apr 11, 2019 7:36:39 PM serverInterfaceImplementation.MontrealLibraryImplementation addItem
INFO: Received request from MONM1111 to add an item with book id MON6231 ,book name Distributed & quantity 1
Apr 11, 2019 7:36:39 PM serverInterfaceImplementation.MontrealLibraryImplementation addItem
INFO: Received request from MONM1111 to add an item with book id MON6231 ,book name Distributed & quantity 5
Apr 11, 2019 7:36:39 PM serverInterfaceImplementation.MontrealLibraryImplementation addItem
INFO: Received request from MONM1111 to add an item with book id MON6441 ,book name APP & quantity 1
Apr 11, 2019 7:36:39 PM serverInterfaceImplementation.MontrealLibraryImplementation removeItem
INFO: Received request from MONM1111 to remove an item with book id MON6231 & quantity 1
Apr 11, 2019 7:36:39 PM serverInterfaceImplementation.MontrealLibraryImplementation removeItem
INFO: Received request from MONM1111 to remove an item with book id MON6231 & quantity 1
Apr 11, 2019 7:36:39 PM serverInterfaceImplementation.MontrealLibraryImplementation removeItem
INFO: Received request from MONM1111 to remove an item with book id MON6231 & quantity 1
Apr 11, 2019 7:36:39 PM serverInterfaceImplementation.MontrealLibraryImplementation findItem
INFO: Received request from MONU1111 for finding a book with book name DISTRIBUTED
Apr 11, 2019 7:36:39 PM serverInterfaceImplementation.MontrealLibraryImplementation exchangeItem
INFO: Received request from MONU1111 for exchanging MON6231 with MON6441
Apr 11, 2019 7:36:39 PM serverInterfaceImplementation.MontrealLibraryImplementation borrowItem
INFO: Received request from MONU1111 for borrowing a book with book id MON6231
Apr 11, 2019 7:36:39 PM serverInterfaceImplementation.MontrealLibraryImplementation addItem
INFO: Received request from MONM1111 to add an item with book id MON6231 ,book name Distributed & quantity 5
Apr 11, 2019 7:36:39 PM serverInterfaceImplementation.MontrealLibraryImplementation listItemAvailability
INFO: Received request from MONM1111 to list item
Apr 11, 2019 7:36:39 PM serverInterfaceImplementation.MontrealLibraryImplementation returnItem
INFO: Received request from MONU1111 for returning a book with book id MON6231
Apr 11, 2019 7:36:39 PM serverInterfaceImplementation.MontrealLibraryImplementation removeItem
INFO: Received request from MONM1111 to remove an item with book id MON6231 & quantity 1
Apr 11, 2019 7:37:04 PM serverInterfaceImplementation.MontrealLibraryImplementation addItem
INFO: Received request from MONM1111 to add an item with book id MON6231 ,book name Distributed & quantity 1
Apr 11, 2019 7:37:04 PM serverInterfaceImplementation.MontrealLibraryImplementation addItem
INFO: Received request from MONM1111 to add an item with book id MON6231 ,book name Distributed & quantity 5
Apr 11, 2019 7:37:04 PM serverInterfaceImplementation.MontrealLibraryImplementation addItem
INFO: Received request from MONM1111 to add an item with book id MON6441 ,book name APP & quantity 1
Apr 11, 2019 7:37:04 PM serverInterfaceImplementation.MontrealLibraryImplementation listItemAvailability
INFO: Received request from MONM1111 to list item
Apr 11, 2019 7:37:04 PM serverInterfaceImplementation.MontrealLibraryImplementation listItemAvailability
INFO: Received request from MONM1111 to list item
Apr 11, 2019 7:37:04 PM serverInterfaceImplementation.MontrealLibraryImplementation listItemAvailability
INFO: Received request from MONM1111 to list item
Apr 11, 2019 7:37:04 PM serverInterfaceImplementation.MontrealLibraryImplementation addItem
INFO: Received request from MONM1111 to add an item with book id MON6231 ,book name Distributed & quantity 1
Apr 11, 2019 7:37:04 PM serverInterfaceImplementation.MontrealLibraryImplementation addItem
INFO: Received request from MONM1111 to add an item with book id MON6231 ,book name Distributed & quantity 5
Apr 11, 2019 7:37:04 PM serverInterfaceImplementation.MontrealLibraryImplementation addItem
INFO: Received request from MONM1111 to add an item with book id MON6441 ,book name APP & quantity 1
Apr 11, 2019 7:37:04 PM serverInterfaceImplementation.MontrealLibraryImplementation returnItem
INFO: Received request from MONM1111 for returning a book with book id MON6231
Apr 11, 2019 7:37:04 PM serverInterfaceImplementation.MontrealLibraryImplementation returnItem
INFO: Received request from MONM1111 for returning a book with book id MON6231
Apr 11, 2019 7:37:04 PM serverInterfaceImplementation.MontrealLibraryImplementation returnItem
INFO: Received request from MONM1111 for returning a book with book id MON6231
Apr 11, 2019 7:37:04 PM serverInterfaceImplementation.MontrealLibraryImplementation addItem
INFO: Received request from MONM1111 to add an item with book id MON6231 ,book name Distributed & quantity 1
Apr 11, 2019 7:37:04 PM serverInterfaceImplementation.MontrealLibraryImplementation addItem
INFO: Received request from MONM1111 to add an item with book id MON6231 ,book name Distributed & quantity 5
Apr 11, 2019 7:37:04 PM serverInterfaceImplementation.MontrealLibraryImplementation addItem
INFO: Received request from MONM1111 to add an item with book id MON6441 ,book name APP & quantity 1
Apr 11, 2019 7:37:04 PM serverInterfaceImplementation.MontrealLibraryImplementation removeItem
INFO: Received request from MONM1111 to remove an item with book id MON6231 & quantity 1
Apr 11, 2019 7:37:04 PM serverInterfaceImplementation.MontrealLibraryImplementation removeItem
INFO: Received request from MONM1111 to remove an item with book id MON6231 & quantity 1
Apr 11, 2019 7:37:04 PM serverInterfaceImplementation.MontrealLibraryImplementation removeItem
INFO: Received request from MONM1111 to remove an item with book id MON6231 & quantity 1
Apr 11, 2019 7:37:04 PM serverInterfaceImplementation.MontrealLibraryImplementation findItem
INFO: Received request from MONU1111 for finding a book with book name DISTRIBUTED
Apr 11, 2019 7:37:04 PM serverInterfaceImplementation.MontrealLibraryImplementation exchangeItem
INFO: Received request from MONU1111 for exchanging MON6231 with MON6441
Apr 11, 2019 7:37:04 PM serverInterfaceImplementation.MontrealLibraryImplementation borrowItem
INFO: Received request from MONU1111 for borrowing a book with book id MON6231
Apr 11, 2019 7:37:04 PM serverInterfaceImplementation.MontrealLibraryImplementation addItem
INFO: Received request from MONM1111 to add an item with book id MON6231 ,book name Distributed & quantity 5
Apr 11, 2019 7:37:04 PM serverInterfaceImplementation.MontrealLibraryImplementation listItemAvailability
INFO: Received request from MONM1111 to list item
Apr 11, 2019 7:37:04 PM serverInterfaceImplementation.MontrealLibraryImplementation returnItem
INFO: Received request from MONU1111 for returning a book with book id MON6231
Apr 11, 2019 7:37:04 PM serverInterfaceImplementation.MontrealLibraryImplementation removeItem
INFO: Received request from MONM1111 to remove an item with book id MON6231 & quantity 1
Apr 11, 2019 7:52:24 PM serverInterfaceImplementation.MontrealLibraryImplementation addItem
INFO: Received request from MONM1111 to add an item with book id MON6231 ,book name Distributed & quantity 1
Apr 11, 2019 7:52:24 PM serverInterfaceImplementation.MontrealLibraryImplementation addItem
INFO: Received request from MONM1111 to add an item with book id MON6231 ,book name Distributed & quantity 5
Apr 11, 2019 7:52:24 PM serverInterfaceImplementation.MontrealLibraryImplementation addItem
INFO: Received request from MONM1111 to add an item with book id MON6441 ,book name APP & quantity 1
Apr 11, 2019 7:52:24 PM serverInterfaceImplementation.MontrealLibraryImplementation returnItem
INFO: Received request from MONM1111 for returning a book with book id MON6231
Apr 11, 2019 7:52:24 PM serverInterfaceImplementation.MontrealLibraryImplementation returnItem
INFO: Received request from MONM1111 for returning a book with book id MON6231
Apr 11, 2019 7:52:24 PM serverInterfaceImplementation.MontrealLibraryImplementation returnItem
INFO: Received request from MONM1111 for returning a book with book id MON6231
Apr 11, 2019 7:52:24 PM serverInterfaceImplementation.MontrealLibraryImplementation addItem
INFO: Received request from MONM1111 to add an item with book id MON6231 ,book name Distributed & quantity 1
Apr 11, 2019 7:52:24 PM serverInterfaceImplementation.MontrealLibraryImplementation addItem
INFO: Received request from MONM1111 to add an item with book id MON6231 ,book name Distributed & quantity 5
Apr 11, 2019 7:52:24 PM serverInterfaceImplementation.MontrealLibraryImplementation addItem
INFO: Received request from MONM1111 to add an item with book id MON6441 ,book name APP & quantity 1
Apr 11, 2019 7:52:24 PM serverInterfaceImplementation.MontrealLibraryImplementation removeItem
INFO: Received request from MONM1111 to remove an item with book id MON6231 & quantity 1
Apr 11, 2019 7:52:24 PM serverInterfaceImplementation.MontrealLibraryImplementation removeItem
INFO: Received request from MONM1111 to remove an item with book id MON6231 & quantity 1
Apr 11, 2019 7:52:24 PM serverInterfaceImplementation.MontrealLibraryImplementation removeItem
INFO: Received request from MONM1111 to remove an item with book id MON6231 & quantity 1
Apr 11, 2019 7:52:24 PM serverInterfaceImplementation.MontrealLibraryImplementation findItem
INFO: Received request from MONU1111 for finding a book with book name DISTRIBUTED
Apr 11, 2019 7:52:24 PM serverInterfaceImplementation.MontrealLibraryImplementation exchangeItem
INFO: Received request from MONU1111 for exchanging MON6231 with MON6441
Apr 11, 2019 7:52:24 PM serverInterfaceImplementation.MontrealLibraryImplementation borrowItem
INFO: Received request from MONU1111 for borrowing a book with book id MON6231
Apr 11, 2019 7:52:24 PM serverInterfaceImplementation.MontrealLibraryImplementation addItem
INFO: Received request from MONM1111 to add an item with book id MON6231 ,book name Distributed & quantity 5
Apr 11, 2019 7:52:24 PM serverInterfaceImplementation.MontrealLibraryImplementation listItemAvailability
INFO: Received request from MONM1111 to list item
Apr 11, 2019 7:52:24 PM serverInterfaceImplementation.MontrealLibraryImplementation removeItem
INFO: Received request from MONM1111 to remove an item with book id MON6231 & quantity 1
Apr 11, 2019 7:52:24 PM serverInterfaceImplementation.MontrealLibraryImplementation returnItem
INFO: Received request from MONU1111 for returning a book with book id MON6231
Apr 12, 2019 9:45:32 AM serverInterfaceImplementation.MontrealLibraryImplementation addItem
INFO: Received request from MONM1111 to add an item with book id MON6231 ,book name Distributed & quantity 1
Apr 12, 2019 9:45:32 AM serverInterfaceImplementation.MontrealLibraryImplementation addItem
INFO: Received request from MONM1111 to add an item with book id MON6231 ,book name Distributed & quantity 5
Apr 12, 2019 9:45:32 AM serverInterfaceImplementation.MontrealLibraryImplementation addItem
INFO: Received request from MONM1111 to add an item with book id MON6441 ,book name APP & quantity 1
Apr 12, 2019 9:45:32 AM serverInterfaceImplementation.MontrealLibraryImplementation returnItem
INFO: Received request from MONM1111 for returning a book with book id MON6231
Apr 12, 2019 9:45:32 AM serverInterfaceImplementation.MontrealLibraryImplementation returnItem
INFO: Received request from MONM1111 for returning a book with book id MON6231
Apr 12, 2019 9:45:32 AM serverInterfaceImplementation.MontrealLibraryImplementation returnItem
INFO: Received request from MONM1111 for returning a book with book id MON6231
Apr 12, 2019 9:45:32 AM serverInterfaceImplementation.MontrealLibraryImplementation addItem
INFO: Received request from MONM1111 to add an item with book id MON6231 ,book name Distributed & quantity 1
Apr 12, 2019 9:45:32 AM serverInterfaceImplementation.MontrealLibraryImplementation addItem
INFO: Received request from MONM1111 to add an item with book id MON6231 ,book name Distributed & quantity 5
Apr 12, 2019 9:45:32 AM serverInterfaceImplementation.MontrealLibraryImplementation addItem
INFO: Received request from MONM1111 to add an item with book id MON6441 ,book name APP & quantity 1
Apr 12, 2019 9:45:32 AM serverInterfaceImplementation.MontrealLibraryImplementation removeItem
INFO: Received request from MONM1111 to remove an item with book id MON6231 & quantity 1
Apr 12, 2019 9:45:32 AM serverInterfaceImplementation.MontrealLibraryImplementation removeItem
INFO: Received request from MONM1111 to remove an item with book id MON6231 & quantity 1
Apr 12, 2019 9:45:32 AM serverInterfaceImplementation.MontrealLibraryImplementation removeItem
INFO: Received request from MONM1111 to remove an item with book id MON6231 & quantity 1
Apr 12, 2019 9:45:32 AM serverInterfaceImplementation.MontrealLibraryImplementation findItem
INFO: Received request from MONU1111 for finding a book with book name DISTRIBUTED
Apr 12, 2019 9:45:32 AM serverInterfaceImplementation.MontrealLibraryImplementation exchangeItem
INFO: Received request from MONU1111 for exchanging MON6231 with MON6441
Apr 12, 2019 9:45:32 AM serverInterfaceImplementation.MontrealLibraryImplementation addItem
INFO: Received request from MONM1111 to add an item with book id MON6231 ,book name Distributed & quantity 5
Apr 12, 2019 9:45:32 AM serverInterfaceImplementation.MontrealLibraryImplementation borrowItem
INFO: Received request from MONU1111 for borrowing a book with book id MON6231
Apr 12, 2019 9:45:32 AM serverInterfaceImplementation.MontrealLibraryImplementation listItemAvailability
INFO: Received request from MONM1111 to list item
Apr 12, 2019 9:45:32 AM serverInterfaceImplementation.MontrealLibraryImplementation returnItem
INFO: Received request from MONU1111 for returning a book with book id MON6231
Apr 12, 2019 9:45:32 AM serverInterfaceImplementation.MontrealLibraryImplementation removeItem
INFO: Received request from MONM1111 to remove an item with book id MON6231 & quantity 1
Apr 12, 2019 11:36:55 AM serverInterfaceImplementation.MontrealLibraryImplementation addItem
INFO: Received request from MONM1111 to add an item with book id MON6231 ,book name Distributed & quantity 1
Apr 12, 2019 11:36:55 AM serverInterfaceImplementation.MontrealLibraryImplementation addItem
INFO: Received request from MONM1111 to add an item with book id MON6231 ,book name Distributed & quantity 5
Apr 12, 2019 11:36:55 AM serverInterfaceImplementation.MontrealLibraryImplementation addItem
INFO: Received request from MONM1111 to add an item with book id MON6441 ,book name APP & quantity 1
Apr 12, 2019 11:36:55 AM serverInterfaceImplementation.MontrealLibraryImplementation listItemAvailability
INFO: Received request from MONM1111 to list item
Apr 12, 2019 11:36:55 AM serverInterfaceImplementation.MontrealLibraryImplementation listItemAvailability
INFO: Received request from MONM1111 to list item
Apr 12, 2019 11:36:55 AM serverInterfaceImplementation.MontrealLibraryImplementation listItemAvailability
INFO: Received request from MONM1111 to list item
Apr 12, 2019 11:36:55 AM serverInterfaceImplementation.MontrealLibraryImplementation addItem
INFO: Received request from MONM1111 to add an item with book id MON6231 ,book name Distributed & quantity 1
Apr 12, 2019 11:36:55 AM serverInterfaceImplementation.MontrealLibraryImplementation addItem
INFO: Received request from MONM1111 to add an item with book id MON6231 ,book name Distributed & quantity 5
Apr 12, 2019 11:36:55 AM serverInterfaceImplementation.MontrealLibraryImplementation addItem
INFO: Received request from MONM1111 to add an item with book id MON6441 ,book name APP & quantity 1
Apr 12, 2019 11:36:55 AM serverInterfaceImplementation.MontrealLibraryImplementation returnItem
INFO: Received request from MONM1111 for returning a book with book id MON6231
Apr 12, 2019 11:36:55 AM serverInterfaceImplementation.MontrealLibraryImplementation returnItem
INFO: Received request from MONM1111 for returning a book with book id MON6231
Apr 12, 2019 11:36:55 AM serverInterfaceImplementation.MontrealLibraryImplementation returnItem
INFO: Received request from MONM1111 for returning a book with book id MON6231
Apr 12, 2019 11:36:55 AM serverInterfaceImplementation.MontrealLibraryImplementation addItem
INFO: Received request from MONM1111 to add an item with book id MON6231 ,book name Distributed & quantity 1
Apr 12, 2019 11:36:55 AM serverInterfaceImplementation.MontrealLibraryImplementation addItem
INFO: Received request from MONM1111 to add an item with book id MON6231 ,book name Distributed & quantity 5
Apr 12, 2019 11:36:55 AM serverInterfaceImplementation.MontrealLibraryImplementation addItem
INFO: Received request from MONM1111 to add an item with book id MON6441 ,book name APP & quantity 1
Apr 12, 2019 11:36:55 AM serverInterfaceImplementation.MontrealLibraryImplementation removeItem
INFO: Received request from MONM1111 to remove an item with book id MON6231 & quantity 1
Apr 12, 2019 11:36:55 AM serverInterfaceImplementation.MontrealLibraryImplementation removeItem
INFO: Received request from MONM1111 to remove an item with book id MON6231 & quantity 1
Apr 12, 2019 11:36:55 AM serverInterfaceImplementation.MontrealLibraryImplementation removeItem
INFO: Received request from MONM1111 to remove an item with book id MON6231 & quantity 1
Apr 12, 2019 11:36:55 AM serverInterfaceImplementation.MontrealLibraryImplementation findItem
INFO: Received request from MONU1111 for finding a book with book name DISTRIBUTED
Apr 12, 2019 11:36:55 AM serverInterfaceImplementation.MontrealLibraryImplementation exchangeItem
INFO: Received request from MONU1111 for exchanging MON6231 with MON6441
Apr 12, 2019 11:36:55 AM serverInterfaceImplementation.MontrealLibraryImplementation borrowItem
INFO: Received request from MONU1111 for borrowing a book with book id MON6231
Apr 12, 2019 11:36:55 AM serverInterfaceImplementation.MontrealLibraryImplementation addItem
INFO: Received request from MONM1111 to add an item with book id MON6231 ,book name Distributed & quantity 5
Apr 12, 2019 11:36:55 AM serverInterfaceImplementation.MontrealLibraryImplementation listItemAvailability
INFO: Received request from MONM1111 to list item
Apr 12, 2019 11:36:55 AM serverInterfaceImplementation.MontrealLibraryImplementation removeItem
INFO: Received request from MONM1111 to remove an item with book id MON6231 & quantity 1
Apr 12, 2019 11:36:55 AM serverInterfaceImplementation.MontrealLibraryImplementation returnItem
INFO: Received request from MONU1111 for returning a book with book id MON6231
Apr 12, 2019 12:43:32 PM serverInterfaceImplementation.MontrealLibraryImplementation addItem
INFO: Received request from MONM1111 to add an item with book id MON6231 ,book name Distributed & quantity 1
Apr 12, 2019 12:43:32 PM serverInterfaceImplementation.MontrealLibraryImplementation addItem
INFO: Received request from MONM1111 to add an item with book id MON6231 ,book name Distributed & quantity 5
Apr 12, 2019 12:43:32 PM serverInterfaceImplementation.MontrealLibraryImplementation addItem
INFO: Received request from MONM1111 to add an item with book id MON6441 ,book name APP & quantity 1
Apr 12, 2019 12:43:32 PM serverInterfaceImplementation.MontrealLibraryImplementation returnItem
INFO: Received request from MONM1111 for returning a book with book id MON6231
Apr 12, 2019 12:43:32 PM serverInterfaceImplementation.MontrealLibraryImplementation returnItem
INFO: Received request from MONM1111 for returning a book with book id MON6231
Apr 12, 2019 12:43:32 PM serverInterfaceImplementation.MontrealLibraryImplementation returnItem
INFO: Received request from MONM1111 for returning a book with book id MON6231
Apr 12, 2019 12:43:32 PM serverInterfaceImplementation.MontrealLibraryImplementation addItem
INFO: Received request from MONM1111 to add an item with book id MON6231 ,book name Distributed & quantity 1
Apr 12, 2019 12:43:32 PM serverInterfaceImplementation.MontrealLibraryImplementation addItem
INFO: Received request from MONM1111 to add an item with book id MON6231 ,book name Distributed & quantity 5
Apr 12, 2019 12:43:32 PM serverInterfaceImplementation.MontrealLibraryImplementation addItem
INFO: Received request from MONM1111 to add an item with book id MON6441 ,book name APP & quantity 1
Apr 12, 2019 12:43:32 PM serverInterfaceImplementation.MontrealLibraryImplementation removeItem
INFO: Received request from MONM1111 to remove an item with book id MON6231 & quantity 1
Apr 12, 2019 12:43:32 PM serverInterfaceImplementation.MontrealLibraryImplementation removeItem
INFO: Received request from MONM1111 to remove an item with book id MON6231 & quantity 1
Apr 12, 2019 12:43:32 PM serverInterfaceImplementation.MontrealLibraryImplementation removeItem
INFO: Received request from MONM1111 to remove an item with book id MON6231 & quantity 1
Apr 12, 2019 12:43:32 PM serverInterfaceImplementation.MontrealLibraryImplementation findItem
INFO: Received request from MONU1111 for finding a book with book name DISTRIBUTED
Apr 12, 2019 12:43:32 PM serverInterfaceImplementation.MontrealLibraryImplementation exchangeItem
INFO: Received request from MONU1111 for exchanging MON6231 with MON6441
Apr 12, 2019 12:43:32 PM serverInterfaceImplementation.MontrealLibraryImplementation borrowItem
INFO: Received request from MONU1111 for borrowing a book with book id MON6231
Apr 12, 2019 12:43:32 PM serverInterfaceImplementation.MontrealLibraryImplementation addItem
INFO: Received request from MONM1111 to add an item with book id MON6231 ,book name Distributed & quantity 5
Apr 12, 2019 12:43:32 PM serverInterfaceImplementation.MontrealLibraryImplementation listItemAvailability
INFO: Received request from MONM1111 to list item
Apr 12, 2019 12:43:32 PM serverInterfaceImplementation.MontrealLibraryImplementation returnItem
INFO: Received request from MONU1111 for returning a book with book id MON6231
Apr 12, 2019 12:43:32 PM serverInterfaceImplementation.MontrealLibraryImplementation removeItem
INFO: Received request from MONM1111 to remove an item with book id MON6231 & quantity 1
Apr 13, 2019 10:18:10 PM serverInterfaceImplementation.MontrealLibraryImplementation addItem
INFO: Received request from MONM1111 to add an item with book id MON6231 ,book name Distributed & quantity 1
Apr 13, 2019 10:18:10 PM serverInterfaceImplementation.MontrealLibraryImplementation addItem
INFO: Received request from MONM1111 to add an item with book id MON6231 ,book name Distributed & quantity 5
Apr 13, 2019 10:18:10 PM serverInterfaceImplementation.MontrealLibraryImplementation addItem
INFO: Received request from MONM1111 to add an item with book id MON6441 ,book name APP & quantity 1
Apr 13, 2019 10:18:10 PM serverInterfaceImplementation.MontrealLibraryImplementation listItemAvailability
INFO: Received request from MONM1111 to list item
Apr 13, 2019 10:18:10 PM serverInterfaceImplementation.MontrealLibraryImplementation listItemAvailability
INFO: Received request from MONM1111 to list item
Apr 13, 2019 10:18:10 PM serverInterfaceImplementation.MontrealLibraryImplementation listItemAvailability
INFO: Received request from MONM1111 to list item
Apr 13, 2019 10:18:10 PM serverInterfaceImplementation.MontrealLibraryImplementation addItem
INFO: Received request from MONM1111 to add an item with book id MON6231 ,book name Distributed & quantity 1
Apr 13, 2019 10:18:10 PM serverInterfaceImplementation.MontrealLibraryImplementation addItem
INFO: Received request from MONM1111 to add an item with book id MON6231 ,book name Distributed & quantity 5
Apr 13, 2019 10:18:10 PM serverInterfaceImplementation.MontrealLibraryImplementation addItem
INFO: Received request from MONM1111 to add an item with book id MON6441 ,book name APP & quantity 1
Apr 13, 2019 10:18:10 PM serverInterfaceImplementation.MontrealLibraryImplementation returnItem
INFO: Received request from MONM1111 for returning a book with book id MON6231
Apr 13, 2019 10:18:10 PM serverInterfaceImplementation.MontrealLibraryImplementation returnItem
INFO: Received request from MONM1111 for returning a book with book id MON6231
Apr 13, 2019 10:18:10 PM serverInterfaceImplementation.MontrealLibraryImplementation returnItem
INFO: Received request from MONM1111 for returning a book with book id MON6231
Apr 13, 2019 10:18:10 PM serverInterfaceImplementation.MontrealLibraryImplementation addItem
INFO: Received request from MONM1111 to add an item with book id MON6231 ,book name Distributed & quantity 1
Apr 13, 2019 10:18:10 PM serverInterfaceImplementation.MontrealLibraryImplementation addItem
INFO: Received request from MONM1111 to add an item with book id MON6231 ,book name Distributed & quantity 5
Apr 13, 2019 10:18:10 PM serverInterfaceImplementation.MontrealLibraryImplementation addItem
INFO: Received request from MONM1111 to add an item with book id MON6441 ,book name APP & quantity 1
Apr 13, 2019 10:18:10 PM serverInterfaceImplementation.MontrealLibraryImplementation removeItem
INFO: Received request from MONM1111 to remove an item with book id MON6231 & quantity 1
Apr 13, 2019 10:18:10 PM serverInterfaceImplementation.MontrealLibraryImplementation removeItem
INFO: Received request from MONM1111 to remove an item with book id MON6231 & quantity 1
Apr 13, 2019 10:18:10 PM serverInterfaceImplementation.MontrealLibraryImplementation removeItem
INFO: Received request from MONM1111 to remove an item with book id MON6231 & quantity 1
Apr 13, 2019 10:18:10 PM serverInterfaceImplementation.MontrealLibraryImplementation findItem
INFO: Received request from MONU1111 for finding a book with book name DISTRIBUTED
Apr 13, 2019 10:18:10 PM serverInterfaceImplementation.MontrealLibraryImplementation exchangeItem
INFO: Received request from MONU1111 for exchanging MON6231 with MON6441
Apr 13, 2019 10:18:10 PM serverInterfaceImplementation.MontrealLibraryImplementation borrowItem
INFO: Received request from MONU1111 for borrowing a book with book id MON6231
Apr 13, 2019 10:18:10 PM serverInterfaceImplementation.MontrealLibraryImplementation addItem
INFO: Received request from MONM1111 to add an item with book id MON6231 ,book name Distributed & quantity 5
Apr 13, 2019 10:18:10 PM serverInterfaceImplementation.MontrealLibraryImplementation listItemAvailability
INFO: Received request from MONM1111 to list item
Apr 13, 2019 10:18:10 PM serverInterfaceImplementation.MontrealLibraryImplementation returnItem
INFO: Received request from MONU1111 for returning a book with book id MON6231
Apr 13, 2019 10:18:10 PM serverInterfaceImplementation.MontrealLibraryImplementation removeItem
INFO: Received request from MONM1111 to remove an item with book id MON6231 & quantity 1
